^C:\USERS\ADITYA\DESKTOP\GDAP\PHYSICS\PHYSICS- PROJECT1\PHYSICS- PROJECT1\W06D1_GRAPHPHYS\CBUNNY.CPP
/c /ZI /nologo /W3 /WX- /Od /Oy- /D WIN32 /D _DEBUG /D _CONSOLE /D _UNICODE /D UNICODE /Gm /EHsc /RTC1 /MDd /GS /fp:precise /Zc:wchar_t /Zc:forScope /Fo"DEBUG\\" /Fd"DEBUG\VC120.PDB" /Gd /TP /analyze- C:\USERS\ADITYA\DESKTOP\GDAP\PHYSICS\PHYSICS- PROJECT1\PHYSICS- PROJECT1\W06D1_GRAPHPHYS\CBUNNY.CPP
^C:\USERS\ADITYA\DESKTOP\GDAP\PHYSICS\PHYSICS- PROJECT1\PHYSICS- PROJECT1\W06D1_GRAPHPHYS\CCAMERA.CPP
/c /ZI /nologo /W3 /WX- /Od /Oy- /D WIN32 /D _DEBUG /D _CONSOLE /D _UNICODE /D UNICODE /Gm /EHsc /RTC1 /MDd /GS /fp:precise /Zc:wchar_t /Zc:forScope /Fo"DEBUG\\" /Fd"DEBUG\VC120.PDB" /Gd /TP /analyze- C:\USERS\ADITYA\DESKTOP\GDAP\PHYSICS\PHYSICS- PROJECT1\PHYSICS- PROJECT1\W06D1_GRAPHPHYS\CCAMERA.CPP
^C:\USERS\ADITYA\DESKTOP\GDAP\PHYSICS\PHYSICS- PROJECT1\PHYSICS- PROJECT1\W06D1_GRAPHPHYS\CMESSAGE.CPP
/c /ZI /nologo /W3 /WX- /Od /Oy- /D WIN32 /D _DEBUG /D _CONSOLE /D _UNICODE /D UNICODE /Gm /EHsc /RTC1 /MDd /GS /fp:precise /Zc:wchar_t /Zc:forScope /Fo"DEBUG\\" /Fd"DEBUG\VC120.PDB" /Gd /TP /analyze- C:\USERS\ADITYA\DESKTOP\GDAP\PHYSICS\PHYSICS- PROJECT1\PHYSICS- PROJECT1\W06D1_GRAPHPHYS\CMESSAGE.CPP
^C:\USERS\ADITYA\DESKTOP\GDAP\PHYSICS\PHYSICS- PROJECT1\PHYSICS- PROJECT1\W06D1_GRAPHPHYS\CFACTORYMEDIATOR.CPP
/c /ZI /nologo /W3 /WX- /Od /Oy- /D WIN32 /D _DEBUG /D _CONSOLE /D _UNICODE /D UNICODE /Gm /EHsc /RTC1 /MDd /GS /fp:precise /Zc:wchar_t /Zc:forScope /Fo"DEBUG\\" /Fd"DEBUG\VC120.PDB" /Gd /TP /analyze- C:\USERS\ADITYA\DESKTOP\GDAP\PHYSICS\PHYSICS- PROJECT1\PHYSICS- PROJECT1\W06D1_GRAPHPHYS\CFACTORYMEDIATOR.CPP
^C:\USERS\ADITYA\DESKTOP\GDAP\PHYSICS\PHYSICS- PROJECT1\PHYSICS- PROJECT1\W06D1_GRAPHPHYS\CHRTIMER.CPP
/c /ZI /nologo /W3 /WX- /Od /Oy- /D WIN32 /D _DEBUG /D _CONSOLE /D _UNICODE /D UNICODE /Gm /EHsc /RTC1 /MDd /GS /fp:precise /Zc:wchar_t /Zc:forScope /Fo"DEBUG\\" /Fd"DEBUG\VC120.PDB" /Gd /TP /analyze- C:\USERS\ADITYA\DESKTOP\GDAP\PHYSICS\PHYSICS- PROJECT1\PHYSICS- PROJECT1\W06D1_GRAPHPHYS\CHRTIMER.CPP
^C:\USERS\ADITYA\DESKTOP\GDAP\PHYSICS\PHYSICS- PROJECT1\PHYSICS- PROJECT1\W06D1_GRAPHPHYS\CMODELLOADERMANAGER.CPP
/c /ZI /nologo /W3 /WX- /Od /Oy- /D WIN32 /D _DEBUG /D _CONSOLE /D _UNICODE /D UNICODE /Gm /EHsc /RTC1 /MDd /GS /fp:precise /Zc:wchar_t /Zc:forScope /Fo"DEBUG\\" /Fd"DEBUG\VC120.PDB" /Gd /TP /analyze- C:\USERS\ADITYA\DESKTOP\GDAP\PHYSICS\PHYSICS- PROJECT1\PHYSICS- PROJECT1\W06D1_GRAPHPHYS\CMODELLOADERMANAGER.CPP
^C:\USERS\ADITYA\DESKTOP\GDAP\PHYSICS\PHYSICS- PROJECT1\PHYSICS- PROJECT1\W06D1_GRAPHPHYS\CNAMEVALUEPAIR.CPP
/c /ZI /nologo /W3 /WX- /Od /Oy- /D WIN32 /D _DEBUG /D _CONSOLE /D _UNICODE /D UNICODE /Gm /EHsc /RTC1 /MDd /GS /fp:precise /Zc:wchar_t /Zc:forScope /Fo"DEBUG\\" /Fd"DEBUG\VC120.PDB" /Gd /TP /analyze- C:\USERS\ADITYA\DESKTOP\GDAP\PHYSICS\PHYSICS- PROJECT1\PHYSICS- PROJECT1\W06D1_GRAPHPHYS\CNAMEVALUEPAIR.CPP
^C:\USERS\ADITYA\DESKTOP\GDAP\PHYSICS\PHYSICS- PROJECT1\PHYSICS- PROJECT1\W06D1_GRAPHPHYS\CNINJATEAPOT.CPP
/c /ZI /nologo /W3 /WX- /Od /Oy- /D WIN32 /D _DEBUG /D _CONSOLE /D _UNICODE /D UNICODE /Gm /EHsc /RTC1 /MDd /GS /fp:precise /Zc:wchar_t /Zc:forScope /Fo"DEBUG\\" /Fd"DEBUG\VC120.PDB" /Gd /TP /analyze- C:\USERS\ADITYA\DESKTOP\GDAP\PHYSICS\PHYSICS- PROJECT1\PHYSICS- PROJECT1\W06D1_GRAPHPHYS\CNINJATEAPOT.CPP
^C:\USERS\ADITYA\DESKTOP\GDAP\PHYSICS\PHYSICS- PROJECT1\PHYSICS- PROJECT1\W06D1_GRAPHPHYS\COLLISIONTEST.CPP
/c /ZI /nologo /W3 /WX- /Od /Oy- /D WIN32 /D _DEBUG /D _CONSOLE /D _UNICODE /D UNICODE /Gm /EHsc /RTC1 /MDd /GS /fp:precise /Zc:wchar_t /Zc:forScope /Fo"DEBUG\\" /Fd"DEBUG\VC120.PDB" /Gd /TP /analyze- C:\USERS\ADITYA\DESKTOP\GDAP\PHYSICS\PHYSICS- PROJECT1\PHYSICS- PROJECT1\W06D1_GRAPHPHYS\COLLISIONTEST.CPP
^C:\USERS\ADITYA\DESKTOP\GDAP\PHYSICS\PHYSICS- PROJECT1\PHYSICS- PROJECT1\W06D1_GRAPHPHYS\CPLYFILE5NT.CPP
/c /ZI /nologo /W3 /WX- /Od /Oy- /D WIN32 /D _DEBUG /D _CONSOLE /D _UNICODE /D UNICODE /Gm /EHsc /RTC1 /MDd /GS /fp:precise /Zc:wchar_t /Zc:forScope /Fo"DEBUG\\" /Fd"DEBUG\VC120.PDB" /Gd /TP /analyze- C:\USERS\ADITYA\DESKTOP\GDAP\PHYSICS\PHYSICS- PROJECT1\PHYSICS- PROJECT1\W06D1_GRAPHPHYS\CPLYFILE5NT.CPP
^C:\USERS\ADITYA\DESKTOP\GDAP\PHYSICS\PHYSICS- PROJECT1\PHYSICS- PROJECT1\W06D1_GRAPHPHYS\CSPHERE.CPP
/c /ZI /nologo /W3 /WX- /Od /Oy- /D WIN32 /D _DEBUG /D _CONSOLE /D _UNICODE /D UNICODE /Gm /EHsc /RTC1 /MDd /GS /fp:precise /Zc:wchar_t /Zc:forScope /Fo"DEBUG\\" /Fd"DEBUG\VC120.PDB" /Gd /TP /analyze- C:\USERS\ADITYA\DESKTOP\GDAP\PHYSICS\PHYSICS- PROJECT1\PHYSICS- PROJECT1\W06D1_GRAPHPHYS\CSPHERE.CPP
^C:\USERS\ADITYA\DESKTOP\GDAP\PHYSICS\PHYSICS- PROJECT1\PHYSICS- PROJECT1\W06D1_GRAPHPHYS\CTRIANGLE.CPP
/c /ZI /nologo /W3 /WX- /Od /Oy- /D WIN32 /D _DEBUG /D _CONSOLE /D _UNICODE /D UNICODE /Gm /EHsc /RTC1 /MDd /GS /fp:precise /Zc:wchar_t /Zc:forScope /Fo"DEBUG\\" /Fd"DEBUG\VC120.PDB" /Gd /TP /analyze- C:\USERS\ADITYA\DESKTOP\GDAP\PHYSICS\PHYSICS- PROJECT1\PHYSICS- PROJECT1\W06D1_GRAPHPHYS\CTRIANGLE.CPP
^C:\USERS\ADITYA\DESKTOP\GDAP\PHYSICS\PHYSICS- PROJECT1\PHYSICS- PROJECT1\W06D1_GRAPHPHYS\CVECTOR3F.CPP
/c /ZI /nologo /W3 /WX- /Od /Oy- /D WIN32 /D _DEBUG /D _CONSOLE /D _UNICODE /D UNICODE /Gm /EHsc /RTC1 /MDd /GS /fp:precise /Zc:wchar_t /Zc:forScope /Fo"DEBUG\\" /Fd"DEBUG\VC120.PDB" /Gd /TP /analyze- C:\USERS\ADITYA\DESKTOP\GDAP\PHYSICS\PHYSICS- PROJECT1\PHYSICS- PROJECT1\W06D1_GRAPHPHYS\CVECTOR3F.CPP
^C:\USERS\ADITYA\DESKTOP\GDAP\PHYSICS\PHYSICS- PROJECT1\PHYSICS- PROJECT1\W06D1_GRAPHPHYS\CVERTEX.CPP
/c /ZI /nologo /W3 /WX- /Od /Oy- /D WIN32 /D _DEBUG /D _CONSOLE /D _UNICODE /D UNICODE /Gm /EHsc /RTC1 /MDd /GS /fp:precise /Zc:wchar_t /Zc:forScope /Fo"DEBUG\\" /Fd"DEBUG\VC120.PDB" /Gd /TP /analyze- C:\USERS\ADITYA\DESKTOP\GDAP\PHYSICS\PHYSICS- PROJECT1\PHYSICS- PROJECT1\W06D1_GRAPHPHYS\CVERTEX.CPP
^C:\USERS\ADITYA\DESKTOP\GDAP\PHYSICS\PHYSICS- PROJECT1\PHYSICS- PROJECT1\W06D1_GRAPHPHYS\CGAMEOBJECT.CPP
/c /ZI /nologo /W3 /WX- /Od /Oy- /D WIN32 /D _DEBUG /D _CONSOLE /D _UNICODE /D UNICODE /Gm /EHsc /RTC1 /MDd /GS /fp:precise /Zc:wchar_t /Zc:forScope /Fo"DEBUG\\" /Fd"DEBUG\VC120.PDB" /Gd /TP /analyze- C:\USERS\ADITYA\DESKTOP\GDAP\PHYSICS\PHYSICS- PROJECT1\PHYSICS- PROJECT1\W06D1_GRAPHPHYS\CGAMEOBJECT.CPP
^C:\USERS\ADITYA\DESKTOP\GDAP\PHYSICS\PHYSICS- PROJECT1\PHYSICS- PROJECT1\W06D1_GRAPHPHYS\FILEDATALOADER.CPP
/c /ZI /nologo /W3 /WX- /Od /Oy- /D WIN32 /D _DEBUG /D _CONSOLE /D _UNICODE /D UNICODE /Gm /EHsc /RTC1 /MDd /GS /fp:precise /Zc:wchar_t /Zc:forScope /Fo"DEBUG\\" /Fd"DEBUG\VC120.PDB" /Gd /TP /analyze- C:\USERS\ADITYA\DESKTOP\GDAP\PHYSICS\PHYSICS- PROJECT1\PHYSICS- PROJECT1\W06D1_GRAPHPHYS\FILEDATALOADER.CPP
^C:\USERS\ADITYA\DESKTOP\GDAP\PHYSICS\PHYSICS- PROJECT1\PHYSICS- PROJECT1\W06D1_GRAPHPHYS\GLOBAL.CPP
/c /ZI /nologo /W3 /WX- /Od /Oy- /D WIN32 /D _DEBUG /D _CONSOLE /D _UNICODE /D UNICODE /Gm /EHsc /RTC1 /MDd /GS /fp:precise /Zc:wchar_t /Zc:forScope /Fo"DEBUG\\" /Fd"DEBUG\VC120.PDB" /Gd /TP /analyze- C:\USERS\ADITYA\DESKTOP\GDAP\PHYSICS\PHYSICS- PROJECT1\PHYSICS- PROJECT1\W06D1_GRAPHPHYS\GLOBAL.CPP
^C:\USERS\ADITYA\DESKTOP\GDAP\PHYSICS\PHYSICS- PROJECT1\PHYSICS- PROJECT1\W06D1_GRAPHPHYS\GLUTCLOSE_CALLBACK.CPP
/c /ZI /nologo /W3 /WX- /Od /Oy- /D WIN32 /D _DEBUG /D _CONSOLE /D _UNICODE /D UNICODE /Gm /EHsc /RTC1 /MDd /GS /fp:precise /Zc:wchar_t /Zc:forScope /Fo"DEBUG\\" /Fd"DEBUG\VC120.PDB" /Gd /TP /analyze- C:\USERS\ADITYA\DESKTOP\GDAP\PHYSICS\PHYSICS- PROJECT1\PHYSICS- PROJECT1\W06D1_GRAPHPHYS\GLUTCLOSE_CALLBACK.CPP
^C:\USERS\ADITYA\DESKTOP\GDAP\PHYSICS\PHYSICS- PROJECT1\PHYSICS- PROJECT1\W06D1_GRAPHPHYS\GLUTDISPLAY_CALLBACK.CPP
/c /ZI /nologo /W3 /WX- /Od /Oy- /D WIN32 /D _DEBUG /D _CONSOLE /D _UNICODE /D UNICODE /Gm /EHsc /RTC1 /MDd /GS /fp:precise /Zc:wchar_t /Zc:forScope /Fo"DEBUG\\" /Fd"DEBUG\VC120.PDB" /Gd /TP /analyze- C:\USERS\ADITYA\DESKTOP\GDAP\PHYSICS\PHYSICS- PROJECT1\PHYSICS- PROJECT1\W06D1_GRAPHPHYS\GLUTDISPLAY_CALLBACK.CPP
^C:\USERS\ADITYA\DESKTOP\GDAP\PHYSICS\PHYSICS- PROJECT1\PHYSICS- PROJECT1\W06D1_GRAPHPHYS\GLUTIDLE_CALLBACK.CPP
/c /ZI /nologo /W3 /WX- /Od /Oy- /D WIN32 /D _DEBUG /D _CONSOLE /D _UNICODE /D UNICODE /Gm /EHsc /RTC1 /MDd /GS /fp:precise /Zc:wchar_t /Zc:forScope /Fo"DEBUG\\" /Fd"DEBUG\VC120.PDB" /Gd /TP /analyze- C:\USERS\ADITYA\DESKTOP\GDAP\PHYSICS\PHYSICS- PROJECT1\PHYSICS- PROJECT1\W06D1_GRAPHPHYS\GLUTIDLE_CALLBACK.CPP
^C:\USERS\ADITYA\DESKTOP\GDAP\PHYSICS\PHYSICS- PROJECT1\PHYSICS- PROJECT1\W06D1_GRAPHPHYS\GLUTKEYBOARDSPECIAL_CALLBACKS.CPP
/c /ZI /nologo /W3 /WX- /Od /Oy- /D WIN32 /D _DEBUG /D _CONSOLE /D _UNICODE /D UNICODE /Gm /EHsc /RTC1 /MDd /GS /fp:precise /Zc:wchar_t /Zc:forScope /Fo"DEBUG\\" /Fd"DEBUG\VC120.PDB" /Gd /TP /analyze- C:\USERS\ADITYA\DESKTOP\GDAP\PHYSICS\PHYSICS- PROJECT1\PHYSICS- PROJECT1\W06D1_GRAPHPHYS\GLUTKEYBOARDSPECIAL_CALLBACKS.CPP
^C:\USERS\ADITYA\DESKTOP\GDAP\PHYSICS\PHYSICS- PROJECT1\PHYSICS- PROJECT1\W06D1_GRAPHPHYS\GLUTRESHAPE_CALLBACK.CPP
/c /ZI /nologo /W3 /WX- /Od /Oy- /D WIN32 /D _DEBUG /D _CONSOLE /D _UNICODE /D UNICODE /Gm /EHsc /RTC1 /MDd /GS /fp:precise /Zc:wchar_t /Zc:forScope /Fo"DEBUG\\" /Fd"DEBUG\VC120.PDB" /Gd /TP /analyze- C:\USERS\ADITYA\DESKTOP\GDAP\PHYSICS\PHYSICS- PROJECT1\PHYSICS- PROJECT1\W06D1_GRAPHPHYS\GLUTRESHAPE_CALLBACK.CPP
^C:\USERS\ADITYA\DESKTOP\GDAP\PHYSICS\PHYSICS- PROJECT1\PHYSICS- PROJECT1\W06D1_GRAPHPHYS\PHYSICS.CPP
/c /ZI /nologo /W3 /WX- /Od /Oy- /D WIN32 /D _DEBUG /D _CONSOLE /D _UNICODE /D UNICODE /Gm /EHsc /RTC1 /MDd /GS /fp:precise /Zc:wchar_t /Zc:forScope /Fo"DEBUG\\" /Fd"DEBUG\VC120.PDB" /Gd /TP /analyze- C:\USERS\ADITYA\DESKTOP\GDAP\PHYSICS\PHYSICS- PROJECT1\PHYSICS- PROJECT1\W06D1_GRAPHPHYS\PHYSICS.CPP
^C:\USERS\ADITYA\DESKTOP\GDAP\PHYSICS\PHYSICS- PROJECT1\PHYSICS- PROJECT1\W06D1_GRAPHPHYS\SHADERUNIFORMVARIABLES.CPP
/c /ZI /nologo /W3 /WX- /Od /Oy- /D WIN32 /D _DEBUG /D _CONSOLE /D _UNICODE /D UNICODE /Gm /EHsc /RTC1 /MDd /GS /fp:precise /Zc:wchar_t /Zc:forScope /Fo"DEBUG\\" /Fd"DEBUG\VC120.PDB" /Gd /TP /analyze- C:\USERS\ADITYA\DESKTOP\GDAP\PHYSICS\PHYSICS- PROJECT1\PHYSICS- PROJECT1\W06D1_GRAPHPHYS\SHADERUNIFORMVARIABLES.CPP
^C:\USERS\ADITYA\DESKTOP\GDAP\PHYSICS\PHYSICS- PROJECT1\PHYSICS- PROJECT1\W06D1_GRAPHPHYS\OPENGL_INITIALIZE.CPP
/c /ZI /nologo /W3 /WX- /Od /Oy- /D WIN32 /D _DEBUG /D _CONSOLE /D _UNICODE /D UNICODE /Gm /EHsc /RTC1 /MDd /GS /fp:precise /Zc:wchar_t /Zc:forScope /Fo"DEBUG\\" /Fd"DEBUG\VC120.PDB" /Gd /TP /analyze- C:\USERS\ADITYA\DESKTOP\GDAP\PHYSICS\PHYSICS- PROJECT1\PHYSICS- PROJECT1\W06D1_GRAPHPHYS\OPENGL_INITIALIZE.CPP
^C:\USERS\ADITYA\DESKTOP\GDAP\PHYSICS\PHYSICS- PROJECT1\PHYSICS- PROJECT1\W06D1_GRAPHPHYS\PRINTTHEWHATSTHISPROGRAMABOUTBLURB.CPP
/c /ZI /nologo /W3 /WX- /Od /Oy- /D WIN32 /D _DEBUG /D _CONSOLE /D _UNICODE /D UNICODE /Gm /EHsc /RTC1 /MDd /GS /fp:precise /Zc:wchar_t /Zc:forScope /Fo"DEBUG\\" /Fd"DEBUG\VC120.PDB" /Gd /TP /analyze- C:\USERS\ADITYA\DESKTOP\GDAP\PHYSICS\PHYSICS- PROJECT1\PHYSICS- PROJECT1\W06D1_GRAPHPHYS\PRINTTHEWHATSTHISPROGRAMABOUTBLURB.CPP
^C:\USERS\ADITYA\DESKTOP\GDAP\PHYSICS\PHYSICS- PROJECT1\PHYSICS- PROJECT1\W06D1_GRAPHPHYS\SHADERTYPES.CPP
/c /ZI /nologo /W3 /WX- /Od /Oy- /D WIN32 /D _DEBUG /D _CONSOLE /D _UNICODE /D UNICODE /Gm /EHsc /RTC1 /MDd /GS /fp:precise /Zc:wchar_t /Zc:forScope /Fo"DEBUG\\" /Fd"DEBUG\VC120.PDB" /Gd /TP /analyze- C:\USERS\ADITYA\DESKTOP\GDAP\PHYSICS\PHYSICS- PROJECT1\PHYSICS- PROJECT1\W06D1_GRAPHPHYS\SHADERTYPES.CPP
^C:\USERS\ADITYA\DESKTOP\GDAP\PHYSICS\PHYSICS- PROJECT1\PHYSICS- PROJECT1\W06D1_GRAPHPHYS\SUPERBASIC_GLEW_FREEGLUT.CPP
/c /ZI /nologo /W3 /WX- /Od /Oy- /D WIN32 /D _DEBUG /D _CONSOLE /D _UNICODE /D UNICODE /Gm /EHsc /RTC1 /MDd /GS /fp:precise /Zc:wchar_t /Zc:forScope /Fo"DEBUG\\" /Fd"DEBUG\VC120.PDB" /Gd /TP /analyze- C:\USERS\ADITYA\DESKTOP\GDAP\PHYSICS\PHYSICS- PROJECT1\PHYSICS- PROJECT1\W06D1_GRAPHPHYS\SUPERBASIC_GLEW_FREEGLUT.CPP
^C:\USERS\ADITYA\DESKTOP\GDAP\PHYSICS\PHYSICS- PROJECT1\PHYSICS- PROJECT1\W06D1_GRAPHPHYS\VERTEXTYPES.CPP
/c /ZI /nologo /W3 /WX- /Od /Oy- /D WIN32 /D _DEBUG /D _CONSOLE /D _UNICODE /D UNICODE /Gm /EHsc /RTC1 /MDd /GS /fp:precise /Zc:wchar_t /Zc:forScope /Fo"DEBUG\\" /Fd"DEBUG\VC120.PDB" /Gd /TP /analyze- C:\USERS\ADITYA\DESKTOP\GDAP\PHYSICS\PHYSICS- PROJECT1\PHYSICS- PROJECT1\W06D1_GRAPHPHYS\VERTEXTYPES.CPP
^D:\GDAP\COLLEDGE\ADITYA OPENGL TEMPLATE\GIT\PHYSICS TEST\W06D1_GRAPHPHYS\CBUNNY.CPP
/c /ZI /nologo /W3 /WX- /Od /Oy- /D WIN32 /D _DEBUG /D _CONSOLE /D _UNICODE /D UNICODE /Gm /EHsc /RTC1 /MDd /GS /fp:precise /Zc:wchar_t /Zc:forScope /Zc:inline /Fo"DEBUG\\" /Fd"DEBUG\VC140.PDB" /Gd /TP /analyze- D:\GDAP\COLLEDGE\ADITYA OPENGL TEMPLATE\GIT\PHYSICS TEST\W06D1_GRAPHPHYS\CBUNNY.CPP
^D:\GDAP\COLLEDGE\ADITYA OPENGL TEMPLATE\GIT\PHYSICS TEST\W06D1_GRAPHPHYS\CCAMERA.CPP
/c /ZI /nologo /W3 /WX- /Od /Oy- /D WIN32 /D _DEBUG /D _CONSOLE /D _UNICODE /D UNICODE /Gm /EHsc /RTC1 /MDd /GS /fp:precise /Zc:wchar_t /Zc:forScope /Zc:inline /Fo"DEBUG\\" /Fd"DEBUG\VC140.PDB" /Gd /TP /analyze- D:\GDAP\COLLEDGE\ADITYA OPENGL TEMPLATE\GIT\PHYSICS TEST\W06D1_GRAPHPHYS\CCAMERA.CPP
^D:\GDAP\COLLEDGE\ADITYA OPENGL TEMPLATE\GIT\PHYSICS TEST\W06D1_GRAPHPHYS\CMESSAGE.CPP
/c /ZI /nologo /W3 /WX- /Od /Oy- /D WIN32 /D _DEBUG /D _CONSOLE /D _UNICODE /D UNICODE /Gm /EHsc /RTC1 /MDd /GS /fp:precise /Zc:wchar_t /Zc:forScope /Zc:inline /Fo"DEBUG\\" /Fd"DEBUG\VC140.PDB" /Gd /TP /analyze- D:\GDAP\COLLEDGE\ADITYA OPENGL TEMPLATE\GIT\PHYSICS TEST\W06D1_GRAPHPHYS\CMESSAGE.CPP
^D:\GDAP\COLLEDGE\ADITYA OPENGL TEMPLATE\GIT\PHYSICS TEST\W06D1_GRAPHPHYS\CFACTORYMEDIATOR.CPP
/c /ZI /nologo /W3 /WX- /Od /Oy- /D WIN32 /D _DEBUG /D _CONSOLE /D _UNICODE /D UNICODE /Gm /EHsc /RTC1 /MDd /GS /fp:precise /Zc:wchar_t /Zc:forScope /Zc:inline /Fo"DEBUG\\" /Fd"DEBUG\VC140.PDB" /Gd /TP /analyze- D:\GDAP\COLLEDGE\ADITYA OPENGL TEMPLATE\GIT\PHYSICS TEST\W06D1_GRAPHPHYS\CFACTORYMEDIATOR.CPP
^D:\GDAP\COLLEDGE\ADITYA OPENGL TEMPLATE\GIT\PHYSICS TEST\W06D1_GRAPHPHYS\CHRTIMER.CPP
/c /ZI /nologo /W3 /WX- /Od /Oy- /D WIN32 /D _DEBUG /D _CONSOLE /D _UNICODE /D UNICODE /Gm /EHsc /RTC1 /MDd /GS /fp:precise /Zc:wchar_t /Zc:forScope /Zc:inline /Fo"DEBUG\\" /Fd"DEBUG\VC140.PDB" /Gd /TP /analyze- D:\GDAP\COLLEDGE\ADITYA OPENGL TEMPLATE\GIT\PHYSICS TEST\W06D1_GRAPHPHYS\CHRTIMER.CPP
^D:\GDAP\COLLEDGE\ADITYA OPENGL TEMPLATE\GIT\PHYSICS TEST\W06D1_GRAPHPHYS\CMODELLOADERMANAGER.CPP
/c /ZI /nologo /W3 /WX- /Od /Oy- /D WIN32 /D _DEBUG /D _CONSOLE /D _UNICODE /D UNICODE /Gm /EHsc /RTC1 /MDd /GS /fp:precise /Zc:wchar_t /Zc:forScope /Zc:inline /Fo"DEBUG\\" /Fd"DEBUG\VC140.PDB" /Gd /TP /analyze- D:\GDAP\COLLEDGE\ADITYA OPENGL TEMPLATE\GIT\PHYSICS TEST\W06D1_GRAPHPHYS\CMODELLOADERMANAGER.CPP
^D:\GDAP\COLLEDGE\ADITYA OPENGL TEMPLATE\GIT\PHYSICS TEST\W06D1_GRAPHPHYS\CNAMEVALUEPAIR.CPP
/c /ZI /nologo /W3 /WX- /Od /Oy- /D WIN32 /D _DEBUG /D _CONSOLE /D _UNICODE /D UNICODE /Gm /EHsc /RTC1 /MDd /GS /fp:precise /Zc:wchar_t /Zc:forScope /Zc:inline /Fo"DEBUG\\" /Fd"DEBUG\VC140.PDB" /Gd /TP /analyze- D:\GDAP\COLLEDGE\ADITYA OPENGL TEMPLATE\GIT\PHYSICS TEST\W06D1_GRAPHPHYS\CNAMEVALUEPAIR.CPP
^D:\GDAP\COLLEDGE\ADITYA OPENGL TEMPLATE\GIT\PHYSICS TEST\W06D1_GRAPHPHYS\CNINJATEAPOT.CPP
/c /ZI /nologo /W3 /WX- /Od /Oy- /D WIN32 /D _DEBUG /D _CONSOLE /D _UNICODE /D UNICODE /Gm /EHsc /RTC1 /MDd /GS /fp:precise /Zc:wchar_t /Zc:forScope /Zc:inline /Fo"DEBUG\\" /Fd"DEBUG\VC140.PDB" /Gd /TP /analyze- D:\GDAP\COLLEDGE\ADITYA OPENGL TEMPLATE\GIT\PHYSICS TEST\W06D1_GRAPHPHYS\CNINJATEAPOT.CPP
^D:\GDAP\COLLEDGE\ADITYA OPENGL TEMPLATE\GIT\PHYSICS TEST\W06D1_GRAPHPHYS\COLLISIONTEST.CPP
/c /ZI /nologo /W3 /WX- /Od /Oy- /D WIN32 /D _DEBUG /D _CONSOLE /D _UNICODE /D UNICODE /Gm /EHsc /RTC1 /MDd /GS /fp:precise /Zc:wchar_t /Zc:forScope /Zc:inline /Fo"DEBUG\\" /Fd"DEBUG\VC140.PDB" /Gd /TP /analyze- D:\GDAP\COLLEDGE\ADITYA OPENGL TEMPLATE\GIT\PHYSICS TEST\W06D1_GRAPHPHYS\COLLISIONTEST.CPP
^D:\GDAP\COLLEDGE\ADITYA OPENGL TEMPLATE\GIT\PHYSICS TEST\W06D1_GRAPHPHYS\CPLYFILE5NT.CPP
/c /ZI /nologo /W3 /WX- /Od /Oy- /D WIN32 /D _DEBUG /D _CONSOLE /D _UNICODE /D UNICODE /Gm /EHsc /RTC1 /MDd /GS /fp:precise /Zc:wchar_t /Zc:forScope /Zc:inline /Fo"DEBUG\\" /Fd"DEBUG\VC140.PDB" /Gd /TP /analyze- D:\GDAP\COLLEDGE\ADITYA OPENGL TEMPLATE\GIT\PHYSICS TEST\W06D1_GRAPHPHYS\CPLYFILE5NT.CPP
^D:\GDAP\COLLEDGE\ADITYA OPENGL TEMPLATE\GIT\PHYSICS TEST\W06D1_GRAPHPHYS\CSPHERE.CPP
/c /ZI /nologo /W3 /WX- /Od /Oy- /D WIN32 /D _DEBUG /D _CONSOLE /D _UNICODE /D UNICODE /Gm /EHsc /RTC1 /MDd /GS /fp:precise /Zc:wchar_t /Zc:forScope /Zc:inline /Fo"DEBUG\\" /Fd"DEBUG\VC140.PDB" /Gd /TP /analyze- D:\GDAP\COLLEDGE\ADITYA OPENGL TEMPLATE\GIT\PHYSICS TEST\W06D1_GRAPHPHYS\CSPHERE.CPP
^D:\GDAP\COLLEDGE\ADITYA OPENGL TEMPLATE\GIT\PHYSICS TEST\W06D1_GRAPHPHYS\CTRIANGLE.CPP
/c /ZI /nologo /W3 /WX- /Od /Oy- /D WIN32 /D _DEBUG /D _CONSOLE /D _UNICODE /D UNICODE /Gm /EHsc /RTC1 /MDd /GS /fp:precise /Zc:wchar_t /Zc:forScope /Zc:inline /Fo"DEBUG\\" /Fd"DEBUG\VC140.PDB" /Gd /TP /analyze- D:\GDAP\COLLEDGE\ADITYA OPENGL TEMPLATE\GIT\PHYSICS TEST\W06D1_GRAPHPHYS\CTRIANGLE.CPP
^D:\GDAP\COLLEDGE\ADITYA OPENGL TEMPLATE\GIT\PHYSICS TEST\W06D1_GRAPHPHYS\CVECTOR3F.CPP
/c /ZI /nologo /W3 /WX- /Od /Oy- /D WIN32 /D _DEBUG /D _CONSOLE /D _UNICODE /D UNICODE /Gm /EHsc /RTC1 /MDd /GS /fp:precise /Zc:wchar_t /Zc:forScope /Zc:inline /Fo"DEBUG\\" /Fd"DEBUG\VC140.PDB" /Gd /TP /analyze- D:\GDAP\COLLEDGE\ADITYA OPENGL TEMPLATE\GIT\PHYSICS TEST\W06D1_GRAPHPHYS\CVECTOR3F.CPP
^D:\GDAP\COLLEDGE\ADITYA OPENGL TEMPLATE\GIT\PHYSICS TEST\W06D1_GRAPHPHYS\CVERTEX.CPP
/c /ZI /nologo /W3 /WX- /Od /Oy- /D WIN32 /D _DEBUG /D _CONSOLE /D _UNICODE /D UNICODE /Gm /EHsc /RTC1 /MDd /GS /fp:precise /Zc:wchar_t /Zc:forScope /Zc:inline /Fo"DEBUG\\" /Fd"DEBUG\VC140.PDB" /Gd /TP /analyze- D:\GDAP\COLLEDGE\ADITYA OPENGL TEMPLATE\GIT\PHYSICS TEST\W06D1_GRAPHPHYS\CVERTEX.CPP
^D:\GDAP\COLLEDGE\ADITYA OPENGL TEMPLATE\GIT\PHYSICS TEST\W06D1_GRAPHPHYS\CGAMEOBJECT.CPP
/c /ZI /nologo /W3 /WX- /Od /Oy- /D WIN32 /D _DEBUG /D _CONSOLE /D _UNICODE /D UNICODE /Gm /EHsc /RTC1 /MDd /GS /fp:precise /Zc:wchar_t /Zc:forScope /Zc:inline /Fo"DEBUG\\" /Fd"DEBUG\VC140.PDB" /Gd /TP /analyze- D:\GDAP\COLLEDGE\ADITYA OPENGL TEMPLATE\GIT\PHYSICS TEST\W06D1_GRAPHPHYS\CGAMEOBJECT.CPP
^D:\GDAP\COLLEDGE\ADITYA OPENGL TEMPLATE\GIT\PHYSICS TEST\W06D1_GRAPHPHYS\FILEDATALOADER.CPP
/c /ZI /nologo /W3 /WX- /Od /Oy- /D WIN32 /D _DEBUG /D _CONSOLE /D _UNICODE /D UNICODE /Gm /EHsc /RTC1 /MDd /GS /fp:precise /Zc:wchar_t /Zc:forScope /Zc:inline /Fo"DEBUG\\" /Fd"DEBUG\VC140.PDB" /Gd /TP /analyze- D:\GDAP\COLLEDGE\ADITYA OPENGL TEMPLATE\GIT\PHYSICS TEST\W06D1_GRAPHPHYS\FILEDATALOADER.CPP
^D:\GDAP\COLLEDGE\ADITYA OPENGL TEMPLATE\GIT\PHYSICS TEST\W06D1_GRAPHPHYS\GLOBAL.CPP
/c /ZI /nologo /W3 /WX- /Od /Oy- /D WIN32 /D _DEBUG /D _CONSOLE /D _UNICODE /D UNICODE /Gm /EHsc /RTC1 /MDd /GS /fp:precise /Zc:wchar_t /Zc:forScope /Zc:inline /Fo"DEBUG\\" /Fd"DEBUG\VC140.PDB" /Gd /TP /analyze- D:\GDAP\COLLEDGE\ADITYA OPENGL TEMPLATE\GIT\PHYSICS TEST\W06D1_GRAPHPHYS\GLOBAL.CPP
^D:\GDAP\COLLEDGE\ADITYA OPENGL TEMPLATE\GIT\PHYSICS TEST\W06D1_GRAPHPHYS\GLUTCLOSE_CALLBACK.CPP
/c /ZI /nologo /W3 /WX- /Od /Oy- /D WIN32 /D _DEBUG /D _CONSOLE /D _UNICODE /D UNICODE /Gm /EHsc /RTC1 /MDd /GS /fp:precise /Zc:wchar_t /Zc:forScope /Zc:inline /Fo"DEBUG\\" /Fd"DEBUG\VC140.PDB" /Gd /TP /analyze- D:\GDAP\COLLEDGE\ADITYA OPENGL TEMPLATE\GIT\PHYSICS TEST\W06D1_GRAPHPHYS\GLUTCLOSE_CALLBACK.CPP
^D:\GDAP\COLLEDGE\ADITYA OPENGL TEMPLATE\GIT\PHYSICS TEST\W06D1_GRAPHPHYS\GLUTDISPLAY_CALLBACK.CPP
/c /ZI /nologo /W3 /WX- /Od /Oy- /D WIN32 /D _DEBUG /D _CONSOLE /D _UNICODE /D UNICODE /Gm /EHsc /RTC1 /MDd /GS /fp:precise /Zc:wchar_t /Zc:forScope /Zc:inline /Fo"DEBUG\\" /Fd"DEBUG\VC140.PDB" /Gd /TP /analyze- D:\GDAP\COLLEDGE\ADITYA OPENGL TEMPLATE\GIT\PHYSICS TEST\W06D1_GRAPHPHYS\GLUTDISPLAY_CALLBACK.CPP
^D:\GDAP\COLLEDGE\ADITYA OPENGL TEMPLATE\GIT\PHYSICS TEST\W06D1_GRAPHPHYS\GLUTIDLE_CALLBACK.CPP
/c /ZI /nologo /W3 /WX- /Od /Oy- /D WIN32 /D _DEBUG /D _CONSOLE /D _UNICODE /D UNICODE /Gm /EHsc /RTC1 /MDd /GS /fp:precise /Zc:wchar_t /Zc:forScope /Zc:inline /Fo"DEBUG\\" /Fd"DEBUG\VC140.PDB" /Gd /TP /analyze- D:\GDAP\COLLEDGE\ADITYA OPENGL TEMPLATE\GIT\PHYSICS TEST\W06D1_GRAPHPHYS\GLUTIDLE_CALLBACK.CPP
^D:\GDAP\COLLEDGE\ADITYA OPENGL TEMPLATE\GIT\PHYSICS TEST\W06D1_GRAPHPHYS\GLUTKEYBOARDSPECIAL_CALLBACKS.CPP
/c /ZI /nologo /W3 /WX- /Od /Oy- /D WIN32 /D _DEBUG /D _CONSOLE /D _UNICODE /D UNICODE /Gm /EHsc /RTC1 /MDd /GS /fp:precise /Zc:wchar_t /Zc:forScope /Zc:inline /Fo"DEBUG\\" /Fd"DEBUG\VC140.PDB" /Gd /TP /analyze- D:\GDAP\COLLEDGE\ADITYA OPENGL TEMPLATE\GIT\PHYSICS TEST\W06D1_GRAPHPHYS\GLUTKEYBOARDSPECIAL_CALLBACKS.CPP
^D:\GDAP\COLLEDGE\ADITYA OPENGL TEMPLATE\GIT\PHYSICS TEST\W06D1_GRAPHPHYS\GLUTRESHAPE_CALLBACK.CPP
/c /ZI /nologo /W3 /WX- /Od /Oy- /D WIN32 /D _DEBUG /D _CONSOLE /D _UNICODE /D UNICODE /Gm /EHsc /RTC1 /MDd /GS /fp:precise /Zc:wchar_t /Zc:forScope /Zc:inline /Fo"DEBUG\\" /Fd"DEBUG\VC140.PDB" /Gd /TP /analyze- D:\GDAP\COLLEDGE\ADITYA OPENGL TEMPLATE\GIT\PHYSICS TEST\W06D1_GRAPHPHYS\GLUTRESHAPE_CALLBACK.CPP
^D:\GDAP\COLLEDGE\ADITYA OPENGL TEMPLATE\GIT\PHYSICS TEST\W06D1_GRAPHPHYS\PHYSICS.CPP
/c /ZI /nologo /W3 /WX- /Od /Oy- /D WIN32 /D _DEBUG /D _CONSOLE /D _UNICODE /D UNICODE /Gm /EHsc /RTC1 /MDd /GS /fp:precise /Zc:wchar_t /Zc:forScope /Zc:inline /Fo"DEBUG\\" /Fd"DEBUG\VC140.PDB" /Gd /TP /analyze- D:\GDAP\COLLEDGE\ADITYA OPENGL TEMPLATE\GIT\PHYSICS TEST\W06D1_GRAPHPHYS\PHYSICS.CPP
^D:\GDAP\COLLEDGE\ADITYA OPENGL TEMPLATE\GIT\PHYSICS TEST\W06D1_GRAPHPHYS\SHADERUNIFORMVARIABLES.CPP
/c /ZI /nologo /W3 /WX- /Od /Oy- /D WIN32 /D _DEBUG /D _CONSOLE /D _UNICODE /D UNICODE /Gm /EHsc /RTC1 /MDd /GS /fp:precise /Zc:wchar_t /Zc:forScope /Zc:inline /Fo"DEBUG\\" /Fd"DEBUG\VC140.PDB" /Gd /TP /analyze- D:\GDAP\COLLEDGE\ADITYA OPENGL TEMPLATE\GIT\PHYSICS TEST\W06D1_GRAPHPHYS\SHADERUNIFORMVARIABLES.CPP
^D:\GDAP\COLLEDGE\ADITYA OPENGL TEMPLATE\GIT\PHYSICS TEST\W06D1_GRAPHPHYS\OPENGL_INITIALIZE.CPP
/c /ZI /nologo /W3 /WX- /Od /Oy- /D WIN32 /D _DEBUG /D _CONSOLE /D _UNICODE /D UNICODE /Gm /EHsc /RTC1 /MDd /GS /fp:precise /Zc:wchar_t /Zc:forScope /Zc:inline /Fo"DEBUG\\" /Fd"DEBUG\VC140.PDB" /Gd /TP /analyze- D:\GDAP\COLLEDGE\ADITYA OPENGL TEMPLATE\GIT\PHYSICS TEST\W06D1_GRAPHPHYS\OPENGL_INITIALIZE.CPP
^D:\GDAP\COLLEDGE\ADITYA OPENGL TEMPLATE\GIT\PHYSICS TEST\W06D1_GRAPHPHYS\PRINTTHEWHATSTHISPROGRAMABOUTBLURB.CPP
/c /ZI /nologo /W3 /WX- /Od /Oy- /D WIN32 /D _DEBUG /D _CONSOLE /D _UNICODE /D UNICODE /Gm /EHsc /RTC1 /MDd /GS /fp:precise /Zc:wchar_t /Zc:forScope /Zc:inline /Fo"DEBUG\\" /Fd"DEBUG\VC140.PDB" /Gd /TP /analyze- D:\GDAP\COLLEDGE\ADITYA OPENGL TEMPLATE\GIT\PHYSICS TEST\W06D1_GRAPHPHYS\PRINTTHEWHATSTHISPROGRAMABOUTBLURB.CPP
^D:\GDAP\COLLEDGE\ADITYA OPENGL TEMPLATE\GIT\PHYSICS TEST\W06D1_GRAPHPHYS\SHADERTYPES.CPP
/c /ZI /nologo /W3 /WX- /Od /Oy- /D WIN32 /D _DEBUG /D _CONSOLE /D _UNICODE /D UNICODE /Gm /EHsc /RTC1 /MDd /GS /fp:precise /Zc:wchar_t /Zc:forScope /Zc:inline /Fo"DEBUG\\" /Fd"DEBUG\VC140.PDB" /Gd /TP /analyze- D:\GDAP\COLLEDGE\ADITYA OPENGL TEMPLATE\GIT\PHYSICS TEST\W06D1_GRAPHPHYS\SHADERTYPES.CPP
^D:\GDAP\COLLEDGE\ADITYA OPENGL TEMPLATE\GIT\PHYSICS TEST\W06D1_GRAPHPHYS\SUPERBASIC_GLEW_FREEGLUT.CPP
/c /ZI /nologo /W3 /WX- /Od /Oy- /D WIN32 /D _DEBUG /D _CONSOLE /D _UNICODE /D UNICODE /Gm /EHsc /RTC1 /MDd /GS /fp:precise /Zc:wchar_t /Zc:forScope /Zc:inline /Fo"DEBUG\\" /Fd"DEBUG\VC140.PDB" /Gd /TP /analyze- D:\GDAP\COLLEDGE\ADITYA OPENGL TEMPLATE\GIT\PHYSICS TEST\W06D1_GRAPHPHYS\SUPERBASIC_GLEW_FREEGLUT.CPP
^D:\GDAP\COLLEDGE\ADITYA OPENGL TEMPLATE\GIT\PHYSICS TEST\W06D1_GRAPHPHYS\VERTEXTYPES.CPP
/c /ZI /nologo /W3 /WX- /Od /Oy- /D WIN32 /D _DEBUG /D _CONSOLE /D _UNICODE /D UNICODE /Gm /EHsc /RTC1 /MDd /GS /fp:precise /Zc:wchar_t /Zc:forScope /Zc:inline /Fo"DEBUG\\" /Fd"DEBUG\VC140.PDB" /Gd /TP /analyze- D:\GDAP\COLLEDGE\ADITYA OPENGL TEMPLATE\GIT\PHYSICS TEST\W06D1_GRAPHPHYS\VERTEXTYPES.CPP
