^C:\USERS\ADITYA\DESKTOP\GDAP\PHYSICS\PHYSICS- PROJECT1\PHYSICS- PROJECT1\W06D1_GRAPHPHYS\CBUNNY.CPP|C:\USERS\ADITYA\DESKTOP\GDAP\PHYSICS\PHYSICS- PROJECT1\PHYSICS- PROJECT1\W06D1_GRAPHPHYS\CCAMERA.CPP|C:\USERS\ADITYA\DESKTOP\GDAP\PHYSICS\PHYSICS- PROJECT1\PHYSICS- PROJECT1\W06D1_GRAPHPHYS\CFACTORYMEDIATOR.CPP|C:\USERS\ADITYA\DESKTOP\GDAP\PHYSICS\PHYSICS- PROJECT1\PHYSICS- PROJECT1\W06D1_GRAPHPHYS\CGAMEOBJECT.CPP|C:\USERS\ADITYA\DESKTOP\GDAP\PHYSICS\PHYSICS- PROJECT1\PHYSICS- PROJECT1\W06D1_GRAPHPHYS\CHRTIMER.CPP|C:\USERS\ADITYA\DESKTOP\GDAP\PHYSICS\PHYSICS- PROJECT1\PHYSICS- PROJECT1\W06D1_GRAPHPHYS\CMESSAGE.CPP|C:\USERS\ADITYA\DESKTOP\GDAP\PHYSICS\PHYSICS- PROJECT1\PHYSICS- PROJECT1\W06D1_GRAPHPHYS\CMODELLOADERMANAGER.CPP|C:\USERS\ADITYA\DESKTOP\GDAP\PHYSICS\PHYSICS- PROJECT1\PHYSICS- PROJECT1\W06D1_GRAPHPHYS\CNAMEVALUEPAIR.CPP|C:\USERS\ADITYA\DESKTOP\GDAP\PHYSICS\PHYSICS- PROJECT1\PHYSICS- PROJECT1\W06D1_GRAPHPHYS\CNINJATEAPOT.CPP|C:\USERS\ADITYA\DESKTOP\GDAP\PHYSICS\PHYSICS- PROJECT1\PHYSICS- PROJECT1\W06D1_GRAPHPHYS\COLLISIONTEST.CPP|C:\USERS\ADITYA\DESKTOP\GDAP\PHYSICS\PHYSICS- PROJECT1\PHYSICS- PROJECT1\W06D1_GRAPHPHYS\CPLYFILE5NT.CPP|C:\USERS\ADITYA\DESKTOP\GDAP\PHYSICS\PHYSICS- PROJECT1\PHYSICS- PROJECT1\W06D1_GRAPHPHYS\CSPHERE.CPP|C:\USERS\ADITYA\DESKTOP\GDAP\PHYSICS\PHYSICS- PROJECT1\PHYSICS- PROJECT1\W06D1_GRAPHPHYS\CTRIANGLE.CPP|C:\USERS\ADITYA\DESKTOP\GDAP\PHYSICS\PHYSICS- PROJECT1\PHYSICS- PROJECT1\W06D1_GRAPHPHYS\CVECTOR3F.CPP|C:\USERS\ADITYA\DESKTOP\GDAP\PHYSICS\PHYSICS- PROJECT1\PHYSICS- PROJECT1\W06D1_GRAPHPHYS\CVERTEX.CPP|C:\USERS\ADITYA\DESKTOP\GDAP\PHYSICS\PHYSICS- PROJECT1\PHYSICS- PROJECT1\W06D1_GRAPHPHYS\FILEDATALOADER.CPP|C:\USERS\ADITYA\DESKTOP\GDAP\PHYSICS\PHYSICS- PROJECT1\PHYSICS- PROJECT1\W06D1_GRAPHPHYS\GLOBAL.CPP|C:\USERS\ADITYA\DESKTOP\GDAP\PHYSICS\PHYSICS- PROJECT1\PHYSICS- PROJECT1\W06D1_GRAPHPHYS\GLUTCLOSE_CALLBACK.CPP|C:\USERS\ADITYA\DESKTOP\GDAP\PHYSICS\PHYSICS- PROJECT1\PHYSICS- PROJECT1\W06D1_GRAPHPHYS\GLUTDISPLAY_CALLBACK.CPP|C:\USERS\ADITYA\DESKTOP\GDAP\PHYSICS\PHYSICS- PROJECT1\PHYSICS- PROJECT1\W06D1_GRAPHPHYS\GLUTIDLE_CALLBACK.CPP|C:\USERS\ADITYA\DESKTOP\GDAP\PHYSICS\PHYSICS- PROJECT1\PHYSICS- PROJECT1\W06D1_GRAPHPHYS\GLUTKEYBOARDSPECIAL_CALLBACKS.CPP|C:\USERS\ADITYA\DESKTOP\GDAP\PHYSICS\PHYSICS- PROJECT1\PHYSICS- PROJECT1\W06D1_GRAPHPHYS\GLUTRESHAPE_CALLBACK.CPP|C:\USERS\ADITYA\DESKTOP\GDAP\PHYSICS\PHYSICS- PROJECT1\PHYSICS- PROJECT1\W06D1_GRAPHPHYS\OPENGL_INITIALIZE.CPP|C:\USERS\ADITYA\DESKTOP\GDAP\PHYSICS\PHYSICS- PROJECT1\PHYSICS- PROJECT1\W06D1_GRAPHPHYS\PHYSICS.CPP|C:\USERS\ADITYA\DESKTOP\GDAP\PHYSICS\PHYSICS- PROJECT1\PHYSICS- PROJECT1\W06D1_GRAPHPHYS\PRINTTHEWHATSTHISPROGRAMABOUTBLURB.CPP|C:\USERS\ADITYA\DESKTOP\GDAP\PHYSICS\PHYSICS- PROJECT1\PHYSICS- PROJECT1\W06D1_GRAPHPHYS\SHADERTYPES.CPP|C:\USERS\ADITYA\DESKTOP\GDAP\PHYSICS\PHYSICS- PROJECT1\PHYSICS- PROJECT1\W06D1_GRAPHPHYS\SHADERUNIFORMVARIABLES.CPP|C:\USERS\ADITYA\DESKTOP\GDAP\PHYSICS\PHYSICS- PROJECT1\PHYSICS- PROJECT1\W06D1_GRAPHPHYS\SUPERBASIC_GLEW_FREEGLUT.CPP|C:\USERS\ADITYA\DESKTOP\GDAP\PHYSICS\PHYSICS- PROJECT1\PHYSICS- PROJECT1\W06D1_GRAPHPHYS\VERTEXTYPES.CPP
C:\USERS\ADITYA\DESKTOP\GDAP\PHYSICS\PHYSICS- PROJECT1\PHYSICS- PROJECT1\W06D1_GRAPHPHYS\DEBUG\VC120.PDB
C:\USERS\ADITYA\DESKTOP\GDAP\PHYSICS\PHYSICS- PROJECT1\PHYSICS- PROJECT1\W06D1_GRAPHPHYS\DEBUG\VC120.IDB
C:\USERS\ADITYA\DESKTOP\GDAP\PHYSICS\PHYSICS- PROJECT1\PHYSICS- PROJECT1\W06D1_GRAPHPHYS\DEBUG\CPLYFILE5NT.OBJ
C:\USERS\ADITYA\DESKTOP\GDAP\PHYSICS\PHYSICS- PROJECT1\PHYSICS- PROJECT1\W06D1_GRAPHPHYS\DEBUG\CSPHERE.OBJ
C:\USERS\ADITYA\DESKTOP\GDAP\PHYSICS\PHYSICS- PROJECT1\PHYSICS- PROJECT1\W06D1_GRAPHPHYS\DEBUG\CTRIANGLE.OBJ
C:\USERS\ADITYA\DESKTOP\GDAP\PHYSICS\PHYSICS- PROJECT1\PHYSICS- PROJECT1\W06D1_GRAPHPHYS\DEBUG\CVECTOR3F.OBJ
C:\USERS\ADITYA\DESKTOP\GDAP\PHYSICS\PHYSICS- PROJECT1\PHYSICS- PROJECT1\W06D1_GRAPHPHYS\DEBUG\CVERTEX.OBJ
C:\USERS\ADITYA\DESKTOP\GDAP\PHYSICS\PHYSICS- PROJECT1\PHYSICS- PROJECT1\W06D1_GRAPHPHYS\DEBUG\CGAMEOBJECT.OBJ
C:\USERS\ADITYA\DESKTOP\GDAP\PHYSICS\PHYSICS- PROJECT1\PHYSICS- PROJECT1\W06D1_GRAPHPHYS\DEBUG\FILEDATALOADER.OBJ
C:\USERS\ADITYA\DESKTOP\GDAP\PHYSICS\PHYSICS- PROJECT1\PHYSICS- PROJECT1\W06D1_GRAPHPHYS\DEBUG\GLOBAL.OBJ
C:\USERS\ADITYA\DESKTOP\GDAP\PHYSICS\PHYSICS- PROJECT1\PHYSICS- PROJECT1\W06D1_GRAPHPHYS\DEBUG\GLUTCLOSE_CALLBACK.OBJ
C:\USERS\ADITYA\DESKTOP\GDAP\PHYSICS\PHYSICS- PROJECT1\PHYSICS- PROJECT1\W06D1_GRAPHPHYS\DEBUG\GLUTDISPLAY_CALLBACK.OBJ
C:\USERS\ADITYA\DESKTOP\GDAP\PHYSICS\PHYSICS- PROJECT1\PHYSICS- PROJECT1\W06D1_GRAPHPHYS\DEBUG\GLUTIDLE_CALLBACK.OBJ
C:\USERS\ADITYA\DESKTOP\GDAP\PHYSICS\PHYSICS- PROJECT1\PHYSICS- PROJECT1\W06D1_GRAPHPHYS\DEBUG\GLUTKEYBOARDSPECIAL_CALLBACKS.OBJ
C:\USERS\ADITYA\DESKTOP\GDAP\PHYSICS\PHYSICS- PROJECT1\PHYSICS- PROJECT1\W06D1_GRAPHPHYS\DEBUG\GLUTRESHAPE_CALLBACK.OBJ
C:\USERS\ADITYA\DESKTOP\GDAP\PHYSICS\PHYSICS- PROJECT1\PHYSICS- PROJECT1\W06D1_GRAPHPHYS\DEBUG\PHYSICS.OBJ
C:\USERS\ADITYA\DESKTOP\GDAP\PHYSICS\PHYSICS- PROJECT1\PHYSICS- PROJECT1\W06D1_GRAPHPHYS\DEBUG\SHADERUNIFORMVARIABLES.OBJ
C:\USERS\ADITYA\DESKTOP\GDAP\PHYSICS\PHYSICS- PROJECT1\PHYSICS- PROJECT1\W06D1_GRAPHPHYS\DEBUG\OPENGL_INITIALIZE.OBJ
C:\USERS\ADITYA\DESKTOP\GDAP\PHYSICS\PHYSICS- PROJECT1\PHYSICS- PROJECT1\W06D1_GRAPHPHYS\DEBUG\PRINTTHEWHATSTHISPROGRAMABOUTBLURB.OBJ
C:\USERS\ADITYA\DESKTOP\GDAP\PHYSICS\PHYSICS- PROJECT1\PHYSICS- PROJECT1\W06D1_GRAPHPHYS\DEBUG\SHADERTYPES.OBJ
C:\USERS\ADITYA\DESKTOP\GDAP\PHYSICS\PHYSICS- PROJECT1\PHYSICS- PROJECT1\W06D1_GRAPHPHYS\DEBUG\SUPERBASIC_GLEW_FREEGLUT.OBJ
C:\USERS\ADITYA\DESKTOP\GDAP\PHYSICS\PHYSICS- PROJECT1\PHYSICS- PROJECT1\W06D1_GRAPHPHYS\DEBUG\VERTEXTYPES.OBJ
C:\USERS\ADITYA\DESKTOP\GDAP\PHYSICS\PHYSICS- PROJECT1\PHYSICS- PROJECT1\W06D1_GRAPHPHYS\DEBUG\CBUNNY.OBJ
C:\USERS\ADITYA\DESKTOP\GDAP\PHYSICS\PHYSICS- PROJECT1\PHYSICS- PROJECT1\W06D1_GRAPHPHYS\DEBUG\CCAMERA.OBJ
C:\USERS\ADITYA\DESKTOP\GDAP\PHYSICS\PHYSICS- PROJECT1\PHYSICS- PROJECT1\W06D1_GRAPHPHYS\DEBUG\CMESSAGE.OBJ
C:\USERS\ADITYA\DESKTOP\GDAP\PHYSICS\PHYSICS- PROJECT1\PHYSICS- PROJECT1\W06D1_GRAPHPHYS\DEBUG\CFACTORYMEDIATOR.OBJ
C:\USERS\ADITYA\DESKTOP\GDAP\PHYSICS\PHYSICS- PROJECT1\PHYSICS- PROJECT1\W06D1_GRAPHPHYS\DEBUG\CHRTIMER.OBJ
C:\USERS\ADITYA\DESKTOP\GDAP\PHYSICS\PHYSICS- PROJECT1\PHYSICS- PROJECT1\W06D1_GRAPHPHYS\DEBUG\CMODELLOADERMANAGER.OBJ
C:\USERS\ADITYA\DESKTOP\GDAP\PHYSICS\PHYSICS- PROJECT1\PHYSICS- PROJECT1\W06D1_GRAPHPHYS\DEBUG\CNAMEVALUEPAIR.OBJ
C:\USERS\ADITYA\DESKTOP\GDAP\PHYSICS\PHYSICS- PROJECT1\PHYSICS- PROJECT1\W06D1_GRAPHPHYS\DEBUG\CNINJATEAPOT.OBJ
C:\USERS\ADITYA\DESKTOP\GDAP\PHYSICS\PHYSICS- PROJECT1\PHYSICS- PROJECT1\W06D1_GRAPHPHYS\DEBUG\COLLISIONTEST.OBJ
^C:\USERS\ADITYA\DESKTOP\GDAP\PHYSICS\PHYSICS- PROJECT1\PHYSICS- PROJECT1\W06D1_GRAPHPHYS\CBUNNY.CPP
C:\USERS\ADITYA\DESKTOP\GDAP\PHYSICS\PHYSICS- PROJECT1\PHYSICS- PROJECT1\W06D1_GRAPHPHYS\DEBUG\VC120.PDB
^C:\USERS\ADITYA\DESKTOP\GDAP\PHYSICS\PHYSICS- PROJECT1\PHYSICS- PROJECT1\W06D1_GRAPHPHYS\CCAMERA.CPP
C:\USERS\ADITYA\DESKTOP\GDAP\PHYSICS\PHYSICS- PROJECT1\PHYSICS- PROJECT1\W06D1_GRAPHPHYS\DEBUG\VC120.PDB
^C:\USERS\ADITYA\DESKTOP\GDAP\PHYSICS\PHYSICS- PROJECT1\PHYSICS- PROJECT1\W06D1_GRAPHPHYS\CMESSAGE.CPP
C:\USERS\ADITYA\DESKTOP\GDAP\PHYSICS\PHYSICS- PROJECT1\PHYSICS- PROJECT1\W06D1_GRAPHPHYS\DEBUG\VC120.PDB
^C:\USERS\ADITYA\DESKTOP\GDAP\PHYSICS\PHYSICS- PROJECT1\PHYSICS- PROJECT1\W06D1_GRAPHPHYS\CFACTORYMEDIATOR.CPP
C:\USERS\ADITYA\DESKTOP\GDAP\PHYSICS\PHYSICS- PROJECT1\PHYSICS- PROJECT1\W06D1_GRAPHPHYS\DEBUG\VC120.PDB
^C:\USERS\ADITYA\DESKTOP\GDAP\PHYSICS\PHYSICS- PROJECT1\PHYSICS- PROJECT1\W06D1_GRAPHPHYS\CHRTIMER.CPP
C:\USERS\ADITYA\DESKTOP\GDAP\PHYSICS\PHYSICS- PROJECT1\PHYSICS- PROJECT1\W06D1_GRAPHPHYS\DEBUG\VC120.PDB
^C:\USERS\ADITYA\DESKTOP\GDAP\PHYSICS\PHYSICS- PROJECT1\PHYSICS- PROJECT1\W06D1_GRAPHPHYS\CMODELLOADERMANAGER.CPP
C:\USERS\ADITYA\DESKTOP\GDAP\PHYSICS\PHYSICS- PROJECT1\PHYSICS- PROJECT1\W06D1_GRAPHPHYS\DEBUG\VC120.PDB
^C:\USERS\ADITYA\DESKTOP\GDAP\PHYSICS\PHYSICS- PROJECT1\PHYSICS- PROJECT1\W06D1_GRAPHPHYS\CNAMEVALUEPAIR.CPP
C:\USERS\ADITYA\DESKTOP\GDAP\PHYSICS\PHYSICS- PROJECT1\PHYSICS- PROJECT1\W06D1_GRAPHPHYS\DEBUG\VC120.PDB
^C:\USERS\ADITYA\DESKTOP\GDAP\PHYSICS\PHYSICS- PROJECT1\PHYSICS- PROJECT1\W06D1_GRAPHPHYS\CNINJATEAPOT.CPP
C:\USERS\ADITYA\DESKTOP\GDAP\PHYSICS\PHYSICS- PROJECT1\PHYSICS- PROJECT1\W06D1_GRAPHPHYS\DEBUG\VC120.PDB
^C:\USERS\ADITYA\DESKTOP\GDAP\PHYSICS\PHYSICS- PROJECT1\PHYSICS- PROJECT1\W06D1_GRAPHPHYS\COLLISIONTEST.CPP
C:\USERS\ADITYA\DESKTOP\GDAP\PHYSICS\PHYSICS- PROJECT1\PHYSICS- PROJECT1\W06D1_GRAPHPHYS\DEBUG\VC120.PDB
^C:\USERS\ADITYA\DESKTOP\GDAP\PHYSICS\PHYSICS- PROJECT1\PHYSICS- PROJECT1\W06D1_GRAPHPHYS\CPLYFILE5NT.CPP
C:\USERS\ADITYA\DESKTOP\GDAP\PHYSICS\PHYSICS- PROJECT1\PHYSICS- PROJECT1\W06D1_GRAPHPHYS\DEBUG\VC120.PDB
^C:\USERS\ADITYA\DESKTOP\GDAP\PHYSICS\PHYSICS- PROJECT1\PHYSICS- PROJECT1\W06D1_GRAPHPHYS\CSPHERE.CPP
C:\USERS\ADITYA\DESKTOP\GDAP\PHYSICS\PHYSICS- PROJECT1\PHYSICS- PROJECT1\W06D1_GRAPHPHYS\DEBUG\VC120.PDB
^C:\USERS\ADITYA\DESKTOP\GDAP\PHYSICS\PHYSICS- PROJECT1\PHYSICS- PROJECT1\W06D1_GRAPHPHYS\CTRIANGLE.CPP
C:\USERS\ADITYA\DESKTOP\GDAP\PHYSICS\PHYSICS- PROJECT1\PHYSICS- PROJECT1\W06D1_GRAPHPHYS\DEBUG\VC120.PDB
^C:\USERS\ADITYA\DESKTOP\GDAP\PHYSICS\PHYSICS- PROJECT1\PHYSICS- PROJECT1\W06D1_GRAPHPHYS\CVECTOR3F.CPP
C:\USERS\ADITYA\DESKTOP\GDAP\PHYSICS\PHYSICS- PROJECT1\PHYSICS- PROJECT1\W06D1_GRAPHPHYS\DEBUG\VC120.PDB
^C:\USERS\ADITYA\DESKTOP\GDAP\PHYSICS\PHYSICS- PROJECT1\PHYSICS- PROJECT1\W06D1_GRAPHPHYS\CVERTEX.CPP
C:\USERS\ADITYA\DESKTOP\GDAP\PHYSICS\PHYSICS- PROJECT1\PHYSICS- PROJECT1\W06D1_GRAPHPHYS\DEBUG\VC120.PDB
^C:\USERS\ADITYA\DESKTOP\GDAP\PHYSICS\PHYSICS- PROJECT1\PHYSICS- PROJECT1\W06D1_GRAPHPHYS\CGAMEOBJECT.CPP
C:\USERS\ADITYA\DESKTOP\GDAP\PHYSICS\PHYSICS- PROJECT1\PHYSICS- PROJECT1\W06D1_GRAPHPHYS\DEBUG\VC120.PDB
^C:\USERS\ADITYA\DESKTOP\GDAP\PHYSICS\PHYSICS- PROJECT1\PHYSICS- PROJECT1\W06D1_GRAPHPHYS\FILEDATALOADER.CPP
C:\USERS\ADITYA\DESKTOP\GDAP\PHYSICS\PHYSICS- PROJECT1\PHYSICS- PROJECT1\W06D1_GRAPHPHYS\DEBUG\VC120.PDB
^C:\USERS\ADITYA\DESKTOP\GDAP\PHYSICS\PHYSICS- PROJECT1\PHYSICS- PROJECT1\W06D1_GRAPHPHYS\GLOBAL.CPP
C:\USERS\ADITYA\DESKTOP\GDAP\PHYSICS\PHYSICS- PROJECT1\PHYSICS- PROJECT1\W06D1_GRAPHPHYS\DEBUG\VC120.PDB
^C:\USERS\ADITYA\DESKTOP\GDAP\PHYSICS\PHYSICS- PROJECT1\PHYSICS- PROJECT1\W06D1_GRAPHPHYS\GLUTCLOSE_CALLBACK.CPP
C:\USERS\ADITYA\DESKTOP\GDAP\PHYSICS\PHYSICS- PROJECT1\PHYSICS- PROJECT1\W06D1_GRAPHPHYS\DEBUG\VC120.PDB
^C:\USERS\ADITYA\DESKTOP\GDAP\PHYSICS\PHYSICS- PROJECT1\PHYSICS- PROJECT1\W06D1_GRAPHPHYS\GLUTDISPLAY_CALLBACK.CPP
C:\USERS\ADITYA\DESKTOP\GDAP\PHYSICS\PHYSICS- PROJECT1\PHYSICS- PROJECT1\W06D1_GRAPHPHYS\DEBUG\VC120.PDB
^C:\USERS\ADITYA\DESKTOP\GDAP\PHYSICS\PHYSICS- PROJECT1\PHYSICS- PROJECT1\W06D1_GRAPHPHYS\GLUTIDLE_CALLBACK.CPP
C:\USERS\ADITYA\DESKTOP\GDAP\PHYSICS\PHYSICS- PROJECT1\PHYSICS- PROJECT1\W06D1_GRAPHPHYS\DEBUG\VC120.PDB
^C:\USERS\ADITYA\DESKTOP\GDAP\PHYSICS\PHYSICS- PROJECT1\PHYSICS- PROJECT1\W06D1_GRAPHPHYS\GLUTKEYBOARDSPECIAL_CALLBACKS.CPP
C:\USERS\ADITYA\DESKTOP\GDAP\PHYSICS\PHYSICS- PROJECT1\PHYSICS- PROJECT1\W06D1_GRAPHPHYS\DEBUG\VC120.PDB
^C:\USERS\ADITYA\DESKTOP\GDAP\PHYSICS\PHYSICS- PROJECT1\PHYSICS- PROJECT1\W06D1_GRAPHPHYS\GLUTRESHAPE_CALLBACK.CPP
C:\USERS\ADITYA\DESKTOP\GDAP\PHYSICS\PHYSICS- PROJECT1\PHYSICS- PROJECT1\W06D1_GRAPHPHYS\DEBUG\VC120.PDB
^C:\USERS\ADITYA\DESKTOP\GDAP\PHYSICS\PHYSICS- PROJECT1\PHYSICS- PROJECT1\W06D1_GRAPHPHYS\PHYSICS.CPP
C:\USERS\ADITYA\DESKTOP\GDAP\PHYSICS\PHYSICS- PROJECT1\PHYSICS- PROJECT1\W06D1_GRAPHPHYS\DEBUG\VC120.PDB
^C:\USERS\ADITYA\DESKTOP\GDAP\PHYSICS\PHYSICS- PROJECT1\PHYSICS- PROJECT1\W06D1_GRAPHPHYS\SHADERUNIFORMVARIABLES.CPP
C:\USERS\ADITYA\DESKTOP\GDAP\PHYSICS\PHYSICS- PROJECT1\PHYSICS- PROJECT1\W06D1_GRAPHPHYS\DEBUG\VC120.PDB
^C:\USERS\ADITYA\DESKTOP\GDAP\PHYSICS\PHYSICS- PROJECT1\PHYSICS- PROJECT1\W06D1_GRAPHPHYS\OPENGL_INITIALIZE.CPP
C:\USERS\ADITYA\DESKTOP\GDAP\PHYSICS\PHYSICS- PROJECT1\PHYSICS- PROJECT1\W06D1_GRAPHPHYS\DEBUG\VC120.PDB
^C:\USERS\ADITYA\DESKTOP\GDAP\PHYSICS\PHYSICS- PROJECT1\PHYSICS- PROJECT1\W06D1_GRAPHPHYS\PRINTTHEWHATSTHISPROGRAMABOUTBLURB.CPP
C:\USERS\ADITYA\DESKTOP\GDAP\PHYSICS\PHYSICS- PROJECT1\PHYSICS- PROJECT1\W06D1_GRAPHPHYS\DEBUG\VC120.PDB
^C:\USERS\ADITYA\DESKTOP\GDAP\PHYSICS\PHYSICS- PROJECT1\PHYSICS- PROJECT1\W06D1_GRAPHPHYS\SHADERTYPES.CPP
C:\USERS\ADITYA\DESKTOP\GDAP\PHYSICS\PHYSICS- PROJECT1\PHYSICS- PROJECT1\W06D1_GRAPHPHYS\DEBUG\VC120.PDB
^C:\USERS\ADITYA\DESKTOP\GDAP\PHYSICS\PHYSICS- PROJECT1\PHYSICS- PROJECT1\W06D1_GRAPHPHYS\SUPERBASIC_GLEW_FREEGLUT.CPP
C:\USERS\ADITYA\DESKTOP\GDAP\PHYSICS\PHYSICS- PROJECT1\PHYSICS- PROJECT1\W06D1_GRAPHPHYS\DEBUG\VC120.PDB
^C:\USERS\ADITYA\DESKTOP\GDAP\PHYSICS\PHYSICS- PROJECT1\PHYSICS- PROJECT1\W06D1_GRAPHPHYS\VERTEXTYPES.CPP
C:\USERS\ADITYA\DESKTOP\GDAP\PHYSICS\PHYSICS- PROJECT1\PHYSICS- PROJECT1\W06D1_GRAPHPHYS\DEBUG\VC120.PDB
^D:\GDAP\COLLEDGE\ADITYA OPENGL TEMPLATE\GIT\PHYSICS TEST\W06D1_GRAPHPHYS\CBUNNY.CPP|D:\GDAP\COLLEDGE\ADITYA OPENGL TEMPLATE\GIT\PHYSICS TEST\W06D1_GRAPHPHYS\CCAMERA.CPP|D:\GDAP\COLLEDGE\ADITYA OPENGL TEMPLATE\GIT\PHYSICS TEST\W06D1_GRAPHPHYS\CFACTORYMEDIATOR.CPP|D:\GDAP\COLLEDGE\ADITYA OPENGL TEMPLATE\GIT\PHYSICS TEST\W06D1_GRAPHPHYS\CGAMEOBJECT.CPP|D:\GDAP\COLLEDGE\ADITYA OPENGL TEMPLATE\GIT\PHYSICS TEST\W06D1_GRAPHPHYS\CHRTIMER.CPP|D:\GDAP\COLLEDGE\ADITYA OPENGL TEMPLATE\GIT\PHYSICS TEST\W06D1_GRAPHPHYS\CMESSAGE.CPP|D:\GDAP\COLLEDGE\ADITYA OPENGL TEMPLATE\GIT\PHYSICS TEST\W06D1_GRAPHPHYS\CMODELLOADERMANAGER.CPP|D:\GDAP\COLLEDGE\ADITYA OPENGL TEMPLATE\GIT\PHYSICS TEST\W06D1_GRAPHPHYS\CNAMEVALUEPAIR.CPP|D:\GDAP\COLLEDGE\ADITYA OPENGL TEMPLATE\GIT\PHYSICS TEST\W06D1_GRAPHPHYS\CNINJATEAPOT.CPP|D:\GDAP\COLLEDGE\ADITYA OPENGL TEMPLATE\GIT\PHYSICS TEST\W06D1_GRAPHPHYS\COLLISIONTEST.CPP|D:\GDAP\COLLEDGE\ADITYA OPENGL TEMPLATE\GIT\PHYSICS TEST\W06D1_GRAPHPHYS\CPLYFILE5NT.CPP|D:\GDAP\COLLEDGE\ADITYA OPENGL TEMPLATE\GIT\PHYSICS TEST\W06D1_GRAPHPHYS\CSPHERE.CPP|D:\GDAP\COLLEDGE\ADITYA OPENGL TEMPLATE\GIT\PHYSICS TEST\W06D1_GRAPHPHYS\CTRIANGLE.CPP|D:\GDAP\COLLEDGE\ADITYA OPENGL TEMPLATE\GIT\PHYSICS TEST\W06D1_GRAPHPHYS\CVECTOR3F.CPP|D:\GDAP\COLLEDGE\ADITYA OPENGL TEMPLATE\GIT\PHYSICS TEST\W06D1_GRAPHPHYS\CVERTEX.CPP|D:\GDAP\COLLEDGE\ADITYA OPENGL TEMPLATE\GIT\PHYSICS TEST\W06D1_GRAPHPHYS\FILEDATALOADER.CPP|D:\GDAP\COLLEDGE\ADITYA OPENGL TEMPLATE\GIT\PHYSICS TEST\W06D1_GRAPHPHYS\GLOBAL.CPP|D:\GDAP\COLLEDGE\ADITYA OPENGL TEMPLATE\GIT\PHYSICS TEST\W06D1_GRAPHPHYS\GLUTCLOSE_CALLBACK.CPP|D:\GDAP\COLLEDGE\ADITYA OPENGL TEMPLATE\GIT\PHYSICS TEST\W06D1_GRAPHPHYS\GLUTDISPLAY_CALLBACK.CPP|D:\GDAP\COLLEDGE\ADITYA OPENGL TEMPLATE\GIT\PHYSICS TEST\W06D1_GRAPHPHYS\GLUTIDLE_CALLBACK.CPP|D:\GDAP\COLLEDGE\ADITYA OPENGL TEMPLATE\GIT\PHYSICS TEST\W06D1_GRAPHPHYS\GLUTKEYBOARDSPECIAL_CALLBACKS.CPP|D:\GDAP\COLLEDGE\ADITYA OPENGL TEMPLATE\GIT\PHYSICS TEST\W06D1_GRAPHPHYS\GLUTRESHAPE_CALLBACK.CPP|D:\GDAP\COLLEDGE\ADITYA OPENGL TEMPLATE\GIT\PHYSICS TEST\W06D1_GRAPHPHYS\OPENGL_INITIALIZE.CPP|D:\GDAP\COLLEDGE\ADITYA OPENGL TEMPLATE\GIT\PHYSICS TEST\W06D1_GRAPHPHYS\PHYSICS.CPP|D:\GDAP\COLLEDGE\ADITYA OPENGL TEMPLATE\GIT\PHYSICS TEST\W06D1_GRAPHPHYS\PRINTTHEWHATSTHISPROGRAMABOUTBLURB.CPP|D:\GDAP\COLLEDGE\ADITYA OPENGL TEMPLATE\GIT\PHYSICS TEST\W06D1_GRAPHPHYS\SHADERTYPES.CPP|D:\GDAP\COLLEDGE\ADITYA OPENGL TEMPLATE\GIT\PHYSICS TEST\W06D1_GRAPHPHYS\SHADERUNIFORMVARIABLES.CPP|D:\GDAP\COLLEDGE\ADITYA OPENGL TEMPLATE\GIT\PHYSICS TEST\W06D1_GRAPHPHYS\SUPERBASIC_GLEW_FREEGLUT.CPP|D:\GDAP\COLLEDGE\ADITYA OPENGL TEMPLATE\GIT\PHYSICS TEST\W06D1_GRAPHPHYS\VERTEXTYPES.CPP
D:\GDAP\COLLEDGE\ADITYA OPENGL TEMPLATE\GIT\PHYSICS TEST\W06D1_GRAPHPHYS\DEBUG\VC140.PDB
D:\GDAP\COLLEDGE\ADITYA OPENGL TEMPLATE\GIT\PHYSICS TEST\W06D1_GRAPHPHYS\DEBUG\VC140.IDB
D:\GDAP\COLLEDGE\ADITYA OPENGL TEMPLATE\GIT\PHYSICS TEST\W06D1_GRAPHPHYS\DEBUG\CPLYFILE5NT.OBJ
D:\GDAP\COLLEDGE\ADITYA OPENGL TEMPLATE\GIT\PHYSICS TEST\W06D1_GRAPHPHYS\DEBUG\CSPHERE.OBJ
D:\GDAP\COLLEDGE\ADITYA OPENGL TEMPLATE\GIT\PHYSICS TEST\W06D1_GRAPHPHYS\DEBUG\CTRIANGLE.OBJ
D:\GDAP\COLLEDGE\ADITYA OPENGL TEMPLATE\GIT\PHYSICS TEST\W06D1_GRAPHPHYS\DEBUG\CVECTOR3F.OBJ
D:\GDAP\COLLEDGE\ADITYA OPENGL TEMPLATE\GIT\PHYSICS TEST\W06D1_GRAPHPHYS\DEBUG\CVERTEX.OBJ
D:\GDAP\COLLEDGE\ADITYA OPENGL TEMPLATE\GIT\PHYSICS TEST\W06D1_GRAPHPHYS\DEBUG\CGAMEOBJECT.OBJ
D:\GDAP\COLLEDGE\ADITYA OPENGL TEMPLATE\GIT\PHYSICS TEST\W06D1_GRAPHPHYS\DEBUG\VERTEXTYPES.OBJ
D:\GDAP\COLLEDGE\ADITYA OPENGL TEMPLATE\GIT\PHYSICS TEST\W06D1_GRAPHPHYS\DEBUG\CBUNNY.OBJ
D:\GDAP\COLLEDGE\ADITYA OPENGL TEMPLATE\GIT\PHYSICS TEST\W06D1_GRAPHPHYS\DEBUG\CCAMERA.OBJ
D:\GDAP\COLLEDGE\ADITYA OPENGL TEMPLATE\GIT\PHYSICS TEST\W06D1_GRAPHPHYS\DEBUG\CMESSAGE.OBJ
D:\GDAP\COLLEDGE\ADITYA OPENGL TEMPLATE\GIT\PHYSICS TEST\W06D1_GRAPHPHYS\DEBUG\CHRTIMER.OBJ
D:\GDAP\COLLEDGE\ADITYA OPENGL TEMPLATE\GIT\PHYSICS TEST\W06D1_GRAPHPHYS\DEBUG\CNAMEVALUEPAIR.OBJ
D:\GDAP\COLLEDGE\ADITYA OPENGL TEMPLATE\GIT\PHYSICS TEST\W06D1_GRAPHPHYS\DEBUG\CNINJATEAPOT.OBJ
^D:\GDAP\COLLEDGE\ADITYA OPENGL TEMPLATE\GIT\PHYSICS TEST\W06D1_GRAPHPHYS\CBUNNY.CPP
D:\GDAP\COLLEDGE\ADITYA OPENGL TEMPLATE\GIT\PHYSICS TEST\W06D1_GRAPHPHYS\DEBUG\VC140.PDB
^D:\GDAP\COLLEDGE\ADITYA OPENGL TEMPLATE\GIT\PHYSICS TEST\W06D1_GRAPHPHYS\CCAMERA.CPP
D:\GDAP\COLLEDGE\ADITYA OPENGL TEMPLATE\GIT\PHYSICS TEST\W06D1_GRAPHPHYS\DEBUG\VC140.PDB
^D:\GDAP\COLLEDGE\ADITYA OPENGL TEMPLATE\GIT\PHYSICS TEST\W06D1_GRAPHPHYS\CMESSAGE.CPP
D:\GDAP\COLLEDGE\ADITYA OPENGL TEMPLATE\GIT\PHYSICS TEST\W06D1_GRAPHPHYS\DEBUG\VC140.PDB
^D:\GDAP\COLLEDGE\ADITYA OPENGL TEMPLATE\GIT\PHYSICS TEST\W06D1_GRAPHPHYS\CFACTORYMEDIATOR.CPP
D:\GDAP\COLLEDGE\ADITYA OPENGL TEMPLATE\GIT\PHYSICS TEST\W06D1_GRAPHPHYS\DEBUG\VC140.PDB
^D:\GDAP\COLLEDGE\ADITYA OPENGL TEMPLATE\GIT\PHYSICS TEST\W06D1_GRAPHPHYS\CHRTIMER.CPP
D:\GDAP\COLLEDGE\ADITYA OPENGL TEMPLATE\GIT\PHYSICS TEST\W06D1_GRAPHPHYS\DEBUG\VC140.PDB
^D:\GDAP\COLLEDGE\ADITYA OPENGL TEMPLATE\GIT\PHYSICS TEST\W06D1_GRAPHPHYS\CMODELLOADERMANAGER.CPP
D:\GDAP\COLLEDGE\ADITYA OPENGL TEMPLATE\GIT\PHYSICS TEST\W06D1_GRAPHPHYS\DEBUG\VC140.PDB
^D:\GDAP\COLLEDGE\ADITYA OPENGL TEMPLATE\GIT\PHYSICS TEST\W06D1_GRAPHPHYS\CNAMEVALUEPAIR.CPP
D:\GDAP\COLLEDGE\ADITYA OPENGL TEMPLATE\GIT\PHYSICS TEST\W06D1_GRAPHPHYS\DEBUG\VC140.PDB
^D:\GDAP\COLLEDGE\ADITYA OPENGL TEMPLATE\GIT\PHYSICS TEST\W06D1_GRAPHPHYS\CNINJATEAPOT.CPP
D:\GDAP\COLLEDGE\ADITYA OPENGL TEMPLATE\GIT\PHYSICS TEST\W06D1_GRAPHPHYS\DEBUG\VC140.PDB
^D:\GDAP\COLLEDGE\ADITYA OPENGL TEMPLATE\GIT\PHYSICS TEST\W06D1_GRAPHPHYS\COLLISIONTEST.CPP
D:\GDAP\COLLEDGE\ADITYA OPENGL TEMPLATE\GIT\PHYSICS TEST\W06D1_GRAPHPHYS\DEBUG\VC140.PDB
^D:\GDAP\COLLEDGE\ADITYA OPENGL TEMPLATE\GIT\PHYSICS TEST\W06D1_GRAPHPHYS\CPLYFILE5NT.CPP
D:\GDAP\COLLEDGE\ADITYA OPENGL TEMPLATE\GIT\PHYSICS TEST\W06D1_GRAPHPHYS\DEBUG\VC140.PDB
^D:\GDAP\COLLEDGE\ADITYA OPENGL TEMPLATE\GIT\PHYSICS TEST\W06D1_GRAPHPHYS\CSPHERE.CPP
D:\GDAP\COLLEDGE\ADITYA OPENGL TEMPLATE\GIT\PHYSICS TEST\W06D1_GRAPHPHYS\DEBUG\VC140.PDB
^D:\GDAP\COLLEDGE\ADITYA OPENGL TEMPLATE\GIT\PHYSICS TEST\W06D1_GRAPHPHYS\CTRIANGLE.CPP
D:\GDAP\COLLEDGE\ADITYA OPENGL TEMPLATE\GIT\PHYSICS TEST\W06D1_GRAPHPHYS\DEBUG\VC140.PDB
^D:\GDAP\COLLEDGE\ADITYA OPENGL TEMPLATE\GIT\PHYSICS TEST\W06D1_GRAPHPHYS\CVECTOR3F.CPP
D:\GDAP\COLLEDGE\ADITYA OPENGL TEMPLATE\GIT\PHYSICS TEST\W06D1_GRAPHPHYS\DEBUG\VC140.PDB
^D:\GDAP\COLLEDGE\ADITYA OPENGL TEMPLATE\GIT\PHYSICS TEST\W06D1_GRAPHPHYS\CVERTEX.CPP
D:\GDAP\COLLEDGE\ADITYA OPENGL TEMPLATE\GIT\PHYSICS TEST\W06D1_GRAPHPHYS\DEBUG\VC140.PDB
^D:\GDAP\COLLEDGE\ADITYA OPENGL TEMPLATE\GIT\PHYSICS TEST\W06D1_GRAPHPHYS\CGAMEOBJECT.CPP
D:\GDAP\COLLEDGE\ADITYA OPENGL TEMPLATE\GIT\PHYSICS TEST\W06D1_GRAPHPHYS\DEBUG\VC140.PDB
^D:\GDAP\COLLEDGE\ADITYA OPENGL TEMPLATE\GIT\PHYSICS TEST\W06D1_GRAPHPHYS\FILEDATALOADER.CPP
D:\GDAP\COLLEDGE\ADITYA OPENGL TEMPLATE\GIT\PHYSICS TEST\W06D1_GRAPHPHYS\DEBUG\VC140.PDB
^D:\GDAP\COLLEDGE\ADITYA OPENGL TEMPLATE\GIT\PHYSICS TEST\W06D1_GRAPHPHYS\GLOBAL.CPP
D:\GDAP\COLLEDGE\ADITYA OPENGL TEMPLATE\GIT\PHYSICS TEST\W06D1_GRAPHPHYS\DEBUG\VC140.PDB
^D:\GDAP\COLLEDGE\ADITYA OPENGL TEMPLATE\GIT\PHYSICS TEST\W06D1_GRAPHPHYS\GLUTCLOSE_CALLBACK.CPP
D:\GDAP\COLLEDGE\ADITYA OPENGL TEMPLATE\GIT\PHYSICS TEST\W06D1_GRAPHPHYS\DEBUG\VC140.PDB
^D:\GDAP\COLLEDGE\ADITYA OPENGL TEMPLATE\GIT\PHYSICS TEST\W06D1_GRAPHPHYS\GLUTDISPLAY_CALLBACK.CPP
D:\GDAP\COLLEDGE\ADITYA OPENGL TEMPLATE\GIT\PHYSICS TEST\W06D1_GRAPHPHYS\DEBUG\VC140.PDB
^D:\GDAP\COLLEDGE\ADITYA OPENGL TEMPLATE\GIT\PHYSICS TEST\W06D1_GRAPHPHYS\GLUTIDLE_CALLBACK.CPP
D:\GDAP\COLLEDGE\ADITYA OPENGL TEMPLATE\GIT\PHYSICS TEST\W06D1_GRAPHPHYS\DEBUG\VC140.PDB
^D:\GDAP\COLLEDGE\ADITYA OPENGL TEMPLATE\GIT\PHYSICS TEST\W06D1_GRAPHPHYS\GLUTKEYBOARDSPECIAL_CALLBACKS.CPP
D:\GDAP\COLLEDGE\ADITYA OPENGL TEMPLATE\GIT\PHYSICS TEST\W06D1_GRAPHPHYS\DEBUG\VC140.PDB
^D:\GDAP\COLLEDGE\ADITYA OPENGL TEMPLATE\GIT\PHYSICS TEST\W06D1_GRAPHPHYS\GLUTRESHAPE_CALLBACK.CPP
D:\GDAP\COLLEDGE\ADITYA OPENGL TEMPLATE\GIT\PHYSICS TEST\W06D1_GRAPHPHYS\DEBUG\VC140.PDB
^D:\GDAP\COLLEDGE\ADITYA OPENGL TEMPLATE\GIT\PHYSICS TEST\W06D1_GRAPHPHYS\PHYSICS.CPP
D:\GDAP\COLLEDGE\ADITYA OPENGL TEMPLATE\GIT\PHYSICS TEST\W06D1_GRAPHPHYS\DEBUG\VC140.PDB
^D:\GDAP\COLLEDGE\ADITYA OPENGL TEMPLATE\GIT\PHYSICS TEST\W06D1_GRAPHPHYS\SHADERUNIFORMVARIABLES.CPP
D:\GDAP\COLLEDGE\ADITYA OPENGL TEMPLATE\GIT\PHYSICS TEST\W06D1_GRAPHPHYS\DEBUG\VC140.PDB
^D:\GDAP\COLLEDGE\ADITYA OPENGL TEMPLATE\GIT\PHYSICS TEST\W06D1_GRAPHPHYS\OPENGL_INITIALIZE.CPP
D:\GDAP\COLLEDGE\ADITYA OPENGL TEMPLATE\GIT\PHYSICS TEST\W06D1_GRAPHPHYS\DEBUG\VC140.PDB
^D:\GDAP\COLLEDGE\ADITYA OPENGL TEMPLATE\GIT\PHYSICS TEST\W06D1_GRAPHPHYS\PRINTTHEWHATSTHISPROGRAMABOUTBLURB.CPP
D:\GDAP\COLLEDGE\ADITYA OPENGL TEMPLATE\GIT\PHYSICS TEST\W06D1_GRAPHPHYS\DEBUG\VC140.PDB
^D:\GDAP\COLLEDGE\ADITYA OPENGL TEMPLATE\GIT\PHYSICS TEST\W06D1_GRAPHPHYS\SHADERTYPES.CPP
D:\GDAP\COLLEDGE\ADITYA OPENGL TEMPLATE\GIT\PHYSICS TEST\W06D1_GRAPHPHYS\DEBUG\VC140.PDB
^D:\GDAP\COLLEDGE\ADITYA OPENGL TEMPLATE\GIT\PHYSICS TEST\W06D1_GRAPHPHYS\SUPERBASIC_GLEW_FREEGLUT.CPP
D:\GDAP\COLLEDGE\ADITYA OPENGL TEMPLATE\GIT\PHYSICS TEST\W06D1_GRAPHPHYS\DEBUG\VC140.PDB
^D:\GDAP\COLLEDGE\ADITYA OPENGL TEMPLATE\GIT\PHYSICS TEST\W06D1_GRAPHPHYS\VERTEXTYPES.CPP
D:\GDAP\COLLEDGE\ADITYA OPENGL TEMPLATE\GIT\PHYSICS TEST\W06D1_GRAPHPHYS\DEBUG\VC140.PDB
