^D:\GDAP\GEMS\GEMS PROJ 1\GEMSPROJ1 AND 2\DEBUG\LISTGEM.OBJ|D:\GDAP\GEMS\GEMS PROJ 1\GEMSPROJ1 AND 2\DEBUG\MAIN.OBJ|D:\GDAP\GEMS\GEMS PROJ 1\GEMSPROJ1 AND 2\DEBUG\MAPGEM.OBJ|D:\GDAP\GEMS\GEMS PROJ 1\GEMSPROJ1 AND 2\DEBUG\NAME_SENSUS_C.OBJ|D:\GDAP\GEMS\GEMS PROJ 1\GEMSPROJ1 AND 2\DEBUG\SENSUS_PEOPLE.OBJ|D:\GDAP\GEMS\GEMS PROJ 1\GEMSPROJ1 AND 2\DEBUG\TIMER_MEM.OBJ|D:\GDAP\GEMS\GEMS PROJ 1\GEMSPROJ1 AND 2\DEBUG\USING_LIST_MYCONTAINER.OBJ|D:\GDAP\GEMS\GEMS PROJ 1\GEMSPROJ1 AND 2\DEBUG\USING_MAP_MYCONTAINER.OBJ|D:\GDAP\GEMS\GEMS PROJ 1\GEMSPROJ1 AND 2\DEBUG\USING_MYVEC_C.OBJ|D:\GDAP\GEMS\GEMS PROJ 1\GEMSPROJ1 AND 2\DEBUG\VECTORGEM.OBJ
D:\GDAP\GEMS\GEMS PROJ 1\GEMSPROJ1 AND 2\DEBUG\GEMSPROJ1.ILK
D:\GDAP\GEMS\GEMS PROJ 1\GEMSPROJ1 AND 2\DEBUG\GEMSPROJ1.EXE
D:\GDAP\GEMS\GEMS PROJ 1\GEMSPROJ1 AND 2\DEBUG\GEMSPROJ1.PDB
^D:\GDAP\COLLEDGE\ADITYA OPENGL TEMPLATE\GIT\PARSING AND TEMPLATED CONTAINERS\TASK1 AND 2\DEBUG\LISTGEM.OBJ|D:\GDAP\COLLEDGE\ADITYA OPENGL TEMPLATE\GIT\PARSING AND TEMPLATED CONTAINERS\TASK1 AND 2\DEBUG\MAIN.OBJ|D:\GDAP\COLLEDGE\ADITYA OPENGL TEMPLATE\GIT\PARSING AND TEMPLATED CONTAINERS\TASK1 AND 2\DEBUG\MAPGEM.OBJ|D:\GDAP\COLLEDGE\ADITYA OPENGL TEMPLATE\GIT\PARSING AND TEMPLATED CONTAINERS\TASK1 AND 2\DEBUG\NAME_SENSUS_C.OBJ|D:\GDAP\COLLEDGE\ADITYA OPENGL TEMPLATE\GIT\PARSING AND TEMPLATED CONTAINERS\TASK1 AND 2\DEBUG\SENSUS_PEOPLE.OBJ|D:\GDAP\COLLEDGE\ADITYA OPENGL TEMPLATE\GIT\PARSING AND TEMPLATED CONTAINERS\TASK1 AND 2\DEBUG\TIMER_MEM.OBJ|D:\GDAP\COLLEDGE\ADITYA OPENGL TEMPLATE\GIT\PARSING AND TEMPLATED CONTAINERS\TASK1 AND 2\DEBUG\USING_LIST_MYCONTAINER.OBJ|D:\GDAP\COLLEDGE\ADITYA OPENGL TEMPLATE\GIT\PARSING AND TEMPLATED CONTAINERS\TASK1 AND 2\DEBUG\USING_MAP_MYCONTAINER.OBJ|D:\GDAP\COLLEDGE\ADITYA OPENGL TEMPLATE\GIT\PARSING AND TEMPLATED CONTAINERS\TASK1 AND 2\DEBUG\USING_MYVEC_C.OBJ|D:\GDAP\COLLEDGE\ADITYA OPENGL TEMPLATE\GIT\PARSING AND TEMPLATED CONTAINERS\TASK1 AND 2\DEBUG\VECTORGEM.OBJ
D:\GDAP\COLLEDGE\ADITYA OPENGL TEMPLATE\GIT\PARSING AND TEMPLATED CONTAINERS\TASK1 AND 2\DEBUG\GEMSPROJ1.ILK
D:\GDAP\COLLEDGE\ADITYA OPENGL TEMPLATE\GIT\PARSING AND TEMPLATED CONTAINERS\TASK1 AND 2\DEBUG\GEMSPROJ1.EXE
D:\GDAP\COLLEDGE\ADITYA OPENGL TEMPLATE\GIT\PARSING AND TEMPLATED CONTAINERS\TASK1 AND 2\DEBUG\GEMSPROJ1.PDB
