^D:\GAME DEVELOPMENT AND ADVANCED PROGRAMMING\PROJECTS\W06D1_GRAPHPHYS (3, 10 LIGHTS)\W06D1_GRAPHPHYS\CBUNNY.CPP|D:\GAME DEVELOPMENT AND ADVANCED PROGRAMMING\PROJECTS\W06D1_GRAPHPHYS (3, 10 LIGHTS)\W06D1_GRAPHPHYS\CCAMERA.CPP|D:\GAME DEVELOPMENT AND ADVANCED PROGRAMMING\PROJECTS\W06D1_GRAPHPHYS (3, 10 LIGHTS)\W06D1_GRAPHPHYS\CFACTORYMEDIATOR.CPP|D:\GAME DEVELOPMENT AND ADVANCED PROGRAMMING\PROJECTS\W06D1_GRAPHPHYS (3, 10 LIGHTS)\W06D1_GRAPHPHYS\CGAMEOBJECT.CPP|D:\GAME DEVELOPMENT AND ADVANCED PROGRAMMING\PROJECTS\W06D1_GRAPHPHYS (3, 10 LIGHTS)\W06D1_GRAPHPHYS\CHRTIMER.CPP|D:\GAME DEVELOPMENT AND ADVANCED PROGRAMMING\PROJECTS\W06D1_GRAPHPHYS (3, 10 LIGHTS)\W06D1_GRAPHPHYS\CMESSAGE.CPP|D:\GAME DEVELOPMENT AND ADVANCED PROGRAMMING\PROJECTS\W06D1_GRAPHPHYS (3, 10 LIGHTS)\W06D1_GRAPHPHYS\CMODELLOADERMANAGER.CPP|D:\GAME DEVELOPMENT AND ADVANCED PROGRAMMING\PROJECTS\W06D1_GRAPHPHYS (3, 10 LIGHTS)\W06D1_GRAPHPHYS\CNAMEVALUEPAIR.CPP|D:\GAME DEVELOPMENT AND ADVANCED PROGRAMMING\PROJECTS\W06D1_GRAPHPHYS (3, 10 LIGHTS)\W06D1_GRAPHPHYS\CNINJATEAPOT.CPP|D:\GAME DEVELOPMENT AND ADVANCED PROGRAMMING\PROJECTS\W06D1_GRAPHPHYS (3, 10 LIGHTS)\W06D1_GRAPHPHYS\CPLYFILE5NT.CPP|D:\GAME DEVELOPMENT AND ADVANCED PROGRAMMING\PROJECTS\W06D1_GRAPHPHYS (3, 10 LIGHTS)\W06D1_GRAPHPHYS\CTRIANGLE.CPP|D:\GAME DEVELOPMENT AND ADVANCED PROGRAMMING\PROJECTS\W06D1_GRAPHPHYS (3, 10 LIGHTS)\W06D1_GRAPHPHYS\CVECTOR3F.CPP|D:\GAME DEVELOPMENT AND ADVANCED PROGRAMMING\PROJECTS\W06D1_GRAPHPHYS (3, 10 LIGHTS)\W06D1_GRAPHPHYS\CVERTEX.CPP|D:\GAME DEVELOPMENT AND ADVANCED PROGRAMMING\PROJECTS\W06D1_GRAPHPHYS (3, 10 LIGHTS)\W06D1_GRAPHPHYS\GLOBAL.CPP|D:\GAME DEVELOPMENT AND ADVANCED PROGRAMMING\PROJECTS\W06D1_GRAPHPHYS (3, 10 LIGHTS)\W06D1_GRAPHPHYS\GLUTCLOSE_CALLBACK.CPP|D:\GAME DEVELOPMENT AND ADVANCED PROGRAMMING\PROJECTS\W06D1_GRAPHPHYS (3, 10 LIGHTS)\W06D1_GRAPHPHYS\GLUTDISPLAY_CALLBACK.CPP|D:\GAME DEVELOPMENT AND ADVANCED PROGRAMMING\PROJECTS\W06D1_GRAPHPHYS (3, 10 LIGHTS)\W06D1_GRAPHPHYS\GLUTKEYBOARDSPECIAL_CALLBACKS.CPP|D:\GAME DEVELOPMENT AND ADVANCED PROGRAMMING\PROJECTS\W06D1_GRAPHPHYS (3, 10 LIGHTS)\W06D1_GRAPHPHYS\GLUTRESHAPE_CALLBACK.CPP|D:\GAME DEVELOPMENT AND ADVANCED PROGRAMMING\PROJECTS\W06D1_GRAPHPHYS (3, 10 LIGHTS)\W06D1_GRAPHPHYS\OPENGL_INITIALIZE.CPP|D:\GAME DEVELOPMENT AND ADVANCED PROGRAMMING\PROJECTS\W06D1_GRAPHPHYS (3, 10 LIGHTS)\W06D1_GRAPHPHYS\PRINTTHEWHATSTHISPROGRAMABOUTBLURB.CPP|D:\GAME DEVELOPMENT AND ADVANCED PROGRAMMING\PROJECTS\W06D1_GRAPHPHYS (3, 10 LIGHTS)\W06D1_GRAPHPHYS\SHADERTYPES.CPP|D:\GAME DEVELOPMENT AND ADVANCED PROGRAMMING\PROJECTS\W06D1_GRAPHPHYS (3, 10 LIGHTS)\W06D1_GRAPHPHYS\SHADERUNIFORMVARIABLES.CPP|D:\GAME DEVELOPMENT AND ADVANCED PROGRAMMING\PROJECTS\W06D1_GRAPHPHYS (3, 10 LIGHTS)\W06D1_GRAPHPHYS\SUPERBASIC_GLEW_FREEGLUT.CPP|D:\GAME DEVELOPMENT AND ADVANCED PROGRAMMING\PROJECTS\W06D1_GRAPHPHYS (3, 10 LIGHTS)\W06D1_GRAPHPHYS\VERTEXTYPES.CPP
D:\GAME DEVELOPMENT AND ADVANCED PROGRAMMING\PROJECTS\W06D1_GRAPHPHYS (3, 10 LIGHTS)\W06D1_GRAPHPHYS\DEBUG\CHRTIMER.OBJ
D:\GAME DEVELOPMENT AND ADVANCED PROGRAMMING\PROJECTS\W06D1_GRAPHPHYS (3, 10 LIGHTS)\W06D1_GRAPHPHYS\DEBUG\CMODELLOADERMANAGER.OBJ
D:\GAME DEVELOPMENT AND ADVANCED PROGRAMMING\PROJECTS\W06D1_GRAPHPHYS (3, 10 LIGHTS)\W06D1_GRAPHPHYS\DEBUG\CNAMEVALUEPAIR.OBJ
D:\GAME DEVELOPMENT AND ADVANCED PROGRAMMING\PROJECTS\W06D1_GRAPHPHYS (3, 10 LIGHTS)\W06D1_GRAPHPHYS\DEBUG\CNINJATEAPOT.OBJ
D:\GAME DEVELOPMENT AND ADVANCED PROGRAMMING\PROJECTS\W06D1_GRAPHPHYS (3, 10 LIGHTS)\W06D1_GRAPHPHYS\DEBUG\CPLYFILE5NT.OBJ
D:\GAME DEVELOPMENT AND ADVANCED PROGRAMMING\PROJECTS\W06D1_GRAPHPHYS (3, 10 LIGHTS)\W06D1_GRAPHPHYS\DEBUG\CTRIANGLE.OBJ
D:\GAME DEVELOPMENT AND ADVANCED PROGRAMMING\PROJECTS\W06D1_GRAPHPHYS (3, 10 LIGHTS)\W06D1_GRAPHPHYS\DEBUG\CVECTOR3F.OBJ
D:\GAME DEVELOPMENT AND ADVANCED PROGRAMMING\PROJECTS\W06D1_GRAPHPHYS (3, 10 LIGHTS)\W06D1_GRAPHPHYS\DEBUG\CVERTEX.OBJ
D:\GAME DEVELOPMENT AND ADVANCED PROGRAMMING\PROJECTS\W06D1_GRAPHPHYS (3, 10 LIGHTS)\W06D1_GRAPHPHYS\DEBUG\CGAMEOBJECT.OBJ
D:\GAME DEVELOPMENT AND ADVANCED PROGRAMMING\PROJECTS\W06D1_GRAPHPHYS (3, 10 LIGHTS)\W06D1_GRAPHPHYS\DEBUG\GLOBAL.OBJ
D:\GAME DEVELOPMENT AND ADVANCED PROGRAMMING\PROJECTS\W06D1_GRAPHPHYS (3, 10 LIGHTS)\W06D1_GRAPHPHYS\DEBUG\GLUTCLOSE_CALLBACK.OBJ
D:\GAME DEVELOPMENT AND ADVANCED PROGRAMMING\PROJECTS\W06D1_GRAPHPHYS (3, 10 LIGHTS)\W06D1_GRAPHPHYS\DEBUG\GLUTDISPLAY_CALLBACK.OBJ
D:\GAME DEVELOPMENT AND ADVANCED PROGRAMMING\PROJECTS\W06D1_GRAPHPHYS (3, 10 LIGHTS)\W06D1_GRAPHPHYS\DEBUG\GLUTKEYBOARDSPECIAL_CALLBACKS.OBJ
D:\GAME DEVELOPMENT AND ADVANCED PROGRAMMING\PROJECTS\W06D1_GRAPHPHYS (3, 10 LIGHTS)\W06D1_GRAPHPHYS\DEBUG\GLUTRESHAPE_CALLBACK.OBJ
D:\GAME DEVELOPMENT AND ADVANCED PROGRAMMING\PROJECTS\W06D1_GRAPHPHYS (3, 10 LIGHTS)\W06D1_GRAPHPHYS\DEBUG\SHADERUNIFORMVARIABLES.OBJ
D:\GAME DEVELOPMENT AND ADVANCED PROGRAMMING\PROJECTS\W06D1_GRAPHPHYS (3, 10 LIGHTS)\W06D1_GRAPHPHYS\DEBUG\OPENGL_INITIALIZE.OBJ
D:\GAME DEVELOPMENT AND ADVANCED PROGRAMMING\PROJECTS\W06D1_GRAPHPHYS (3, 10 LIGHTS)\W06D1_GRAPHPHYS\DEBUG\PRINTTHEWHATSTHISPROGRAMABOUTBLURB.OBJ
D:\GAME DEVELOPMENT AND ADVANCED PROGRAMMING\PROJECTS\W06D1_GRAPHPHYS (3, 10 LIGHTS)\W06D1_GRAPHPHYS\DEBUG\SHADERTYPES.OBJ
D:\GAME DEVELOPMENT AND ADVANCED PROGRAMMING\PROJECTS\W06D1_GRAPHPHYS (3, 10 LIGHTS)\W06D1_GRAPHPHYS\DEBUG\SUPERBASIC_GLEW_FREEGLUT.OBJ
D:\GAME DEVELOPMENT AND ADVANCED PROGRAMMING\PROJECTS\W06D1_GRAPHPHYS (3, 10 LIGHTS)\W06D1_GRAPHPHYS\DEBUG\VERTEXTYPES.OBJ
D:\GAME DEVELOPMENT AND ADVANCED PROGRAMMING\PROJECTS\W06D1_GRAPHPHYS (3, 10 LIGHTS)\W06D1_GRAPHPHYS\DEBUG\CBUNNY.OBJ
D:\GAME DEVELOPMENT AND ADVANCED PROGRAMMING\PROJECTS\W06D1_GRAPHPHYS (3, 10 LIGHTS)\W06D1_GRAPHPHYS\DEBUG\CCAMERA.OBJ
D:\GAME DEVELOPMENT AND ADVANCED PROGRAMMING\PROJECTS\W06D1_GRAPHPHYS (3, 10 LIGHTS)\W06D1_GRAPHPHYS\DEBUG\CMESSAGE.OBJ
D:\GAME DEVELOPMENT AND ADVANCED PROGRAMMING\PROJECTS\W06D1_GRAPHPHYS (3, 10 LIGHTS)\W06D1_GRAPHPHYS\DEBUG\CFACTORYMEDIATOR.OBJ
^D:\GAME DEVELOPMENT AND ADVANCED PROGRAMMING\PROJECTS\W06D1_GRAPHPHYS (3, 10 LIGHTS)\W06D1_GRAPHPHYS\CBUNNY.CPP
D:\GAME DEVELOPMENT AND ADVANCED PROGRAMMING\PROJECTS\W06D1_GRAPHPHYS (3, 10 LIGHTS)\W06D1_GRAPHPHYS\DEBUG\VC110.PDB
^D:\GAME DEVELOPMENT AND ADVANCED PROGRAMMING\PROJECTS\W06D1_GRAPHPHYS (3, 10 LIGHTS)\W06D1_GRAPHPHYS\CCAMERA.CPP
D:\GAME DEVELOPMENT AND ADVANCED PROGRAMMING\PROJECTS\W06D1_GRAPHPHYS (3, 10 LIGHTS)\W06D1_GRAPHPHYS\DEBUG\VC110.PDB
^D:\GAME DEVELOPMENT AND ADVANCED PROGRAMMING\PROJECTS\W06D1_GRAPHPHYS (3, 10 LIGHTS)\W06D1_GRAPHPHYS\CMESSAGE.CPP
D:\GAME DEVELOPMENT AND ADVANCED PROGRAMMING\PROJECTS\W06D1_GRAPHPHYS (3, 10 LIGHTS)\W06D1_GRAPHPHYS\DEBUG\VC110.PDB
^D:\GAME DEVELOPMENT AND ADVANCED PROGRAMMING\PROJECTS\W06D1_GRAPHPHYS (3, 10 LIGHTS)\W06D1_GRAPHPHYS\CFACTORYMEDIATOR.CPP
D:\GAME DEVELOPMENT AND ADVANCED PROGRAMMING\PROJECTS\W06D1_GRAPHPHYS (3, 10 LIGHTS)\W06D1_GRAPHPHYS\DEBUG\VC110.PDB
D:\GAME DEVELOPMENT AND ADVANCED PROGRAMMING\PROJECTS\W06D1_GRAPHPHYS (3, 10 LIGHTS)\W06D1_GRAPHPHYS\DEBUG\CFACTORYMEDIATOR.OBJ
^D:\GAME DEVELOPMENT AND ADVANCED PROGRAMMING\PROJECTS\W06D1_GRAPHPHYS (3, 10 LIGHTS)\W06D1_GRAPHPHYS\CHRTIMER.CPP
D:\GAME DEVELOPMENT AND ADVANCED PROGRAMMING\PROJECTS\W06D1_GRAPHPHYS (3, 10 LIGHTS)\W06D1_GRAPHPHYS\DEBUG\VC110.PDB
^D:\GAME DEVELOPMENT AND ADVANCED PROGRAMMING\PROJECTS\W06D1_GRAPHPHYS (3, 10 LIGHTS)\W06D1_GRAPHPHYS\CMODELLOADERMANAGER.CPP
D:\GAME DEVELOPMENT AND ADVANCED PROGRAMMING\PROJECTS\W06D1_GRAPHPHYS (3, 10 LIGHTS)\W06D1_GRAPHPHYS\DEBUG\VC110.PDB
^D:\GAME DEVELOPMENT AND ADVANCED PROGRAMMING\PROJECTS\W06D1_GRAPHPHYS (3, 10 LIGHTS)\W06D1_GRAPHPHYS\CNAMEVALUEPAIR.CPP
D:\GAME DEVELOPMENT AND ADVANCED PROGRAMMING\PROJECTS\W06D1_GRAPHPHYS (3, 10 LIGHTS)\W06D1_GRAPHPHYS\DEBUG\VC110.PDB
^D:\GAME DEVELOPMENT AND ADVANCED PROGRAMMING\PROJECTS\W06D1_GRAPHPHYS (3, 10 LIGHTS)\W06D1_GRAPHPHYS\CNINJATEAPOT.CPP
D:\GAME DEVELOPMENT AND ADVANCED PROGRAMMING\PROJECTS\W06D1_GRAPHPHYS (3, 10 LIGHTS)\W06D1_GRAPHPHYS\DEBUG\VC110.PDB
^D:\GAME DEVELOPMENT AND ADVANCED PROGRAMMING\PROJECTS\W06D1_GRAPHPHYS (3, 10 LIGHTS)\W06D1_GRAPHPHYS\CPLYFILE5NT.CPP
D:\GAME DEVELOPMENT AND ADVANCED PROGRAMMING\PROJECTS\W06D1_GRAPHPHYS (3, 10 LIGHTS)\W06D1_GRAPHPHYS\DEBUG\VC110.PDB
^D:\GAME DEVELOPMENT AND ADVANCED PROGRAMMING\PROJECTS\W06D1_GRAPHPHYS (3, 10 LIGHTS)\W06D1_GRAPHPHYS\CTRIANGLE.CPP
D:\GAME DEVELOPMENT AND ADVANCED PROGRAMMING\PROJECTS\W06D1_GRAPHPHYS (3, 10 LIGHTS)\W06D1_GRAPHPHYS\DEBUG\VC110.PDB
^D:\GAME DEVELOPMENT AND ADVANCED PROGRAMMING\PROJECTS\W06D1_GRAPHPHYS (3, 10 LIGHTS)\W06D1_GRAPHPHYS\CVECTOR3F.CPP
D:\GAME DEVELOPMENT AND ADVANCED PROGRAMMING\PROJECTS\W06D1_GRAPHPHYS (3, 10 LIGHTS)\W06D1_GRAPHPHYS\DEBUG\VC110.PDB
^D:\GAME DEVELOPMENT AND ADVANCED PROGRAMMING\PROJECTS\W06D1_GRAPHPHYS (3, 10 LIGHTS)\W06D1_GRAPHPHYS\CVERTEX.CPP
D:\GAME DEVELOPMENT AND ADVANCED PROGRAMMING\PROJECTS\W06D1_GRAPHPHYS (3, 10 LIGHTS)\W06D1_GRAPHPHYS\DEBUG\VC110.PDB
^D:\GAME DEVELOPMENT AND ADVANCED PROGRAMMING\PROJECTS\W06D1_GRAPHPHYS (3, 10 LIGHTS)\W06D1_GRAPHPHYS\CGAMEOBJECT.CPP
D:\GAME DEVELOPMENT AND ADVANCED PROGRAMMING\PROJECTS\W06D1_GRAPHPHYS (3, 10 LIGHTS)\W06D1_GRAPHPHYS\DEBUG\VC110.PDB
^D:\GAME DEVELOPMENT AND ADVANCED PROGRAMMING\PROJECTS\W06D1_GRAPHPHYS (3, 10 LIGHTS)\W06D1_GRAPHPHYS\GLOBAL.CPP
D:\GAME DEVELOPMENT AND ADVANCED PROGRAMMING\PROJECTS\W06D1_GRAPHPHYS (3, 10 LIGHTS)\W06D1_GRAPHPHYS\DEBUG\VC110.PDB
D:\GAME DEVELOPMENT AND ADVANCED PROGRAMMING\PROJECTS\W06D1_GRAPHPHYS (3, 10 LIGHTS)\W06D1_GRAPHPHYS\DEBUG\GLOBAL.OBJ
^D:\GAME DEVELOPMENT AND ADVANCED PROGRAMMING\PROJECTS\W06D1_GRAPHPHYS (3, 10 LIGHTS)\W06D1_GRAPHPHYS\GLUTCLOSE_CALLBACK.CPP
D:\GAME DEVELOPMENT AND ADVANCED PROGRAMMING\PROJECTS\W06D1_GRAPHPHYS (3, 10 LIGHTS)\W06D1_GRAPHPHYS\DEBUG\VC110.PDB
^D:\GAME DEVELOPMENT AND ADVANCED PROGRAMMING\PROJECTS\W06D1_GRAPHPHYS (3, 10 LIGHTS)\W06D1_GRAPHPHYS\GLUTDISPLAY_CALLBACK.CPP
D:\GAME DEVELOPMENT AND ADVANCED PROGRAMMING\PROJECTS\W06D1_GRAPHPHYS (3, 10 LIGHTS)\W06D1_GRAPHPHYS\DEBUG\VC110.PDB
D:\GAME DEVELOPMENT AND ADVANCED PROGRAMMING\PROJECTS\W06D1_GRAPHPHYS (3, 10 LIGHTS)\W06D1_GRAPHPHYS\DEBUG\GLUTDISPLAY_CALLBACK.OBJ
^D:\GAME DEVELOPMENT AND ADVANCED PROGRAMMING\PROJECTS\W06D1_GRAPHPHYS (3, 10 LIGHTS)\W06D1_GRAPHPHYS\GLUTKEYBOARDSPECIAL_CALLBACKS.CPP
D:\GAME DEVELOPMENT AND ADVANCED PROGRAMMING\PROJECTS\W06D1_GRAPHPHYS (3, 10 LIGHTS)\W06D1_GRAPHPHYS\DEBUG\VC110.PDB
D:\GAME DEVELOPMENT AND ADVANCED PROGRAMMING\PROJECTS\W06D1_GRAPHPHYS (3, 10 LIGHTS)\W06D1_GRAPHPHYS\DEBUG\GLUTKEYBOARDSPECIAL_CALLBACKS.OBJ
^D:\GAME DEVELOPMENT AND ADVANCED PROGRAMMING\PROJECTS\W06D1_GRAPHPHYS (3, 10 LIGHTS)\W06D1_GRAPHPHYS\GLUTRESHAPE_CALLBACK.CPP
D:\GAME DEVELOPMENT AND ADVANCED PROGRAMMING\PROJECTS\W06D1_GRAPHPHYS (3, 10 LIGHTS)\W06D1_GRAPHPHYS\DEBUG\VC110.PDB
^D:\GAME DEVELOPMENT AND ADVANCED PROGRAMMING\PROJECTS\W06D1_GRAPHPHYS (3, 10 LIGHTS)\W06D1_GRAPHPHYS\SHADERUNIFORMVARIABLES.CPP
D:\GAME DEVELOPMENT AND ADVANCED PROGRAMMING\PROJECTS\W06D1_GRAPHPHYS (3, 10 LIGHTS)\W06D1_GRAPHPHYS\DEBUG\VC110.PDB
^D:\GAME DEVELOPMENT AND ADVANCED PROGRAMMING\PROJECTS\W06D1_GRAPHPHYS (3, 10 LIGHTS)\W06D1_GRAPHPHYS\OPENGL_INITIALIZE.CPP
D:\GAME DEVELOPMENT AND ADVANCED PROGRAMMING\PROJECTS\W06D1_GRAPHPHYS (3, 10 LIGHTS)\W06D1_GRAPHPHYS\DEBUG\VC110.PDB
^D:\GAME DEVELOPMENT AND ADVANCED PROGRAMMING\PROJECTS\W06D1_GRAPHPHYS (3, 10 LIGHTS)\W06D1_GRAPHPHYS\PRINTTHEWHATSTHISPROGRAMABOUTBLURB.CPP
D:\GAME DEVELOPMENT AND ADVANCED PROGRAMMING\PROJECTS\W06D1_GRAPHPHYS (3, 10 LIGHTS)\W06D1_GRAPHPHYS\DEBUG\VC110.PDB
^D:\GAME DEVELOPMENT AND ADVANCED PROGRAMMING\PROJECTS\W06D1_GRAPHPHYS (3, 10 LIGHTS)\W06D1_GRAPHPHYS\SHADERTYPES.CPP
D:\GAME DEVELOPMENT AND ADVANCED PROGRAMMING\PROJECTS\W06D1_GRAPHPHYS (3, 10 LIGHTS)\W06D1_GRAPHPHYS\DEBUG\VC110.PDB
^D:\GAME DEVELOPMENT AND ADVANCED PROGRAMMING\PROJECTS\W06D1_GRAPHPHYS (3, 10 LIGHTS)\W06D1_GRAPHPHYS\SUPERBASIC_GLEW_FREEGLUT.CPP
D:\GAME DEVELOPMENT AND ADVANCED PROGRAMMING\PROJECTS\W06D1_GRAPHPHYS (3, 10 LIGHTS)\W06D1_GRAPHPHYS\DEBUG\VC110.PDB
D:\GAME DEVELOPMENT AND ADVANCED PROGRAMMING\PROJECTS\W06D1_GRAPHPHYS (3, 10 LIGHTS)\W06D1_GRAPHPHYS\DEBUG\SUPERBASIC_GLEW_FREEGLUT.OBJ
^D:\GAME DEVELOPMENT AND ADVANCED PROGRAMMING\PROJECTS\W06D1_GRAPHPHYS (3, 10 LIGHTS)\W06D1_GRAPHPHYS\VERTEXTYPES.CPP
D:\GAME DEVELOPMENT AND ADVANCED PROGRAMMING\PROJECTS\W06D1_GRAPHPHYS (3, 10 LIGHTS)\W06D1_GRAPHPHYS\DEBUG\VC110.PDB
^D:\GAME DEVELOPMENT AND ADVANCED PROGRAMMING\PROJECTS\W06D1_GRAPHPHYS (3, 10 LIGHTS)\W06D1_GRAPHPHYS\GLUTKEYBOARDSPECIAL_CALLBACKS.CPP|D:\GAME DEVELOPMENT AND ADVANCED PROGRAMMING\PROJECTS\W06D1_GRAPHPHYS (3, 10 LIGHTS)\W06D1_GRAPHPHYS\SUPERBASIC_GLEW_FREEGLUT.CPP
D:\GAME DEVELOPMENT AND ADVANCED PROGRAMMING\PROJECTS\W06D1_GRAPHPHYS (3, 10 LIGHTS)\W06D1_GRAPHPHYS\DEBUG\SUPERBASIC_GLEW_FREEGLUT.OBJ
D:\GAME DEVELOPMENT AND ADVANCED PROGRAMMING\PROJECTS\W06D1_GRAPHPHYS (3, 10 LIGHTS)\W06D1_GRAPHPHYS\DEBUG\GLUTKEYBOARDSPECIAL_CALLBACKS.OBJ
^D:\GAME DEVELOPMENT AND ADVANCED PROGRAMMING\PROJECTS\W06D1_GRAPHPHYS (3, 10 LIGHTS)\W06D1_GRAPHPHYS\GLUTDISPLAY_CALLBACK.CPP|D:\GAME DEVELOPMENT AND ADVANCED PROGRAMMING\PROJECTS\W06D1_GRAPHPHYS (3, 10 LIGHTS)\W06D1_GRAPHPHYS\SUPERBASIC_GLEW_FREEGLUT.CPP
D:\GAME DEVELOPMENT AND ADVANCED PROGRAMMING\PROJECTS\W06D1_GRAPHPHYS (3, 10 LIGHTS)\W06D1_GRAPHPHYS\DEBUG\SUPERBASIC_GLEW_FREEGLUT.OBJ
D:\GAME DEVELOPMENT AND ADVANCED PROGRAMMING\PROJECTS\W06D1_GRAPHPHYS (3, 10 LIGHTS)\W06D1_GRAPHPHYS\DEBUG\GLUTDISPLAY_CALLBACK.OBJ
^D:\GAME DEVELOPMENT AND ADVANCED PROGRAMMING\PROJECTS\W06D1_GRAPHPHYS (3, 10 LIGHTS)\W06D1_GRAPHPHYS\CFACTORYMEDIATOR.CPP|D:\GAME DEVELOPMENT AND ADVANCED PROGRAMMING\PROJECTS\W06D1_GRAPHPHYS (3, 10 LIGHTS)\W06D1_GRAPHPHYS\SUPERBASIC_GLEW_FREEGLUT.CPP
D:\GAME DEVELOPMENT AND ADVANCED PROGRAMMING\PROJECTS\W06D1_GRAPHPHYS (3, 10 LIGHTS)\W06D1_GRAPHPHYS\DEBUG\CFACTORYMEDIATOR.OBJ
D:\GAME DEVELOPMENT AND ADVANCED PROGRAMMING\PROJECTS\W06D1_GRAPHPHYS (3, 10 LIGHTS)\W06D1_GRAPHPHYS\DEBUG\SUPERBASIC_GLEW_FREEGLUT.OBJ
^D:\GAME DEVELOPMENT AND ADVANCED PROGRAMMING\PROJECTS\W06D1_GRAPHPHYS (3, 10 LIGHTS)\W06D1_GRAPHPHYS\CMODELLOADERMANAGER.CPP|D:\GAME DEVELOPMENT AND ADVANCED PROGRAMMING\PROJECTS\W06D1_GRAPHPHYS (3, 10 LIGHTS)\W06D1_GRAPHPHYS\GLOBAL.CPP|D:\GAME DEVELOPMENT AND ADVANCED PROGRAMMING\PROJECTS\W06D1_GRAPHPHYS (3, 10 LIGHTS)\W06D1_GRAPHPHYS\GLUTCLOSE_CALLBACK.CPP|D:\GAME DEVELOPMENT AND ADVANCED PROGRAMMING\PROJECTS\W06D1_GRAPHPHYS (3, 10 LIGHTS)\W06D1_GRAPHPHYS\GLUTDISPLAY_CALLBACK.CPP|D:\GAME DEVELOPMENT AND ADVANCED PROGRAMMING\PROJECTS\W06D1_GRAPHPHYS (3, 10 LIGHTS)\W06D1_GRAPHPHYS\GLUTIDLE_CALLBACK.CPP|D:\GAME DEVELOPMENT AND ADVANCED PROGRAMMING\PROJECTS\W06D1_GRAPHPHYS (3, 10 LIGHTS)\W06D1_GRAPHPHYS\GLUTKEYBOARDSPECIAL_CALLBACKS.CPP|D:\GAME DEVELOPMENT AND ADVANCED PROGRAMMING\PROJECTS\W06D1_GRAPHPHYS (3, 10 LIGHTS)\W06D1_GRAPHPHYS\GLUTRESHAPE_CALLBACK.CPP|D:\GAME DEVELOPMENT AND ADVANCED PROGRAMMING\PROJECTS\W06D1_GRAPHPHYS (3, 10 LIGHTS)\W06D1_GRAPHPHYS\OPENGL_INITIALIZE.CPP|D:\GAME DEVELOPMENT AND ADVANCED PROGRAMMING\PROJECTS\W06D1_GRAPHPHYS (3, 10 LIGHTS)\W06D1_GRAPHPHYS\PHYSICS.CPP|D:\GAME DEVELOPMENT AND ADVANCED PROGRAMMING\PROJECTS\W06D1_GRAPHPHYS (3, 10 LIGHTS)\W06D1_GRAPHPHYS\PRINTTHEWHATSTHISPROGRAMABOUTBLURB.CPP|D:\GAME DEVELOPMENT AND ADVANCED PROGRAMMING\PROJECTS\W06D1_GRAPHPHYS (3, 10 LIGHTS)\W06D1_GRAPHPHYS\SHADERUNIFORMVARIABLES.CPP|D:\GAME DEVELOPMENT AND ADVANCED PROGRAMMING\PROJECTS\W06D1_GRAPHPHYS (3, 10 LIGHTS)\W06D1_GRAPHPHYS\SUPERBASIC_GLEW_FREEGLUT.CPP
D:\GAME DEVELOPMENT AND ADVANCED PROGRAMMING\PROJECTS\W06D1_GRAPHPHYS (3, 10 LIGHTS)\W06D1_GRAPHPHYS\DEBUG\GLOBAL.OBJ
D:\GAME DEVELOPMENT AND ADVANCED PROGRAMMING\PROJECTS\W06D1_GRAPHPHYS (3, 10 LIGHTS)\W06D1_GRAPHPHYS\DEBUG\GLUTIDLE_CALLBACK.OBJ
D:\GAME DEVELOPMENT AND ADVANCED PROGRAMMING\PROJECTS\W06D1_GRAPHPHYS (3, 10 LIGHTS)\W06D1_GRAPHPHYS\DEBUG\SUPERBASIC_GLEW_FREEGLUT.OBJ
D:\GAME DEVELOPMENT AND ADVANCED PROGRAMMING\PROJECTS\W06D1_GRAPHPHYS (3, 10 LIGHTS)\W06D1_GRAPHPHYS\DEBUG\CMODELLOADERMANAGER.OBJ
D:\GAME DEVELOPMENT AND ADVANCED PROGRAMMING\PROJECTS\W06D1_GRAPHPHYS (3, 10 LIGHTS)\W06D1_GRAPHPHYS\DEBUG\GLUTCLOSE_CALLBACK.OBJ
D:\GAME DEVELOPMENT AND ADVANCED PROGRAMMING\PROJECTS\W06D1_GRAPHPHYS (3, 10 LIGHTS)\W06D1_GRAPHPHYS\DEBUG\GLUTDISPLAY_CALLBACK.OBJ
D:\GAME DEVELOPMENT AND ADVANCED PROGRAMMING\PROJECTS\W06D1_GRAPHPHYS (3, 10 LIGHTS)\W06D1_GRAPHPHYS\DEBUG\GLUTKEYBOARDSPECIAL_CALLBACKS.OBJ
D:\GAME DEVELOPMENT AND ADVANCED PROGRAMMING\PROJECTS\W06D1_GRAPHPHYS (3, 10 LIGHTS)\W06D1_GRAPHPHYS\DEBUG\GLUTRESHAPE_CALLBACK.OBJ
D:\GAME DEVELOPMENT AND ADVANCED PROGRAMMING\PROJECTS\W06D1_GRAPHPHYS (3, 10 LIGHTS)\W06D1_GRAPHPHYS\DEBUG\SHADERUNIFORMVARIABLES.OBJ
D:\GAME DEVELOPMENT AND ADVANCED PROGRAMMING\PROJECTS\W06D1_GRAPHPHYS (3, 10 LIGHTS)\W06D1_GRAPHPHYS\DEBUG\OPENGL_INITIALIZE.OBJ
D:\GAME DEVELOPMENT AND ADVANCED PROGRAMMING\PROJECTS\W06D1_GRAPHPHYS (3, 10 LIGHTS)\W06D1_GRAPHPHYS\DEBUG\PRINTTHEWHATSTHISPROGRAMABOUTBLURB.OBJ
^D:\GAME DEVELOPMENT AND ADVANCED PROGRAMMING\PROJECTS\W06D1_GRAPHPHYS (3, 10 LIGHTS)\W06D1_GRAPHPHYS\GLUTIDLE_CALLBACK.CPP
D:\GAME DEVELOPMENT AND ADVANCED PROGRAMMING\PROJECTS\W06D1_GRAPHPHYS (3, 10 LIGHTS)\W06D1_GRAPHPHYS\DEBUG\VC110.PDB
^D:\GAME DEVELOPMENT AND ADVANCED PROGRAMMING\PROJECTS\W06D1_GRAPHPHYS (3, 10 LIGHTS)\W06D1_GRAPHPHYS\PHYSICS.CPP
D:\GAME DEVELOPMENT AND ADVANCED PROGRAMMING\PROJECTS\W06D1_GRAPHPHYS (3, 10 LIGHTS)\W06D1_GRAPHPHYS\DEBUG\VC110.PDB
D:\GAME DEVELOPMENT AND ADVANCED PROGRAMMING\PROJECTS\W06D1_GRAPHPHYS (3, 10 LIGHTS)\W06D1_GRAPHPHYS\DEBUG\PHYSICS.OBJ
^D:\GAME DEVELOPMENT AND ADVANCED PROGRAMMING\PROJECTS\W06D1_GRAPHPHYS (3, 10 LIGHTS)\W06D1_GRAPHPHYS\CFACTORYMEDIATOR.CPP|D:\GAME DEVELOPMENT AND ADVANCED PROGRAMMING\PROJECTS\W06D1_GRAPHPHYS (3, 10 LIGHTS)\W06D1_GRAPHPHYS\CSPHERE.CPP|D:\GAME DEVELOPMENT AND ADVANCED PROGRAMMING\PROJECTS\W06D1_GRAPHPHYS (3, 10 LIGHTS)\W06D1_GRAPHPHYS\GLUTIDLE_CALLBACK.CPP
D:\GAME DEVELOPMENT AND ADVANCED PROGRAMMING\PROJECTS\W06D1_GRAPHPHYS (3, 10 LIGHTS)\W06D1_GRAPHPHYS\DEBUG\CFACTORYMEDIATOR.OBJ
D:\GAME DEVELOPMENT AND ADVANCED PROGRAMMING\PROJECTS\W06D1_GRAPHPHYS (3, 10 LIGHTS)\W06D1_GRAPHPHYS\DEBUG\CSPHERE.OBJ
D:\GAME DEVELOPMENT AND ADVANCED PROGRAMMING\PROJECTS\W06D1_GRAPHPHYS (3, 10 LIGHTS)\W06D1_GRAPHPHYS\DEBUG\GLUTIDLE_CALLBACK.OBJ
^D:\GAME DEVELOPMENT AND ADVANCED PROGRAMMING\PROJECTS\W06D1_GRAPHPHYS (3, 10 LIGHTS)\W06D1_GRAPHPHYS\CSPHERE.CPP
D:\GAME DEVELOPMENT AND ADVANCED PROGRAMMING\PROJECTS\W06D1_GRAPHPHYS (3, 10 LIGHTS)\W06D1_GRAPHPHYS\DEBUG\VC110.PDB
^D:\GAME DEVELOPMENT AND ADVANCED PROGRAMMING\PROJECTS\W06D1_GRAPHPHYS (3, 10 LIGHTS)\W06D1_GRAPHPHYS\CBUNNY.CPP|D:\GAME DEVELOPMENT AND ADVANCED PROGRAMMING\PROJECTS\W06D1_GRAPHPHYS (3, 10 LIGHTS)\W06D1_GRAPHPHYS\CCAMERA.CPP|D:\GAME DEVELOPMENT AND ADVANCED PROGRAMMING\PROJECTS\W06D1_GRAPHPHYS (3, 10 LIGHTS)\W06D1_GRAPHPHYS\CFACTORYMEDIATOR.CPP|D:\GAME DEVELOPMENT AND ADVANCED PROGRAMMING\PROJECTS\W06D1_GRAPHPHYS (3, 10 LIGHTS)\W06D1_GRAPHPHYS\CGAMEOBJECT.CPP|D:\GAME DEVELOPMENT AND ADVANCED PROGRAMMING\PROJECTS\W06D1_GRAPHPHYS (3, 10 LIGHTS)\W06D1_GRAPHPHYS\CMODELLOADERMANAGER.CPP|D:\GAME DEVELOPMENT AND ADVANCED PROGRAMMING\PROJECTS\W06D1_GRAPHPHYS (3, 10 LIGHTS)\W06D1_GRAPHPHYS\CNINJATEAPOT.CPP|D:\GAME DEVELOPMENT AND ADVANCED PROGRAMMING\PROJECTS\W06D1_GRAPHPHYS (3, 10 LIGHTS)\W06D1_GRAPHPHYS\CPLYFILE5NT.CPP|D:\GAME DEVELOPMENT AND ADVANCED PROGRAMMING\PROJECTS\W06D1_GRAPHPHYS (3, 10 LIGHTS)\W06D1_GRAPHPHYS\CSPHERE.CPP|D:\GAME DEVELOPMENT AND ADVANCED PROGRAMMING\PROJECTS\W06D1_GRAPHPHYS (3, 10 LIGHTS)\W06D1_GRAPHPHYS\CVECTOR3F.CPP|D:\GAME DEVELOPMENT AND ADVANCED PROGRAMMING\PROJECTS\W06D1_GRAPHPHYS (3, 10 LIGHTS)\W06D1_GRAPHPHYS\GLOBAL.CPP|D:\GAME DEVELOPMENT AND ADVANCED PROGRAMMING\PROJECTS\W06D1_GRAPHPHYS (3, 10 LIGHTS)\W06D1_GRAPHPHYS\GLUTCLOSE_CALLBACK.CPP|D:\GAME DEVELOPMENT AND ADVANCED PROGRAMMING\PROJECTS\W06D1_GRAPHPHYS (3, 10 LIGHTS)\W06D1_GRAPHPHYS\GLUTDISPLAY_CALLBACK.CPP|D:\GAME DEVELOPMENT AND ADVANCED PROGRAMMING\PROJECTS\W06D1_GRAPHPHYS (3, 10 LIGHTS)\W06D1_GRAPHPHYS\GLUTIDLE_CALLBACK.CPP|D:\GAME DEVELOPMENT AND ADVANCED PROGRAMMING\PROJECTS\W06D1_GRAPHPHYS (3, 10 LIGHTS)\W06D1_GRAPHPHYS\GLUTKEYBOARDSPECIAL_CALLBACKS.CPP|D:\GAME DEVELOPMENT AND ADVANCED PROGRAMMING\PROJECTS\W06D1_GRAPHPHYS (3, 10 LIGHTS)\W06D1_GRAPHPHYS\GLUTRESHAPE_CALLBACK.CPP|D:\GAME DEVELOPMENT AND ADVANCED PROGRAMMING\PROJECTS\W06D1_GRAPHPHYS (3, 10 LIGHTS)\W06D1_GRAPHPHYS\OPENGL_INITIALIZE.CPP|D:\GAME DEVELOPMENT AND ADVANCED PROGRAMMING\PROJECTS\W06D1_GRAPHPHYS (3, 10 LIGHTS)\W06D1_GRAPHPHYS\PHYSICS.CPP|D:\GAME DEVELOPMENT AND ADVANCED PROGRAMMING\PROJECTS\W06D1_GRAPHPHYS (3, 10 LIGHTS)\W06D1_GRAPHPHYS\PRINTTHEWHATSTHISPROGRAMABOUTBLURB.CPP|D:\GAME DEVELOPMENT AND ADVANCED PROGRAMMING\PROJECTS\W06D1_GRAPHPHYS (3, 10 LIGHTS)\W06D1_GRAPHPHYS\SHADERUNIFORMVARIABLES.CPP|D:\GAME DEVELOPMENT AND ADVANCED PROGRAMMING\PROJECTS\W06D1_GRAPHPHYS (3, 10 LIGHTS)\W06D1_GRAPHPHYS\SUPERBASIC_GLEW_FREEGLUT.CPP
D:\GAME DEVELOPMENT AND ADVANCED PROGRAMMING\PROJECTS\W06D1_GRAPHPHYS (3, 10 LIGHTS)\W06D1_GRAPHPHYS\DEBUG\CSPHERE.OBJ
D:\GAME DEVELOPMENT AND ADVANCED PROGRAMMING\PROJECTS\W06D1_GRAPHPHYS (3, 10 LIGHTS)\W06D1_GRAPHPHYS\DEBUG\CFACTORYMEDIATOR.OBJ
^D:\GAME DEVELOPMENT AND ADVANCED PROGRAMMING\PROJECTS\W06D1_GRAPHPHYS (3, 10 LIGHTS)\W06D1_GRAPHPHYS\CFACTORYMEDIATOR.CPP|D:\GAME DEVELOPMENT AND ADVANCED PROGRAMMING\PROJECTS\W06D1_GRAPHPHYS (3, 10 LIGHTS)\W06D1_GRAPHPHYS\CMODELLOADERMANAGER.CPP|D:\GAME DEVELOPMENT AND ADVANCED PROGRAMMING\PROJECTS\W06D1_GRAPHPHYS (3, 10 LIGHTS)\W06D1_GRAPHPHYS\CSPHERE.CPP|D:\GAME DEVELOPMENT AND ADVANCED PROGRAMMING\PROJECTS\W06D1_GRAPHPHYS (3, 10 LIGHTS)\W06D1_GRAPHPHYS\GLOBAL.CPP|D:\GAME DEVELOPMENT AND ADVANCED PROGRAMMING\PROJECTS\W06D1_GRAPHPHYS (3, 10 LIGHTS)\W06D1_GRAPHPHYS\GLUTCLOSE_CALLBACK.CPP|D:\GAME DEVELOPMENT AND ADVANCED PROGRAMMING\PROJECTS\W06D1_GRAPHPHYS (3, 10 LIGHTS)\W06D1_GRAPHPHYS\GLUTDISPLAY_CALLBACK.CPP|D:\GAME DEVELOPMENT AND ADVANCED PROGRAMMING\PROJECTS\W06D1_GRAPHPHYS (3, 10 LIGHTS)\W06D1_GRAPHPHYS\GLUTIDLE_CALLBACK.CPP|D:\GAME DEVELOPMENT AND ADVANCED PROGRAMMING\PROJECTS\W06D1_GRAPHPHYS (3, 10 LIGHTS)\W06D1_GRAPHPHYS\GLUTKEYBOARDSPECIAL_CALLBACKS.CPP|D:\GAME DEVELOPMENT AND ADVANCED PROGRAMMING\PROJECTS\W06D1_GRAPHPHYS (3, 10 LIGHTS)\W06D1_GRAPHPHYS\GLUTRESHAPE_CALLBACK.CPP|D:\GAME DEVELOPMENT AND ADVANCED PROGRAMMING\PROJECTS\W06D1_GRAPHPHYS (3, 10 LIGHTS)\W06D1_GRAPHPHYS\OPENGL_INITIALIZE.CPP|D:\GAME DEVELOPMENT AND ADVANCED PROGRAMMING\PROJECTS\W06D1_GRAPHPHYS (3, 10 LIGHTS)\W06D1_GRAPHPHYS\PRINTTHEWHATSTHISPROGRAMABOUTBLURB.CPP|D:\GAME DEVELOPMENT AND ADVANCED PROGRAMMING\PROJECTS\W06D1_GRAPHPHYS (3, 10 LIGHTS)\W06D1_GRAPHPHYS\SHADERUNIFORMVARIABLES.CPP|D:\GAME DEVELOPMENT AND ADVANCED PROGRAMMING\PROJECTS\W06D1_GRAPHPHYS (3, 10 LIGHTS)\W06D1_GRAPHPHYS\SUPERBASIC_GLEW_FREEGLUT.CPP
D:\GAME DEVELOPMENT AND ADVANCED PROGRAMMING\PROJECTS\W06D1_GRAPHPHYS (3, 10 LIGHTS)\W06D1_GRAPHPHYS\DEBUG\CFACTORYMEDIATOR.OBJ
D:\GAME DEVELOPMENT AND ADVANCED PROGRAMMING\PROJECTS\W06D1_GRAPHPHYS (3, 10 LIGHTS)\W06D1_GRAPHPHYS\DEBUG\SUPERBASIC_GLEW_FREEGLUT.OBJ
D:\GAME DEVELOPMENT AND ADVANCED PROGRAMMING\PROJECTS\W06D1_GRAPHPHYS (3, 10 LIGHTS)\W06D1_GRAPHPHYS\DEBUG\GLUTIDLE_CALLBACK.OBJ
D:\GAME DEVELOPMENT AND ADVANCED PROGRAMMING\PROJECTS\W06D1_GRAPHPHYS (3, 10 LIGHTS)\W06D1_GRAPHPHYS\DEBUG\CSPHERE.OBJ
^D:\GAME DEVELOPMENT AND ADVANCED PROGRAMMING\PROJECTS\W06D1_GRAPHPHYS (3, 10 LIGHTS)\W06D1_GRAPHPHYS\CBUNNY.CPP|D:\GAME DEVELOPMENT AND ADVANCED PROGRAMMING\PROJECTS\W06D1_GRAPHPHYS (3, 10 LIGHTS)\W06D1_GRAPHPHYS\CFACTORYMEDIATOR.CPP|D:\GAME DEVELOPMENT AND ADVANCED PROGRAMMING\PROJECTS\W06D1_GRAPHPHYS (3, 10 LIGHTS)\W06D1_GRAPHPHYS\CGAMEOBJECT.CPP|D:\GAME DEVELOPMENT AND ADVANCED PROGRAMMING\PROJECTS\W06D1_GRAPHPHYS (3, 10 LIGHTS)\W06D1_GRAPHPHYS\CMODELLOADERMANAGER.CPP|D:\GAME DEVELOPMENT AND ADVANCED PROGRAMMING\PROJECTS\W06D1_GRAPHPHYS (3, 10 LIGHTS)\W06D1_GRAPHPHYS\CNINJATEAPOT.CPP|D:\GAME DEVELOPMENT AND ADVANCED PROGRAMMING\PROJECTS\W06D1_GRAPHPHYS (3, 10 LIGHTS)\W06D1_GRAPHPHYS\CPLYFILE5NT.CPP|D:\GAME DEVELOPMENT AND ADVANCED PROGRAMMING\PROJECTS\W06D1_GRAPHPHYS (3, 10 LIGHTS)\W06D1_GRAPHPHYS\CSPHERE.CPP|D:\GAME DEVELOPMENT AND ADVANCED PROGRAMMING\PROJECTS\W06D1_GRAPHPHYS (3, 10 LIGHTS)\W06D1_GRAPHPHYS\GLOBAL.CPP|D:\GAME DEVELOPMENT AND ADVANCED PROGRAMMING\PROJECTS\W06D1_GRAPHPHYS (3, 10 LIGHTS)\W06D1_GRAPHPHYS\GLUTCLOSE_CALLBACK.CPP|D:\GAME DEVELOPMENT AND ADVANCED PROGRAMMING\PROJECTS\W06D1_GRAPHPHYS (3, 10 LIGHTS)\W06D1_GRAPHPHYS\GLUTDISPLAY_CALLBACK.CPP|D:\GAME DEVELOPMENT AND ADVANCED PROGRAMMING\PROJECTS\W06D1_GRAPHPHYS (3, 10 LIGHTS)\W06D1_GRAPHPHYS\GLUTIDLE_CALLBACK.CPP|D:\GAME DEVELOPMENT AND ADVANCED PROGRAMMING\PROJECTS\W06D1_GRAPHPHYS (3, 10 LIGHTS)\W06D1_GRAPHPHYS\GLUTKEYBOARDSPECIAL_CALLBACKS.CPP|D:\GAME DEVELOPMENT AND ADVANCED PROGRAMMING\PROJECTS\W06D1_GRAPHPHYS (3, 10 LIGHTS)\W06D1_GRAPHPHYS\GLUTRESHAPE_CALLBACK.CPP|D:\GAME DEVELOPMENT AND ADVANCED PROGRAMMING\PROJECTS\W06D1_GRAPHPHYS (3, 10 LIGHTS)\W06D1_GRAPHPHYS\OPENGL_INITIALIZE.CPP|D:\GAME DEVELOPMENT AND ADVANCED PROGRAMMING\PROJECTS\W06D1_GRAPHPHYS (3, 10 LIGHTS)\W06D1_GRAPHPHYS\PRINTTHEWHATSTHISPROGRAMABOUTBLURB.CPP|D:\GAME DEVELOPMENT AND ADVANCED PROGRAMMING\PROJECTS\W06D1_GRAPHPHYS (3, 10 LIGHTS)\W06D1_GRAPHPHYS\SHADERUNIFORMVARIABLES.CPP|D:\GAME DEVELOPMENT AND ADVANCED PROGRAMMING\PROJECTS\W06D1_GRAPHPHYS (3, 10 LIGHTS)\W06D1_GRAPHPHYS\SUPERBASIC_GLEW_FREEGLUT.CPP
D:\GAME DEVELOPMENT AND ADVANCED PROGRAMMING\PROJECTS\W06D1_GRAPHPHYS (3, 10 LIGHTS)\W06D1_GRAPHPHYS\DEBUG\CFACTORYMEDIATOR.OBJ
D:\GAME DEVELOPMENT AND ADVANCED PROGRAMMING\PROJECTS\W06D1_GRAPHPHYS (3, 10 LIGHTS)\W06D1_GRAPHPHYS\DEBUG\CGAMEOBJECT.OBJ
D:\GAME DEVELOPMENT AND ADVANCED PROGRAMMING\PROJECTS\W06D1_GRAPHPHYS (3, 10 LIGHTS)\W06D1_GRAPHPHYS\DEBUG\CPLYFILE5NT.OBJ
D:\GAME DEVELOPMENT AND ADVANCED PROGRAMMING\PROJECTS\W06D1_GRAPHPHYS (3, 10 LIGHTS)\W06D1_GRAPHPHYS\DEBUG\GLUTIDLE_CALLBACK.OBJ
D:\GAME DEVELOPMENT AND ADVANCED PROGRAMMING\PROJECTS\W06D1_GRAPHPHYS (3, 10 LIGHTS)\W06D1_GRAPHPHYS\DEBUG\CBUNNY.OBJ
D:\GAME DEVELOPMENT AND ADVANCED PROGRAMMING\PROJECTS\W06D1_GRAPHPHYS (3, 10 LIGHTS)\W06D1_GRAPHPHYS\DEBUG\CNINJATEAPOT.OBJ
D:\GAME DEVELOPMENT AND ADVANCED PROGRAMMING\PROJECTS\W06D1_GRAPHPHYS (3, 10 LIGHTS)\W06D1_GRAPHPHYS\DEBUG\CSPHERE.OBJ
D:\GAME DEVELOPMENT AND ADVANCED PROGRAMMING\PROJECTS\W06D1_GRAPHPHYS (3, 10 LIGHTS)\W06D1_GRAPHPHYS\DEBUG\OPENGL_INITIALIZE.OBJ
D:\GAME DEVELOPMENT AND ADVANCED PROGRAMMING\PROJECTS\W06D1_GRAPHPHYS (3, 10 LIGHTS)\W06D1_GRAPHPHYS\DEBUG\SHADERUNIFORMVARIABLES.OBJ
D:\GAME DEVELOPMENT AND ADVANCED PROGRAMMING\PROJECTS\W06D1_GRAPHPHYS (3, 10 LIGHTS)\W06D1_GRAPHPHYS\DEBUG\SUPERBASIC_GLEW_FREEGLUT.OBJ
D:\GAME DEVELOPMENT AND ADVANCED PROGRAMMING\PROJECTS\W06D1_GRAPHPHYS (3, 10 LIGHTS)\W06D1_GRAPHPHYS\DEBUG\GLOBAL.OBJ
D:\GAME DEVELOPMENT AND ADVANCED PROGRAMMING\PROJECTS\W06D1_GRAPHPHYS (3, 10 LIGHTS)\W06D1_GRAPHPHYS\DEBUG\GLUTCLOSE_CALLBACK.OBJ
D:\GAME DEVELOPMENT AND ADVANCED PROGRAMMING\PROJECTS\W06D1_GRAPHPHYS (3, 10 LIGHTS)\W06D1_GRAPHPHYS\DEBUG\GLUTDISPLAY_CALLBACK.OBJ
D:\GAME DEVELOPMENT AND ADVANCED PROGRAMMING\PROJECTS\W06D1_GRAPHPHYS (3, 10 LIGHTS)\W06D1_GRAPHPHYS\DEBUG\GLUTKEYBOARDSPECIAL_CALLBACKS.OBJ
D:\GAME DEVELOPMENT AND ADVANCED PROGRAMMING\PROJECTS\W06D1_GRAPHPHYS (3, 10 LIGHTS)\W06D1_GRAPHPHYS\DEBUG\GLUTRESHAPE_CALLBACK.OBJ
D:\GAME DEVELOPMENT AND ADVANCED PROGRAMMING\PROJECTS\W06D1_GRAPHPHYS (3, 10 LIGHTS)\W06D1_GRAPHPHYS\DEBUG\PRINTTHEWHATSTHISPROGRAMABOUTBLURB.OBJ
^D:\GAME DEVELOPMENT AND ADVANCED PROGRAMMING\PROJECTS\W06D1_GRAPHPHYS (3, 10 LIGHTS)\W06D1_GRAPHPHYS\CFACTORYMEDIATOR.CPP|D:\GAME DEVELOPMENT AND ADVANCED PROGRAMMING\PROJECTS\W06D1_GRAPHPHYS (3, 10 LIGHTS)\W06D1_GRAPHPHYS\CMODELLOADERMANAGER.CPP|D:\GAME DEVELOPMENT AND ADVANCED PROGRAMMING\PROJECTS\W06D1_GRAPHPHYS (3, 10 LIGHTS)\W06D1_GRAPHPHYS\GLOBAL.CPP|D:\GAME DEVELOPMENT AND ADVANCED PROGRAMMING\PROJECTS\W06D1_GRAPHPHYS (3, 10 LIGHTS)\W06D1_GRAPHPHYS\GLUTCLOSE_CALLBACK.CPP|D:\GAME DEVELOPMENT AND ADVANCED PROGRAMMING\PROJECTS\W06D1_GRAPHPHYS (3, 10 LIGHTS)\W06D1_GRAPHPHYS\GLUTDISPLAY_CALLBACK.CPP|D:\GAME DEVELOPMENT AND ADVANCED PROGRAMMING\PROJECTS\W06D1_GRAPHPHYS (3, 10 LIGHTS)\W06D1_GRAPHPHYS\GLUTIDLE_CALLBACK.CPP|D:\GAME DEVELOPMENT AND ADVANCED PROGRAMMING\PROJECTS\W06D1_GRAPHPHYS (3, 10 LIGHTS)\W06D1_GRAPHPHYS\GLUTKEYBOARDSPECIAL_CALLBACKS.CPP|D:\GAME DEVELOPMENT AND ADVANCED PROGRAMMING\PROJECTS\W06D1_GRAPHPHYS (3, 10 LIGHTS)\W06D1_GRAPHPHYS\GLUTRESHAPE_CALLBACK.CPP|D:\GAME DEVELOPMENT AND ADVANCED PROGRAMMING\PROJECTS\W06D1_GRAPHPHYS (3, 10 LIGHTS)\W06D1_GRAPHPHYS\OPENGL_INITIALIZE.CPP|D:\GAME DEVELOPMENT AND ADVANCED PROGRAMMING\PROJECTS\W06D1_GRAPHPHYS (3, 10 LIGHTS)\W06D1_GRAPHPHYS\PRINTTHEWHATSTHISPROGRAMABOUTBLURB.CPP|D:\GAME DEVELOPMENT AND ADVANCED PROGRAMMING\PROJECTS\W06D1_GRAPHPHYS (3, 10 LIGHTS)\W06D1_GRAPHPHYS\SHADERUNIFORMVARIABLES.CPP|D:\GAME DEVELOPMENT AND ADVANCED PROGRAMMING\PROJECTS\W06D1_GRAPHPHYS (3, 10 LIGHTS)\W06D1_GRAPHPHYS\SUPERBASIC_GLEW_FREEGLUT.CPP
D:\GAME DEVELOPMENT AND ADVANCED PROGRAMMING\PROJECTS\W06D1_GRAPHPHYS (3, 10 LIGHTS)\W06D1_GRAPHPHYS\DEBUG\CMODELLOADERMANAGER.OBJ
D:\GAME DEVELOPMENT AND ADVANCED PROGRAMMING\PROJECTS\W06D1_GRAPHPHYS (3, 10 LIGHTS)\W06D1_GRAPHPHYS\DEBUG\OPENGL_INITIALIZE.OBJ
D:\GAME DEVELOPMENT AND ADVANCED PROGRAMMING\PROJECTS\W06D1_GRAPHPHYS (3, 10 LIGHTS)\W06D1_GRAPHPHYS\DEBUG\SHADERUNIFORMVARIABLES.OBJ
D:\GAME DEVELOPMENT AND ADVANCED PROGRAMMING\PROJECTS\W06D1_GRAPHPHYS (3, 10 LIGHTS)\W06D1_GRAPHPHYS\DEBUG\GLOBAL.OBJ
D:\GAME DEVELOPMENT AND ADVANCED PROGRAMMING\PROJECTS\W06D1_GRAPHPHYS (3, 10 LIGHTS)\W06D1_GRAPHPHYS\DEBUG\GLUTCLOSE_CALLBACK.OBJ
D:\GAME DEVELOPMENT AND ADVANCED PROGRAMMING\PROJECTS\W06D1_GRAPHPHYS (3, 10 LIGHTS)\W06D1_GRAPHPHYS\DEBUG\GLUTDISPLAY_CALLBACK.OBJ
D:\GAME DEVELOPMENT AND ADVANCED PROGRAMMING\PROJECTS\W06D1_GRAPHPHYS (3, 10 LIGHTS)\W06D1_GRAPHPHYS\DEBUG\GLUTIDLE_CALLBACK.OBJ
D:\GAME DEVELOPMENT AND ADVANCED PROGRAMMING\PROJECTS\W06D1_GRAPHPHYS (3, 10 LIGHTS)\W06D1_GRAPHPHYS\DEBUG\GLUTKEYBOARDSPECIAL_CALLBACKS.OBJ
D:\GAME DEVELOPMENT AND ADVANCED PROGRAMMING\PROJECTS\W06D1_GRAPHPHYS (3, 10 LIGHTS)\W06D1_GRAPHPHYS\DEBUG\GLUTRESHAPE_CALLBACK.OBJ
D:\GAME DEVELOPMENT AND ADVANCED PROGRAMMING\PROJECTS\W06D1_GRAPHPHYS (3, 10 LIGHTS)\W06D1_GRAPHPHYS\DEBUG\PRINTTHEWHATSTHISPROGRAMABOUTBLURB.OBJ
^D:\GAME DEVELOPMENT AND ADVANCED PROGRAMMING\PROJECTS\W06D1_GRAPHPHYS (3, 10 LIGHTS)\W06D1_GRAPHPHYS\GLUTIDLE_CALLBACK.CPP|D:\GAME DEVELOPMENT AND ADVANCED PROGRAMMING\PROJECTS\W06D1_GRAPHPHYS (3, 10 LIGHTS)\W06D1_GRAPHPHYS\PHYSICS.CPP
D:\GAME DEVELOPMENT AND ADVANCED PROGRAMMING\PROJECTS\W06D1_GRAPHPHYS (3, 10 LIGHTS)\W06D1_GRAPHPHYS\DEBUG\PHYSICS.OBJ
D:\GAME DEVELOPMENT AND ADVANCED PROGRAMMING\PROJECTS\W06D1_GRAPHPHYS (3, 10 LIGHTS)\W06D1_GRAPHPHYS\DEBUG\GLUTIDLE_CALLBACK.OBJ
^D:\GAME DEVELOPMENT AND ADVANCED PROGRAMMING\PROJECTS\W06D1_GRAPHPHYS (3, 10 LIGHTS)\W06D1_GRAPHPHYS\CBUNNY.CPP|D:\GAME DEVELOPMENT AND ADVANCED PROGRAMMING\PROJECTS\W06D1_GRAPHPHYS (3, 10 LIGHTS)\W06D1_GRAPHPHYS\CFACTORYMEDIATOR.CPP|D:\GAME DEVELOPMENT AND ADVANCED PROGRAMMING\PROJECTS\W06D1_GRAPHPHYS (3, 10 LIGHTS)\W06D1_GRAPHPHYS\CGAMEOBJECT.CPP|D:\GAME DEVELOPMENT AND ADVANCED PROGRAMMING\PROJECTS\W06D1_GRAPHPHYS (3, 10 LIGHTS)\W06D1_GRAPHPHYS\CMODELLOADERMANAGER.CPP|D:\GAME DEVELOPMENT AND ADVANCED PROGRAMMING\PROJECTS\W06D1_GRAPHPHYS (3, 10 LIGHTS)\W06D1_GRAPHPHYS\CNINJATEAPOT.CPP|D:\GAME DEVELOPMENT AND ADVANCED PROGRAMMING\PROJECTS\W06D1_GRAPHPHYS (3, 10 LIGHTS)\W06D1_GRAPHPHYS\CSPHERE.CPP|D:\GAME DEVELOPMENT AND ADVANCED PROGRAMMING\PROJECTS\W06D1_GRAPHPHYS (3, 10 LIGHTS)\W06D1_GRAPHPHYS\GLOBAL.CPP|D:\GAME DEVELOPMENT AND ADVANCED PROGRAMMING\PROJECTS\W06D1_GRAPHPHYS (3, 10 LIGHTS)\W06D1_GRAPHPHYS\GLUTCLOSE_CALLBACK.CPP|D:\GAME DEVELOPMENT AND ADVANCED PROGRAMMING\PROJECTS\W06D1_GRAPHPHYS (3, 10 LIGHTS)\W06D1_GRAPHPHYS\GLUTDISPLAY_CALLBACK.CPP|D:\GAME DEVELOPMENT AND ADVANCED PROGRAMMING\PROJECTS\W06D1_GRAPHPHYS (3, 10 LIGHTS)\W06D1_GRAPHPHYS\GLUTIDLE_CALLBACK.CPP|D:\GAME DEVELOPMENT AND ADVANCED PROGRAMMING\PROJECTS\W06D1_GRAPHPHYS (3, 10 LIGHTS)\W06D1_GRAPHPHYS\GLUTKEYBOARDSPECIAL_CALLBACKS.CPP|D:\GAME DEVELOPMENT AND ADVANCED PROGRAMMING\PROJECTS\W06D1_GRAPHPHYS (3, 10 LIGHTS)\W06D1_GRAPHPHYS\GLUTRESHAPE_CALLBACK.CPP|D:\GAME DEVELOPMENT AND ADVANCED PROGRAMMING\PROJECTS\W06D1_GRAPHPHYS (3, 10 LIGHTS)\W06D1_GRAPHPHYS\OPENGL_INITIALIZE.CPP|D:\GAME DEVELOPMENT AND ADVANCED PROGRAMMING\PROJECTS\W06D1_GRAPHPHYS (3, 10 LIGHTS)\W06D1_GRAPHPHYS\PRINTTHEWHATSTHISPROGRAMABOUTBLURB.CPP|D:\GAME DEVELOPMENT AND ADVANCED PROGRAMMING\PROJECTS\W06D1_GRAPHPHYS (3, 10 LIGHTS)\W06D1_GRAPHPHYS\SHADERUNIFORMVARIABLES.CPP|D:\GAME DEVELOPMENT AND ADVANCED PROGRAMMING\PROJECTS\W06D1_GRAPHPHYS (3, 10 LIGHTS)\W06D1_GRAPHPHYS\SUPERBASIC_GLEW_FREEGLUT.CPP
D:\GAME DEVELOPMENT AND ADVANCED PROGRAMMING\PROJECTS\W06D1_GRAPHPHYS (3, 10 LIGHTS)\W06D1_GRAPHPHYS\DEBUG\CFACTORYMEDIATOR.OBJ
D:\GAME DEVELOPMENT AND ADVANCED PROGRAMMING\PROJECTS\W06D1_GRAPHPHYS (3, 10 LIGHTS)\W06D1_GRAPHPHYS\DEBUG\CGAMEOBJECT.OBJ
D:\GAME DEVELOPMENT AND ADVANCED PROGRAMMING\PROJECTS\W06D1_GRAPHPHYS (3, 10 LIGHTS)\W06D1_GRAPHPHYS\DEBUG\GLUTIDLE_CALLBACK.OBJ
D:\GAME DEVELOPMENT AND ADVANCED PROGRAMMING\PROJECTS\W06D1_GRAPHPHYS (3, 10 LIGHTS)\W06D1_GRAPHPHYS\DEBUG\SUPERBASIC_GLEW_FREEGLUT.OBJ
D:\GAME DEVELOPMENT AND ADVANCED PROGRAMMING\PROJECTS\W06D1_GRAPHPHYS (3, 10 LIGHTS)\W06D1_GRAPHPHYS\DEBUG\CBUNNY.OBJ
D:\GAME DEVELOPMENT AND ADVANCED PROGRAMMING\PROJECTS\W06D1_GRAPHPHYS (3, 10 LIGHTS)\W06D1_GRAPHPHYS\DEBUG\CNINJATEAPOT.OBJ
D:\GAME DEVELOPMENT AND ADVANCED PROGRAMMING\PROJECTS\W06D1_GRAPHPHYS (3, 10 LIGHTS)\W06D1_GRAPHPHYS\DEBUG\CSPHERE.OBJ
^D:\GAME DEVELOPMENT AND ADVANCED PROGRAMMING\PROJECTS\W06D1_GRAPHPHYS (3, 10 LIGHTS)\W06D1_GRAPHPHYS\CGAMEOBJECT.CPP|D:\GAME DEVELOPMENT AND ADVANCED PROGRAMMING\PROJECTS\W06D1_GRAPHPHYS (3, 10 LIGHTS)\W06D1_GRAPHPHYS\SUPERBASIC_GLEW_FREEGLUT.CPP
D:\GAME DEVELOPMENT AND ADVANCED PROGRAMMING\PROJECTS\W06D1_GRAPHPHYS (3, 10 LIGHTS)\W06D1_GRAPHPHYS\DEBUG\CGAMEOBJECT.OBJ
D:\GAME DEVELOPMENT AND ADVANCED PROGRAMMING\PROJECTS\W06D1_GRAPHPHYS (3, 10 LIGHTS)\W06D1_GRAPHPHYS\DEBUG\SUPERBASIC_GLEW_FREEGLUT.OBJ
^D:\GAME DEVELOPMENT AND ADVANCED PROGRAMMING\PROJECTS\W06D1_GRAPHPHYS (3, 10 LIGHTS)\W06D1_GRAPHPHYS\CMODELLOADERMANAGER.CPP|D:\GAME DEVELOPMENT AND ADVANCED PROGRAMMING\PROJECTS\W06D1_GRAPHPHYS (3, 10 LIGHTS)\W06D1_GRAPHPHYS\GLOBAL.CPP|D:\GAME DEVELOPMENT AND ADVANCED PROGRAMMING\PROJECTS\W06D1_GRAPHPHYS (3, 10 LIGHTS)\W06D1_GRAPHPHYS\GLUTCLOSE_CALLBACK.CPP|D:\GAME DEVELOPMENT AND ADVANCED PROGRAMMING\PROJECTS\W06D1_GRAPHPHYS (3, 10 LIGHTS)\W06D1_GRAPHPHYS\GLUTDISPLAY_CALLBACK.CPP|D:\GAME DEVELOPMENT AND ADVANCED PROGRAMMING\PROJECTS\W06D1_GRAPHPHYS (3, 10 LIGHTS)\W06D1_GRAPHPHYS\GLUTIDLE_CALLBACK.CPP|D:\GAME DEVELOPMENT AND ADVANCED PROGRAMMING\PROJECTS\W06D1_GRAPHPHYS (3, 10 LIGHTS)\W06D1_GRAPHPHYS\GLUTKEYBOARDSPECIAL_CALLBACKS.CPP|D:\GAME DEVELOPMENT AND ADVANCED PROGRAMMING\PROJECTS\W06D1_GRAPHPHYS (3, 10 LIGHTS)\W06D1_GRAPHPHYS\GLUTRESHAPE_CALLBACK.CPP|D:\GAME DEVELOPMENT AND ADVANCED PROGRAMMING\PROJECTS\W06D1_GRAPHPHYS (3, 10 LIGHTS)\W06D1_GRAPHPHYS\OPENGL_INITIALIZE.CPP|D:\GAME DEVELOPMENT AND ADVANCED PROGRAMMING\PROJECTS\W06D1_GRAPHPHYS (3, 10 LIGHTS)\W06D1_GRAPHPHYS\PRINTTHEWHATSTHISPROGRAMABOUTBLURB.CPP|D:\GAME DEVELOPMENT AND ADVANCED PROGRAMMING\PROJECTS\W06D1_GRAPHPHYS (3, 10 LIGHTS)\W06D1_GRAPHPHYS\SHADERUNIFORMVARIABLES.CPP|D:\GAME DEVELOPMENT AND ADVANCED PROGRAMMING\PROJECTS\W06D1_GRAPHPHYS (3, 10 LIGHTS)\W06D1_GRAPHPHYS\SUPERBASIC_GLEW_FREEGLUT.CPP
D:\GAME DEVELOPMENT AND ADVANCED PROGRAMMING\PROJECTS\W06D1_GRAPHPHYS (3, 10 LIGHTS)\W06D1_GRAPHPHYS\DEBUG\GLOBAL.OBJ
D:\GAME DEVELOPMENT AND ADVANCED PROGRAMMING\PROJECTS\W06D1_GRAPHPHYS (3, 10 LIGHTS)\W06D1_GRAPHPHYS\DEBUG\GLUTDISPLAY_CALLBACK.OBJ
D:\GAME DEVELOPMENT AND ADVANCED PROGRAMMING\PROJECTS\W06D1_GRAPHPHYS (3, 10 LIGHTS)\W06D1_GRAPHPHYS\DEBUG\GLUTKEYBOARDSPECIAL_CALLBACKS.OBJ
D:\GAME DEVELOPMENT AND ADVANCED PROGRAMMING\PROJECTS\W06D1_GRAPHPHYS (3, 10 LIGHTS)\W06D1_GRAPHPHYS\DEBUG\CMODELLOADERMANAGER.OBJ
D:\GAME DEVELOPMENT AND ADVANCED PROGRAMMING\PROJECTS\W06D1_GRAPHPHYS (3, 10 LIGHTS)\W06D1_GRAPHPHYS\DEBUG\OPENGL_INITIALIZE.OBJ
D:\GAME DEVELOPMENT AND ADVANCED PROGRAMMING\PROJECTS\W06D1_GRAPHPHYS (3, 10 LIGHTS)\W06D1_GRAPHPHYS\DEBUG\SHADERUNIFORMVARIABLES.OBJ
D:\GAME DEVELOPMENT AND ADVANCED PROGRAMMING\PROJECTS\W06D1_GRAPHPHYS (3, 10 LIGHTS)\W06D1_GRAPHPHYS\DEBUG\SUPERBASIC_GLEW_FREEGLUT.OBJ
D:\GAME DEVELOPMENT AND ADVANCED PROGRAMMING\PROJECTS\W06D1_GRAPHPHYS (3, 10 LIGHTS)\W06D1_GRAPHPHYS\DEBUG\GLUTCLOSE_CALLBACK.OBJ
D:\GAME DEVELOPMENT AND ADVANCED PROGRAMMING\PROJECTS\W06D1_GRAPHPHYS (3, 10 LIGHTS)\W06D1_GRAPHPHYS\DEBUG\GLUTIDLE_CALLBACK.OBJ
D:\GAME DEVELOPMENT AND ADVANCED PROGRAMMING\PROJECTS\W06D1_GRAPHPHYS (3, 10 LIGHTS)\W06D1_GRAPHPHYS\DEBUG\GLUTRESHAPE_CALLBACK.OBJ
D:\GAME DEVELOPMENT AND ADVANCED PROGRAMMING\PROJECTS\W06D1_GRAPHPHYS (3, 10 LIGHTS)\W06D1_GRAPHPHYS\DEBUG\PRINTTHEWHATSTHISPROGRAMABOUTBLURB.OBJ
^D:\GAME DEVELOPMENT AND ADVANCED PROGRAMMING\PROJECTS\W06D1_GRAPHPHYS (3, 10 LIGHTS)\W06D1_GRAPHPHYS\GLUTIDLE_CALLBACK.CPP|D:\GAME DEVELOPMENT AND ADVANCED PROGRAMMING\PROJECTS\W06D1_GRAPHPHYS (3, 10 LIGHTS)\W06D1_GRAPHPHYS\SUPERBASIC_GLEW_FREEGLUT.CPP
D:\GAME DEVELOPMENT AND ADVANCED PROGRAMMING\PROJECTS\W06D1_GRAPHPHYS (3, 10 LIGHTS)\W06D1_GRAPHPHYS\DEBUG\SUPERBASIC_GLEW_FREEGLUT.OBJ
D:\GAME DEVELOPMENT AND ADVANCED PROGRAMMING\PROJECTS\W06D1_GRAPHPHYS (3, 10 LIGHTS)\W06D1_GRAPHPHYS\DEBUG\GLUTIDLE_CALLBACK.OBJ
^D:\GAME DEVELOPMENT AND ADVANCED PROGRAMMING\PROJECTS\W06D1_GRAPHPHYS (3, 10 LIGHTS)\W06D1_GRAPHPHYS\FILEDATALOADER.CPP|D:\GAME DEVELOPMENT AND ADVANCED PROGRAMMING\PROJECTS\W06D1_GRAPHPHYS (3, 10 LIGHTS)\W06D1_GRAPHPHYS\SUPERBASIC_GLEW_FREEGLUT.CPP
D:\GAME DEVELOPMENT AND ADVANCED PROGRAMMING\PROJECTS\W06D1_GRAPHPHYS (3, 10 LIGHTS)\W06D1_GRAPHPHYS\DEBUG\FILEDATALOADER.OBJ
D:\GAME DEVELOPMENT AND ADVANCED PROGRAMMING\PROJECTS\W06D1_GRAPHPHYS (3, 10 LIGHTS)\W06D1_GRAPHPHYS\DEBUG\SUPERBASIC_GLEW_FREEGLUT.OBJ
^D:\GAME DEVELOPMENT AND ADVANCED PROGRAMMING\PROJECTS\W06D1_GRAPHPHYS (3, 10 LIGHTS)\W06D1_GRAPHPHYS\FILEDATALOADER.CPP
D:\GAME DEVELOPMENT AND ADVANCED PROGRAMMING\PROJECTS\W06D1_GRAPHPHYS (3, 10 LIGHTS)\W06D1_GRAPHPHYS\DEBUG\VC110.PDB
D:\GAME DEVELOPMENT AND ADVANCED PROGRAMMING\PROJECTS\W06D1_GRAPHPHYS (3, 10 LIGHTS)\W06D1_GRAPHPHYS\DEBUG\FILEDATALOADER.OBJ
^D:\GAME DEVELOPMENT AND ADVANCED PROGRAMMING\PROJECTS\W06D1_GRAPHPHYS (3, 10 LIGHTS)\W06D1_GRAPHPHYS\COLLISIONTEST.CPP|D:\GAME DEVELOPMENT AND ADVANCED PROGRAMMING\PROJECTS\W06D1_GRAPHPHYS (3, 10 LIGHTS)\W06D1_GRAPHPHYS\FILEDATALOADER.CPP|D:\GAME DEVELOPMENT AND ADVANCED PROGRAMMING\PROJECTS\W06D1_GRAPHPHYS (3, 10 LIGHTS)\W06D1_GRAPHPHYS\GLUTIDLE_CALLBACK.CPP|D:\GAME DEVELOPMENT AND ADVANCED PROGRAMMING\PROJECTS\W06D1_GRAPHPHYS (3, 10 LIGHTS)\W06D1_GRAPHPHYS\GLUTKEYBOARDSPECIAL_CALLBACKS.CPP
D:\GAME DEVELOPMENT AND ADVANCED PROGRAMMING\PROJECTS\W06D1_GRAPHPHYS (3, 10 LIGHTS)\W06D1_GRAPHPHYS\DEBUG\FILEDATALOADER.OBJ
D:\GAME DEVELOPMENT AND ADVANCED PROGRAMMING\PROJECTS\W06D1_GRAPHPHYS (3, 10 LIGHTS)\W06D1_GRAPHPHYS\DEBUG\GLUTIDLE_CALLBACK.OBJ
D:\GAME DEVELOPMENT AND ADVANCED PROGRAMMING\PROJECTS\W06D1_GRAPHPHYS (3, 10 LIGHTS)\W06D1_GRAPHPHYS\DEBUG\GLUTKEYBOARDSPECIAL_CALLBACKS.OBJ
^D:\GAME DEVELOPMENT AND ADVANCED PROGRAMMING\PROJECTS\W06D1_GRAPHPHYS (3, 10 LIGHTS)\W06D1_GRAPHPHYS\COLLISIONTEST.CPP
D:\GAME DEVELOPMENT AND ADVANCED PROGRAMMING\PROJECTS\W06D1_GRAPHPHYS (3, 10 LIGHTS)\W06D1_GRAPHPHYS\DEBUG\VC110.PDB
D:\GAME DEVELOPMENT AND ADVANCED PROGRAMMING\PROJECTS\W06D1_GRAPHPHYS (3, 10 LIGHTS)\W06D1_GRAPHPHYS\DEBUG\COLLISIONTEST.OBJ
^D:\GAME DEVELOPMENT AND ADVANCED PROGRAMMING\PROJECTS\W06D1_GRAPHPHYS (3, 10 LIGHTS)\W06D1_GRAPHPHYS\COLLISIONTEST.CPP|D:\GAME DEVELOPMENT AND ADVANCED PROGRAMMING\PROJECTS\W06D1_GRAPHPHYS (3, 10 LIGHTS)\W06D1_GRAPHPHYS\GLUTIDLE_CALLBACK.CPP
D:\GAME DEVELOPMENT AND ADVANCED PROGRAMMING\PROJECTS\W06D1_GRAPHPHYS (3, 10 LIGHTS)\W06D1_GRAPHPHYS\DEBUG\COLLISIONTEST.OBJ
D:\GAME DEVELOPMENT AND ADVANCED PROGRAMMING\PROJECTS\W06D1_GRAPHPHYS (3, 10 LIGHTS)\W06D1_GRAPHPHYS\DEBUG\GLUTIDLE_CALLBACK.OBJ
^D:\GAME DEVELOPMENT AND ADVANCED PROGRAMMING\PROJECTS\W06D1_GRAPHPHYS (3, 10 LIGHTS)\W06D1_GRAPHPHYS\CMODELLOADERMANAGER.CPP|D:\GAME DEVELOPMENT AND ADVANCED PROGRAMMING\PROJECTS\W06D1_GRAPHPHYS (3, 10 LIGHTS)\W06D1_GRAPHPHYS\COLLISIONTEST.CPP|D:\GAME DEVELOPMENT AND ADVANCED PROGRAMMING\PROJECTS\W06D1_GRAPHPHYS (3, 10 LIGHTS)\W06D1_GRAPHPHYS\GLOBAL.CPP|D:\GAME DEVELOPMENT AND ADVANCED PROGRAMMING\PROJECTS\W06D1_GRAPHPHYS (3, 10 LIGHTS)\W06D1_GRAPHPHYS\GLUTCLOSE_CALLBACK.CPP|D:\GAME DEVELOPMENT AND ADVANCED PROGRAMMING\PROJECTS\W06D1_GRAPHPHYS (3, 10 LIGHTS)\W06D1_GRAPHPHYS\GLUTDISPLAY_CALLBACK.CPP|D:\GAME DEVELOPMENT AND ADVANCED PROGRAMMING\PROJECTS\W06D1_GRAPHPHYS (3, 10 LIGHTS)\W06D1_GRAPHPHYS\GLUTIDLE_CALLBACK.CPP|D:\GAME DEVELOPMENT AND ADVANCED PROGRAMMING\PROJECTS\W06D1_GRAPHPHYS (3, 10 LIGHTS)\W06D1_GRAPHPHYS\GLUTKEYBOARDSPECIAL_CALLBACKS.CPP|D:\GAME DEVELOPMENT AND ADVANCED PROGRAMMING\PROJECTS\W06D1_GRAPHPHYS (3, 10 LIGHTS)\W06D1_GRAPHPHYS\GLUTRESHAPE_CALLBACK.CPP|D:\GAME DEVELOPMENT AND ADVANCED PROGRAMMING\PROJECTS\W06D1_GRAPHPHYS (3, 10 LIGHTS)\W06D1_GRAPHPHYS\OPENGL_INITIALIZE.CPP|D:\GAME DEVELOPMENT AND ADVANCED PROGRAMMING\PROJECTS\W06D1_GRAPHPHYS (3, 10 LIGHTS)\W06D1_GRAPHPHYS\PRINTTHEWHATSTHISPROGRAMABOUTBLURB.CPP|D:\GAME DEVELOPMENT AND ADVANCED PROGRAMMING\PROJECTS\W06D1_GRAPHPHYS (3, 10 LIGHTS)\W06D1_GRAPHPHYS\SHADERUNIFORMVARIABLES.CPP|D:\GAME DEVELOPMENT AND ADVANCED PROGRAMMING\PROJECTS\W06D1_GRAPHPHYS (3, 10 LIGHTS)\W06D1_GRAPHPHYS\SUPERBASIC_GLEW_FREEGLUT.CPP
D:\GAME DEVELOPMENT AND ADVANCED PROGRAMMING\PROJECTS\W06D1_GRAPHPHYS (3, 10 LIGHTS)\W06D1_GRAPHPHYS\DEBUG\CMODELLOADERMANAGER.OBJ
D:\GAME DEVELOPMENT AND ADVANCED PROGRAMMING\PROJECTS\W06D1_GRAPHPHYS (3, 10 LIGHTS)\W06D1_GRAPHPHYS\DEBUG\OPENGL_INITIALIZE.OBJ
D:\GAME DEVELOPMENT AND ADVANCED PROGRAMMING\PROJECTS\W06D1_GRAPHPHYS (3, 10 LIGHTS)\W06D1_GRAPHPHYS\DEBUG\SHADERUNIFORMVARIABLES.OBJ
D:\GAME DEVELOPMENT AND ADVANCED PROGRAMMING\PROJECTS\W06D1_GRAPHPHYS (3, 10 LIGHTS)\W06D1_GRAPHPHYS\DEBUG\SUPERBASIC_GLEW_FREEGLUT.OBJ
D:\GAME DEVELOPMENT AND ADVANCED PROGRAMMING\PROJECTS\W06D1_GRAPHPHYS (3, 10 LIGHTS)\W06D1_GRAPHPHYS\DEBUG\GLOBAL.OBJ
D:\GAME DEVELOPMENT AND ADVANCED PROGRAMMING\PROJECTS\W06D1_GRAPHPHYS (3, 10 LIGHTS)\W06D1_GRAPHPHYS\DEBUG\GLUTCLOSE_CALLBACK.OBJ
D:\GAME DEVELOPMENT AND ADVANCED PROGRAMMING\PROJECTS\W06D1_GRAPHPHYS (3, 10 LIGHTS)\W06D1_GRAPHPHYS\DEBUG\GLUTDISPLAY_CALLBACK.OBJ
D:\GAME DEVELOPMENT AND ADVANCED PROGRAMMING\PROJECTS\W06D1_GRAPHPHYS (3, 10 LIGHTS)\W06D1_GRAPHPHYS\DEBUG\GLUTIDLE_CALLBACK.OBJ
D:\GAME DEVELOPMENT AND ADVANCED PROGRAMMING\PROJECTS\W06D1_GRAPHPHYS (3, 10 LIGHTS)\W06D1_GRAPHPHYS\DEBUG\GLUTKEYBOARDSPECIAL_CALLBACKS.OBJ
D:\GAME DEVELOPMENT AND ADVANCED PROGRAMMING\PROJECTS\W06D1_GRAPHPHYS (3, 10 LIGHTS)\W06D1_GRAPHPHYS\DEBUG\GLUTRESHAPE_CALLBACK.OBJ
D:\GAME DEVELOPMENT AND ADVANCED PROGRAMMING\PROJECTS\W06D1_GRAPHPHYS (3, 10 LIGHTS)\W06D1_GRAPHPHYS\DEBUG\PRINTTHEWHATSTHISPROGRAMABOUTBLURB.OBJ
^D:\GAME DEVELOPMENT AND ADVANCED PROGRAMMING\PROJECTS\W06D1_GRAPHPHYS (3, 10 LIGHTS)\W06D1_GRAPHPHYS\CFACTORYMEDIATOR.CPP|D:\GAME DEVELOPMENT AND ADVANCED PROGRAMMING\PROJECTS\W06D1_GRAPHPHYS (3, 10 LIGHTS)\W06D1_GRAPHPHYS\COLLISIONTEST.CPP|D:\GAME DEVELOPMENT AND ADVANCED PROGRAMMING\PROJECTS\W06D1_GRAPHPHYS (3, 10 LIGHTS)\W06D1_GRAPHPHYS\GLUTIDLE_CALLBACK.CPP
D:\GAME DEVELOPMENT AND ADVANCED PROGRAMMING\PROJECTS\W06D1_GRAPHPHYS (3, 10 LIGHTS)\W06D1_GRAPHPHYS\DEBUG\CFACTORYMEDIATOR.OBJ
D:\GAME DEVELOPMENT AND ADVANCED PROGRAMMING\PROJECTS\W06D1_GRAPHPHYS (3, 10 LIGHTS)\W06D1_GRAPHPHYS\DEBUG\GLUTIDLE_CALLBACK.OBJ
^D:\GAME DEVELOPMENT AND ADVANCED PROGRAMMING\PROJECTS\W06D1_GRAPHPHYS (3, 10 LIGHTS)\W06D1_GRAPHPHYS\CFACTORYMEDIATOR.CPP|D:\GAME DEVELOPMENT AND ADVANCED PROGRAMMING\PROJECTS\W06D1_GRAPHPHYS (3, 10 LIGHTS)\W06D1_GRAPHPHYS\GLUTIDLE_CALLBACK.CPP
D:\GAME DEVELOPMENT AND ADVANCED PROGRAMMING\PROJECTS\W06D1_GRAPHPHYS (3, 10 LIGHTS)\W06D1_GRAPHPHYS\DEBUG\CFACTORYMEDIATOR.OBJ
D:\GAME DEVELOPMENT AND ADVANCED PROGRAMMING\PROJECTS\W06D1_GRAPHPHYS (3, 10 LIGHTS)\W06D1_GRAPHPHYS\DEBUG\GLUTIDLE_CALLBACK.OBJ
^D:\GAME DEVELOPMENT AND ADVANCED PROGRAMMING\PROJECTS\W06D1_GRAPHPHYS (3, 10 LIGHTS)\W06D1_GRAPHPHYS\COLLISIONTEST.CPP|D:\GAME DEVELOPMENT AND ADVANCED PROGRAMMING\PROJECTS\W06D1_GRAPHPHYS (3, 10 LIGHTS)\W06D1_GRAPHPHYS\GLUTIDLE_CALLBACK.CPP|D:\GAME DEVELOPMENT AND ADVANCED PROGRAMMING\PROJECTS\W06D1_GRAPHPHYS (3, 10 LIGHTS)\W06D1_GRAPHPHYS\SUPERBASIC_GLEW_FREEGLUT.CPP
D:\GAME DEVELOPMENT AND ADVANCED PROGRAMMING\PROJECTS\W06D1_GRAPHPHYS (3, 10 LIGHTS)\W06D1_GRAPHPHYS\DEBUG\SUPERBASIC_GLEW_FREEGLUT.OBJ
D:\GAME DEVELOPMENT AND ADVANCED PROGRAMMING\PROJECTS\W06D1_GRAPHPHYS (3, 10 LIGHTS)\W06D1_GRAPHPHYS\DEBUG\COLLISIONTEST.OBJ
D:\GAME DEVELOPMENT AND ADVANCED PROGRAMMING\PROJECTS\W06D1_GRAPHPHYS (3, 10 LIGHTS)\W06D1_GRAPHPHYS\DEBUG\GLUTIDLE_CALLBACK.OBJ
^D:\GAME DEVELOPMENT AND ADVANCED PROGRAMMING\PROJECTS\PHYSICS- PROJECT1\W06D1_GRAPHPHYS\CBUNNY.CPP|D:\GAME DEVELOPMENT AND ADVANCED PROGRAMMING\PROJECTS\PHYSICS- PROJECT1\W06D1_GRAPHPHYS\CCAMERA.CPP|D:\GAME DEVELOPMENT AND ADVANCED PROGRAMMING\PROJECTS\PHYSICS- PROJECT1\W06D1_GRAPHPHYS\CFACTORYMEDIATOR.CPP|D:\GAME DEVELOPMENT AND ADVANCED PROGRAMMING\PROJECTS\PHYSICS- PROJECT1\W06D1_GRAPHPHYS\CGAMEOBJECT.CPP|D:\GAME DEVELOPMENT AND ADVANCED PROGRAMMING\PROJECTS\PHYSICS- PROJECT1\W06D1_GRAPHPHYS\CHRTIMER.CPP|D:\GAME DEVELOPMENT AND ADVANCED PROGRAMMING\PROJECTS\PHYSICS- PROJECT1\W06D1_GRAPHPHYS\CMESSAGE.CPP|D:\GAME DEVELOPMENT AND ADVANCED PROGRAMMING\PROJECTS\PHYSICS- PROJECT1\W06D1_GRAPHPHYS\CMODELLOADERMANAGER.CPP|D:\GAME DEVELOPMENT AND ADVANCED PROGRAMMING\PROJECTS\PHYSICS- PROJECT1\W06D1_GRAPHPHYS\CNAMEVALUEPAIR.CPP|D:\GAME DEVELOPMENT AND ADVANCED PROGRAMMING\PROJECTS\PHYSICS- PROJECT1\W06D1_GRAPHPHYS\CNINJATEAPOT.CPP|D:\GAME DEVELOPMENT AND ADVANCED PROGRAMMING\PROJECTS\PHYSICS- PROJECT1\W06D1_GRAPHPHYS\COLLISIONTEST.CPP|D:\GAME DEVELOPMENT AND ADVANCED PROGRAMMING\PROJECTS\PHYSICS- PROJECT1\W06D1_GRAPHPHYS\CPLYFILE5NT.CPP|D:\GAME DEVELOPMENT AND ADVANCED PROGRAMMING\PROJECTS\PHYSICS- PROJECT1\W06D1_GRAPHPHYS\CSPHERE.CPP|D:\GAME DEVELOPMENT AND ADVANCED PROGRAMMING\PROJECTS\PHYSICS- PROJECT1\W06D1_GRAPHPHYS\CTRIANGLE.CPP|D:\GAME DEVELOPMENT AND ADVANCED PROGRAMMING\PROJECTS\PHYSICS- PROJECT1\W06D1_GRAPHPHYS\CVECTOR3F.CPP|D:\GAME DEVELOPMENT AND ADVANCED PROGRAMMING\PROJECTS\PHYSICS- PROJECT1\W06D1_GRAPHPHYS\CVERTEX.CPP|D:\GAME DEVELOPMENT AND ADVANCED PROGRAMMING\PROJECTS\PHYSICS- PROJECT1\W06D1_GRAPHPHYS\FILEDATALOADER.CPP|D:\GAME DEVELOPMENT AND ADVANCED PROGRAMMING\PROJECTS\PHYSICS- PROJECT1\W06D1_GRAPHPHYS\GLOBAL.CPP|D:\GAME DEVELOPMENT AND ADVANCED PROGRAMMING\PROJECTS\PHYSICS- PROJECT1\W06D1_GRAPHPHYS\GLUTCLOSE_CALLBACK.CPP|D:\GAME DEVELOPMENT AND ADVANCED PROGRAMMING\PROJECTS\PHYSICS- PROJECT1\W06D1_GRAPHPHYS\GLUTDISPLAY_CALLBACK.CPP|D:\GAME DEVELOPMENT AND ADVANCED PROGRAMMING\PROJECTS\PHYSICS- PROJECT1\W06D1_GRAPHPHYS\GLUTIDLE_CALLBACK.CPP|D:\GAME DEVELOPMENT AND ADVANCED PROGRAMMING\PROJECTS\PHYSICS- PROJECT1\W06D1_GRAPHPHYS\GLUTKEYBOARDSPECIAL_CALLBACKS.CPP|D:\GAME DEVELOPMENT AND ADVANCED PROGRAMMING\PROJECTS\PHYSICS- PROJECT1\W06D1_GRAPHPHYS\GLUTRESHAPE_CALLBACK.CPP|D:\GAME DEVELOPMENT AND ADVANCED PROGRAMMING\PROJECTS\PHYSICS- PROJECT1\W06D1_GRAPHPHYS\OPENGL_INITIALIZE.CPP|D:\GAME DEVELOPMENT AND ADVANCED PROGRAMMING\PROJECTS\PHYSICS- PROJECT1\W06D1_GRAPHPHYS\PHYSICS.CPP|D:\GAME DEVELOPMENT AND ADVANCED PROGRAMMING\PROJECTS\PHYSICS- PROJECT1\W06D1_GRAPHPHYS\PRINTTHEWHATSTHISPROGRAMABOUTBLURB.CPP|D:\GAME DEVELOPMENT AND ADVANCED PROGRAMMING\PROJECTS\PHYSICS- PROJECT1\W06D1_GRAPHPHYS\SHADERTYPES.CPP|D:\GAME DEVELOPMENT AND ADVANCED PROGRAMMING\PROJECTS\PHYSICS- PROJECT1\W06D1_GRAPHPHYS\SHADERUNIFORMVARIABLES.CPP|D:\GAME DEVELOPMENT AND ADVANCED PROGRAMMING\PROJECTS\PHYSICS- PROJECT1\W06D1_GRAPHPHYS\SUPERBASIC_GLEW_FREEGLUT.CPP|D:\GAME DEVELOPMENT AND ADVANCED PROGRAMMING\PROJECTS\PHYSICS- PROJECT1\W06D1_GRAPHPHYS\VERTEXTYPES.CPP
D:\GAME DEVELOPMENT AND ADVANCED PROGRAMMING\PROJECTS\PHYSICS- PROJECT1\W06D1_GRAPHPHYS\DEBUG\CPLYFILE5NT.OBJ
D:\GAME DEVELOPMENT AND ADVANCED PROGRAMMING\PROJECTS\PHYSICS- PROJECT1\W06D1_GRAPHPHYS\DEBUG\CSPHERE.OBJ
D:\GAME DEVELOPMENT AND ADVANCED PROGRAMMING\PROJECTS\PHYSICS- PROJECT1\W06D1_GRAPHPHYS\DEBUG\CTRIANGLE.OBJ
D:\GAME DEVELOPMENT AND ADVANCED PROGRAMMING\PROJECTS\PHYSICS- PROJECT1\W06D1_GRAPHPHYS\DEBUG\CVECTOR3F.OBJ
D:\GAME DEVELOPMENT AND ADVANCED PROGRAMMING\PROJECTS\PHYSICS- PROJECT1\W06D1_GRAPHPHYS\DEBUG\CVERTEX.OBJ
D:\GAME DEVELOPMENT AND ADVANCED PROGRAMMING\PROJECTS\PHYSICS- PROJECT1\W06D1_GRAPHPHYS\DEBUG\CGAMEOBJECT.OBJ
D:\GAME DEVELOPMENT AND ADVANCED PROGRAMMING\PROJECTS\PHYSICS- PROJECT1\W06D1_GRAPHPHYS\DEBUG\FILEDATALOADER.OBJ
D:\GAME DEVELOPMENT AND ADVANCED PROGRAMMING\PROJECTS\PHYSICS- PROJECT1\W06D1_GRAPHPHYS\DEBUG\GLOBAL.OBJ
D:\GAME DEVELOPMENT AND ADVANCED PROGRAMMING\PROJECTS\PHYSICS- PROJECT1\W06D1_GRAPHPHYS\DEBUG\GLUTCLOSE_CALLBACK.OBJ
D:\GAME DEVELOPMENT AND ADVANCED PROGRAMMING\PROJECTS\PHYSICS- PROJECT1\W06D1_GRAPHPHYS\DEBUG\GLUTDISPLAY_CALLBACK.OBJ
D:\GAME DEVELOPMENT AND ADVANCED PROGRAMMING\PROJECTS\PHYSICS- PROJECT1\W06D1_GRAPHPHYS\DEBUG\GLUTIDLE_CALLBACK.OBJ
D:\GAME DEVELOPMENT AND ADVANCED PROGRAMMING\PROJECTS\PHYSICS- PROJECT1\W06D1_GRAPHPHYS\DEBUG\GLUTKEYBOARDSPECIAL_CALLBACKS.OBJ
D:\GAME DEVELOPMENT AND ADVANCED PROGRAMMING\PROJECTS\PHYSICS- PROJECT1\W06D1_GRAPHPHYS\DEBUG\GLUTRESHAPE_CALLBACK.OBJ
D:\GAME DEVELOPMENT AND ADVANCED PROGRAMMING\PROJECTS\PHYSICS- PROJECT1\W06D1_GRAPHPHYS\DEBUG\PHYSICS.OBJ
D:\GAME DEVELOPMENT AND ADVANCED PROGRAMMING\PROJECTS\PHYSICS- PROJECT1\W06D1_GRAPHPHYS\DEBUG\SHADERUNIFORMVARIABLES.OBJ
D:\GAME DEVELOPMENT AND ADVANCED PROGRAMMING\PROJECTS\PHYSICS- PROJECT1\W06D1_GRAPHPHYS\DEBUG\OPENGL_INITIALIZE.OBJ
D:\GAME DEVELOPMENT AND ADVANCED PROGRAMMING\PROJECTS\PHYSICS- PROJECT1\W06D1_GRAPHPHYS\DEBUG\PRINTTHEWHATSTHISPROGRAMABOUTBLURB.OBJ
D:\GAME DEVELOPMENT AND ADVANCED PROGRAMMING\PROJECTS\PHYSICS- PROJECT1\W06D1_GRAPHPHYS\DEBUG\SHADERTYPES.OBJ
D:\GAME DEVELOPMENT AND ADVANCED PROGRAMMING\PROJECTS\PHYSICS- PROJECT1\W06D1_GRAPHPHYS\DEBUG\SUPERBASIC_GLEW_FREEGLUT.OBJ
D:\GAME DEVELOPMENT AND ADVANCED PROGRAMMING\PROJECTS\PHYSICS- PROJECT1\W06D1_GRAPHPHYS\DEBUG\VERTEXTYPES.OBJ
D:\GAME DEVELOPMENT AND ADVANCED PROGRAMMING\PROJECTS\PHYSICS- PROJECT1\W06D1_GRAPHPHYS\DEBUG\CBUNNY.OBJ
D:\GAME DEVELOPMENT AND ADVANCED PROGRAMMING\PROJECTS\PHYSICS- PROJECT1\W06D1_GRAPHPHYS\DEBUG\CCAMERA.OBJ
D:\GAME DEVELOPMENT AND ADVANCED PROGRAMMING\PROJECTS\PHYSICS- PROJECT1\W06D1_GRAPHPHYS\DEBUG\CMESSAGE.OBJ
D:\GAME DEVELOPMENT AND ADVANCED PROGRAMMING\PROJECTS\PHYSICS- PROJECT1\W06D1_GRAPHPHYS\DEBUG\CFACTORYMEDIATOR.OBJ
D:\GAME DEVELOPMENT AND ADVANCED PROGRAMMING\PROJECTS\PHYSICS- PROJECT1\W06D1_GRAPHPHYS\DEBUG\CHRTIMER.OBJ
D:\GAME DEVELOPMENT AND ADVANCED PROGRAMMING\PROJECTS\PHYSICS- PROJECT1\W06D1_GRAPHPHYS\DEBUG\CMODELLOADERMANAGER.OBJ
D:\GAME DEVELOPMENT AND ADVANCED PROGRAMMING\PROJECTS\PHYSICS- PROJECT1\W06D1_GRAPHPHYS\DEBUG\CNAMEVALUEPAIR.OBJ
D:\GAME DEVELOPMENT AND ADVANCED PROGRAMMING\PROJECTS\PHYSICS- PROJECT1\W06D1_GRAPHPHYS\DEBUG\CNINJATEAPOT.OBJ
D:\GAME DEVELOPMENT AND ADVANCED PROGRAMMING\PROJECTS\PHYSICS- PROJECT1\W06D1_GRAPHPHYS\DEBUG\COLLISIONTEST.OBJ
^D:\GAME DEVELOPMENT AND ADVANCED PROGRAMMING\PROJECTS\PHYSICS- PROJECT1\W06D1_GRAPHPHYS\CBUNNY.CPP
D:\GAME DEVELOPMENT AND ADVANCED PROGRAMMING\PROJECTS\PHYSICS- PROJECT1\W06D1_GRAPHPHYS\DEBUG\VC110.PDB
^D:\GAME DEVELOPMENT AND ADVANCED PROGRAMMING\PROJECTS\PHYSICS- PROJECT1\W06D1_GRAPHPHYS\CCAMERA.CPP
D:\GAME DEVELOPMENT AND ADVANCED PROGRAMMING\PROJECTS\PHYSICS- PROJECT1\W06D1_GRAPHPHYS\DEBUG\VC110.PDB
^D:\GAME DEVELOPMENT AND ADVANCED PROGRAMMING\PROJECTS\PHYSICS- PROJECT1\W06D1_GRAPHPHYS\CMESSAGE.CPP
D:\GAME DEVELOPMENT AND ADVANCED PROGRAMMING\PROJECTS\PHYSICS- PROJECT1\W06D1_GRAPHPHYS\DEBUG\VC110.PDB
^D:\GAME DEVELOPMENT AND ADVANCED PROGRAMMING\PROJECTS\PHYSICS- PROJECT1\W06D1_GRAPHPHYS\CFACTORYMEDIATOR.CPP
D:\GAME DEVELOPMENT AND ADVANCED PROGRAMMING\PROJECTS\PHYSICS- PROJECT1\W06D1_GRAPHPHYS\DEBUG\VC110.PDB
^D:\GAME DEVELOPMENT AND ADVANCED PROGRAMMING\PROJECTS\PHYSICS- PROJECT1\W06D1_GRAPHPHYS\CHRTIMER.CPP
D:\GAME DEVELOPMENT AND ADVANCED PROGRAMMING\PROJECTS\PHYSICS- PROJECT1\W06D1_GRAPHPHYS\DEBUG\VC110.PDB
^D:\GAME DEVELOPMENT AND ADVANCED PROGRAMMING\PROJECTS\PHYSICS- PROJECT1\W06D1_GRAPHPHYS\CMODELLOADERMANAGER.CPP
D:\GAME DEVELOPMENT AND ADVANCED PROGRAMMING\PROJECTS\PHYSICS- PROJECT1\W06D1_GRAPHPHYS\DEBUG\VC110.PDB
^D:\GAME DEVELOPMENT AND ADVANCED PROGRAMMING\PROJECTS\PHYSICS- PROJECT1\W06D1_GRAPHPHYS\CNAMEVALUEPAIR.CPP
D:\GAME DEVELOPMENT AND ADVANCED PROGRAMMING\PROJECTS\PHYSICS- PROJECT1\W06D1_GRAPHPHYS\DEBUG\VC110.PDB
^D:\GAME DEVELOPMENT AND ADVANCED PROGRAMMING\PROJECTS\PHYSICS- PROJECT1\W06D1_GRAPHPHYS\CNINJATEAPOT.CPP
D:\GAME DEVELOPMENT AND ADVANCED PROGRAMMING\PROJECTS\PHYSICS- PROJECT1\W06D1_GRAPHPHYS\DEBUG\VC110.PDB
^D:\GAME DEVELOPMENT AND ADVANCED PROGRAMMING\PROJECTS\PHYSICS- PROJECT1\W06D1_GRAPHPHYS\COLLISIONTEST.CPP
D:\GAME DEVELOPMENT AND ADVANCED PROGRAMMING\PROJECTS\PHYSICS- PROJECT1\W06D1_GRAPHPHYS\DEBUG\VC110.PDB
^D:\GAME DEVELOPMENT AND ADVANCED PROGRAMMING\PROJECTS\PHYSICS- PROJECT1\W06D1_GRAPHPHYS\CPLYFILE5NT.CPP
D:\GAME DEVELOPMENT AND ADVANCED PROGRAMMING\PROJECTS\PHYSICS- PROJECT1\W06D1_GRAPHPHYS\DEBUG\VC110.PDB
^D:\GAME DEVELOPMENT AND ADVANCED PROGRAMMING\PROJECTS\PHYSICS- PROJECT1\W06D1_GRAPHPHYS\CSPHERE.CPP
D:\GAME DEVELOPMENT AND ADVANCED PROGRAMMING\PROJECTS\PHYSICS- PROJECT1\W06D1_GRAPHPHYS\DEBUG\VC110.PDB
^D:\GAME DEVELOPMENT AND ADVANCED PROGRAMMING\PROJECTS\PHYSICS- PROJECT1\W06D1_GRAPHPHYS\CTRIANGLE.CPP
D:\GAME DEVELOPMENT AND ADVANCED PROGRAMMING\PROJECTS\PHYSICS- PROJECT1\W06D1_GRAPHPHYS\DEBUG\VC110.PDB
^D:\GAME DEVELOPMENT AND ADVANCED PROGRAMMING\PROJECTS\PHYSICS- PROJECT1\W06D1_GRAPHPHYS\CVECTOR3F.CPP
D:\GAME DEVELOPMENT AND ADVANCED PROGRAMMING\PROJECTS\PHYSICS- PROJECT1\W06D1_GRAPHPHYS\DEBUG\VC110.PDB
^D:\GAME DEVELOPMENT AND ADVANCED PROGRAMMING\PROJECTS\PHYSICS- PROJECT1\W06D1_GRAPHPHYS\CVERTEX.CPP
D:\GAME DEVELOPMENT AND ADVANCED PROGRAMMING\PROJECTS\PHYSICS- PROJECT1\W06D1_GRAPHPHYS\DEBUG\VC110.PDB
^D:\GAME DEVELOPMENT AND ADVANCED PROGRAMMING\PROJECTS\PHYSICS- PROJECT1\W06D1_GRAPHPHYS\CGAMEOBJECT.CPP
D:\GAME DEVELOPMENT AND ADVANCED PROGRAMMING\PROJECTS\PHYSICS- PROJECT1\W06D1_GRAPHPHYS\DEBUG\VC110.PDB
D:\GAME DEVELOPMENT AND ADVANCED PROGRAMMING\PROJECTS\PHYSICS- PROJECT1\W06D1_GRAPHPHYS\DEBUG\CGAMEOBJECT.OBJ
^D:\GAME DEVELOPMENT AND ADVANCED PROGRAMMING\PROJECTS\PHYSICS- PROJECT1\W06D1_GRAPHPHYS\FILEDATALOADER.CPP
D:\GAME DEVELOPMENT AND ADVANCED PROGRAMMING\PROJECTS\PHYSICS- PROJECT1\W06D1_GRAPHPHYS\DEBUG\VC110.PDB
D:\GAME DEVELOPMENT AND ADVANCED PROGRAMMING\PROJECTS\PHYSICS- PROJECT1\W06D1_GRAPHPHYS\DEBUG\FILEDATALOADER.OBJ
^D:\GAME DEVELOPMENT AND ADVANCED PROGRAMMING\PROJECTS\PHYSICS- PROJECT1\W06D1_GRAPHPHYS\GLOBAL.CPP
D:\GAME DEVELOPMENT AND ADVANCED PROGRAMMING\PROJECTS\PHYSICS- PROJECT1\W06D1_GRAPHPHYS\DEBUG\VC110.PDB
^D:\GAME DEVELOPMENT AND ADVANCED PROGRAMMING\PROJECTS\PHYSICS- PROJECT1\W06D1_GRAPHPHYS\GLUTCLOSE_CALLBACK.CPP
D:\GAME DEVELOPMENT AND ADVANCED PROGRAMMING\PROJECTS\PHYSICS- PROJECT1\W06D1_GRAPHPHYS\DEBUG\VC110.PDB
^D:\GAME DEVELOPMENT AND ADVANCED PROGRAMMING\PROJECTS\PHYSICS- PROJECT1\W06D1_GRAPHPHYS\GLUTDISPLAY_CALLBACK.CPP
D:\GAME DEVELOPMENT AND ADVANCED PROGRAMMING\PROJECTS\PHYSICS- PROJECT1\W06D1_GRAPHPHYS\DEBUG\VC110.PDB
^D:\GAME DEVELOPMENT AND ADVANCED PROGRAMMING\PROJECTS\PHYSICS- PROJECT1\W06D1_GRAPHPHYS\GLUTIDLE_CALLBACK.CPP
D:\GAME DEVELOPMENT AND ADVANCED PROGRAMMING\PROJECTS\PHYSICS- PROJECT1\W06D1_GRAPHPHYS\DEBUG\VC110.PDB
D:\GAME DEVELOPMENT AND ADVANCED PROGRAMMING\PROJECTS\PHYSICS- PROJECT1\W06D1_GRAPHPHYS\DEBUG\GLUTIDLE_CALLBACK.OBJ
^D:\GAME DEVELOPMENT AND ADVANCED PROGRAMMING\PROJECTS\PHYSICS- PROJECT1\W06D1_GRAPHPHYS\GLUTKEYBOARDSPECIAL_CALLBACKS.CPP
D:\GAME DEVELOPMENT AND ADVANCED PROGRAMMING\PROJECTS\PHYSICS- PROJECT1\W06D1_GRAPHPHYS\DEBUG\VC110.PDB
D:\GAME DEVELOPMENT AND ADVANCED PROGRAMMING\PROJECTS\PHYSICS- PROJECT1\W06D1_GRAPHPHYS\DEBUG\GLUTKEYBOARDSPECIAL_CALLBACKS.OBJ
^D:\GAME DEVELOPMENT AND ADVANCED PROGRAMMING\PROJECTS\PHYSICS- PROJECT1\W06D1_GRAPHPHYS\GLUTRESHAPE_CALLBACK.CPP
D:\GAME DEVELOPMENT AND ADVANCED PROGRAMMING\PROJECTS\PHYSICS- PROJECT1\W06D1_GRAPHPHYS\DEBUG\VC110.PDB
^D:\GAME DEVELOPMENT AND ADVANCED PROGRAMMING\PROJECTS\PHYSICS- PROJECT1\W06D1_GRAPHPHYS\PHYSICS.CPP
D:\GAME DEVELOPMENT AND ADVANCED PROGRAMMING\PROJECTS\PHYSICS- PROJECT1\W06D1_GRAPHPHYS\DEBUG\VC110.PDB
^D:\GAME DEVELOPMENT AND ADVANCED PROGRAMMING\PROJECTS\PHYSICS- PROJECT1\W06D1_GRAPHPHYS\SHADERUNIFORMVARIABLES.CPP
D:\GAME DEVELOPMENT AND ADVANCED PROGRAMMING\PROJECTS\PHYSICS- PROJECT1\W06D1_GRAPHPHYS\DEBUG\VC110.PDB
^D:\GAME DEVELOPMENT AND ADVANCED PROGRAMMING\PROJECTS\PHYSICS- PROJECT1\W06D1_GRAPHPHYS\OPENGL_INITIALIZE.CPP
D:\GAME DEVELOPMENT AND ADVANCED PROGRAMMING\PROJECTS\PHYSICS- PROJECT1\W06D1_GRAPHPHYS\DEBUG\VC110.PDB
^D:\GAME DEVELOPMENT AND ADVANCED PROGRAMMING\PROJECTS\PHYSICS- PROJECT1\W06D1_GRAPHPHYS\PRINTTHEWHATSTHISPROGRAMABOUTBLURB.CPP
D:\GAME DEVELOPMENT AND ADVANCED PROGRAMMING\PROJECTS\PHYSICS- PROJECT1\W06D1_GRAPHPHYS\DEBUG\VC110.PDB
^D:\GAME DEVELOPMENT AND ADVANCED PROGRAMMING\PROJECTS\PHYSICS- PROJECT1\W06D1_GRAPHPHYS\SHADERTYPES.CPP
D:\GAME DEVELOPMENT AND ADVANCED PROGRAMMING\PROJECTS\PHYSICS- PROJECT1\W06D1_GRAPHPHYS\DEBUG\VC110.PDB
^D:\GAME DEVELOPMENT AND ADVANCED PROGRAMMING\PROJECTS\PHYSICS- PROJECT1\W06D1_GRAPHPHYS\SUPERBASIC_GLEW_FREEGLUT.CPP
D:\GAME DEVELOPMENT AND ADVANCED PROGRAMMING\PROJECTS\PHYSICS- PROJECT1\W06D1_GRAPHPHYS\DEBUG\VC110.PDB
^D:\GAME DEVELOPMENT AND ADVANCED PROGRAMMING\PROJECTS\PHYSICS- PROJECT1\W06D1_GRAPHPHYS\VERTEXTYPES.CPP
D:\GAME DEVELOPMENT AND ADVANCED PROGRAMMING\PROJECTS\PHYSICS- PROJECT1\W06D1_GRAPHPHYS\DEBUG\VC110.PDB
^D:\GAME DEVELOPMENT AND ADVANCED PROGRAMMING\PROJECTS\PHYSICS- PROJECT1\W06D1_GRAPHPHYS\CGAMEOBJECT.CPP|D:\GAME DEVELOPMENT AND ADVANCED PROGRAMMING\PROJECTS\PHYSICS- PROJECT1\W06D1_GRAPHPHYS\GLUTIDLE_CALLBACK.CPP|D:\GAME DEVELOPMENT AND ADVANCED PROGRAMMING\PROJECTS\PHYSICS- PROJECT1\W06D1_GRAPHPHYS\GLUTKEYBOARDSPECIAL_CALLBACKS.CPP
D:\GAME DEVELOPMENT AND ADVANCED PROGRAMMING\PROJECTS\PHYSICS- PROJECT1\W06D1_GRAPHPHYS\DEBUG\CGAMEOBJECT.OBJ
D:\GAME DEVELOPMENT AND ADVANCED PROGRAMMING\PROJECTS\PHYSICS- PROJECT1\W06D1_GRAPHPHYS\DEBUG\GLUTIDLE_CALLBACK.OBJ
D:\GAME DEVELOPMENT AND ADVANCED PROGRAMMING\PROJECTS\PHYSICS- PROJECT1\W06D1_GRAPHPHYS\DEBUG\GLUTKEYBOARDSPECIAL_CALLBACKS.OBJ
^D:\GAME DEVELOPMENT AND ADVANCED PROGRAMMING\PROJECTS\PHYSICS- PROJECT1\W06D1_GRAPHPHYS\CGAMEOBJECT.CPP|D:\GAME DEVELOPMENT AND ADVANCED PROGRAMMING\PROJECTS\PHYSICS- PROJECT1\W06D1_GRAPHPHYS\GLUTIDLE_CALLBACK.CPP
D:\GAME DEVELOPMENT AND ADVANCED PROGRAMMING\PROJECTS\PHYSICS- PROJECT1\W06D1_GRAPHPHYS\DEBUG\CGAMEOBJECT.OBJ
D:\GAME DEVELOPMENT AND ADVANCED PROGRAMMING\PROJECTS\PHYSICS- PROJECT1\W06D1_GRAPHPHYS\DEBUG\GLUTIDLE_CALLBACK.OBJ
^D:\GAME DEVELOPMENT AND ADVANCED PROGRAMMING\PROJECTS\PHYSICS- PROJECT1\W06D1_GRAPHPHYS\CBUNNY.CPP|D:\GAME DEVELOPMENT AND ADVANCED PROGRAMMING\PROJECTS\PHYSICS- PROJECT1\W06D1_GRAPHPHYS\CFACTORYMEDIATOR.CPP|D:\GAME DEVELOPMENT AND ADVANCED PROGRAMMING\PROJECTS\PHYSICS- PROJECT1\W06D1_GRAPHPHYS\CGAMEOBJECT.CPP|D:\GAME DEVELOPMENT AND ADVANCED PROGRAMMING\PROJECTS\PHYSICS- PROJECT1\W06D1_GRAPHPHYS\CMODELLOADERMANAGER.CPP|D:\GAME DEVELOPMENT AND ADVANCED PROGRAMMING\PROJECTS\PHYSICS- PROJECT1\W06D1_GRAPHPHYS\CNINJATEAPOT.CPP|D:\GAME DEVELOPMENT AND ADVANCED PROGRAMMING\PROJECTS\PHYSICS- PROJECT1\W06D1_GRAPHPHYS\COLLISIONTEST.CPP|D:\GAME DEVELOPMENT AND ADVANCED PROGRAMMING\PROJECTS\PHYSICS- PROJECT1\W06D1_GRAPHPHYS\CSPHERE.CPP|D:\GAME DEVELOPMENT AND ADVANCED PROGRAMMING\PROJECTS\PHYSICS- PROJECT1\W06D1_GRAPHPHYS\FILEDATALOADER.CPP|D:\GAME DEVELOPMENT AND ADVANCED PROGRAMMING\PROJECTS\PHYSICS- PROJECT1\W06D1_GRAPHPHYS\GLOBAL.CPP|D:\GAME DEVELOPMENT AND ADVANCED PROGRAMMING\PROJECTS\PHYSICS- PROJECT1\W06D1_GRAPHPHYS\GLUTCLOSE_CALLBACK.CPP|D:\GAME DEVELOPMENT AND ADVANCED PROGRAMMING\PROJECTS\PHYSICS- PROJECT1\W06D1_GRAPHPHYS\GLUTDISPLAY_CALLBACK.CPP|D:\GAME DEVELOPMENT AND ADVANCED PROGRAMMING\PROJECTS\PHYSICS- PROJECT1\W06D1_GRAPHPHYS\GLUTIDLE_CALLBACK.CPP|D:\GAME DEVELOPMENT AND ADVANCED PROGRAMMING\PROJECTS\PHYSICS- PROJECT1\W06D1_GRAPHPHYS\GLUTKEYBOARDSPECIAL_CALLBACKS.CPP|D:\GAME DEVELOPMENT AND ADVANCED PROGRAMMING\PROJECTS\PHYSICS- PROJECT1\W06D1_GRAPHPHYS\GLUTRESHAPE_CALLBACK.CPP|D:\GAME DEVELOPMENT AND ADVANCED PROGRAMMING\PROJECTS\PHYSICS- PROJECT1\W06D1_GRAPHPHYS\OPENGL_INITIALIZE.CPP|D:\GAME DEVELOPMENT AND ADVANCED PROGRAMMING\PROJECTS\PHYSICS- PROJECT1\W06D1_GRAPHPHYS\PRINTTHEWHATSTHISPROGRAMABOUTBLURB.CPP|D:\GAME DEVELOPMENT AND ADVANCED PROGRAMMING\PROJECTS\PHYSICS- PROJECT1\W06D1_GRAPHPHYS\SHADERUNIFORMVARIABLES.CPP|D:\GAME DEVELOPMENT AND ADVANCED PROGRAMMING\PROJECTS\PHYSICS- PROJECT1\W06D1_GRAPHPHYS\SUPERBASIC_GLEW_FREEGLUT.CPP
D:\GAME DEVELOPMENT AND ADVANCED PROGRAMMING\PROJECTS\PHYSICS- PROJECT1\W06D1_GRAPHPHYS\DEBUG\CBUNNY.OBJ
D:\GAME DEVELOPMENT AND ADVANCED PROGRAMMING\PROJECTS\PHYSICS- PROJECT1\W06D1_GRAPHPHYS\DEBUG\CFACTORYMEDIATOR.OBJ
D:\GAME DEVELOPMENT AND ADVANCED PROGRAMMING\PROJECTS\PHYSICS- PROJECT1\W06D1_GRAPHPHYS\DEBUG\CGAMEOBJECT.OBJ
D:\GAME DEVELOPMENT AND ADVANCED PROGRAMMING\PROJECTS\PHYSICS- PROJECT1\W06D1_GRAPHPHYS\DEBUG\CMODELLOADERMANAGER.OBJ
D:\GAME DEVELOPMENT AND ADVANCED PROGRAMMING\PROJECTS\PHYSICS- PROJECT1\W06D1_GRAPHPHYS\DEBUG\CNINJATEAPOT.OBJ
D:\GAME DEVELOPMENT AND ADVANCED PROGRAMMING\PROJECTS\PHYSICS- PROJECT1\W06D1_GRAPHPHYS\DEBUG\CSPHERE.OBJ
D:\GAME DEVELOPMENT AND ADVANCED PROGRAMMING\PROJECTS\PHYSICS- PROJECT1\W06D1_GRAPHPHYS\DEBUG\OPENGL_INITIALIZE.OBJ
D:\GAME DEVELOPMENT AND ADVANCED PROGRAMMING\PROJECTS\PHYSICS- PROJECT1\W06D1_GRAPHPHYS\DEBUG\SHADERUNIFORMVARIABLES.OBJ
D:\GAME DEVELOPMENT AND ADVANCED PROGRAMMING\PROJECTS\PHYSICS- PROJECT1\W06D1_GRAPHPHYS\DEBUG\SUPERBASIC_GLEW_FREEGLUT.OBJ
D:\GAME DEVELOPMENT AND ADVANCED PROGRAMMING\PROJECTS\PHYSICS- PROJECT1\W06D1_GRAPHPHYS\DEBUG\COLLISIONTEST.OBJ
D:\GAME DEVELOPMENT AND ADVANCED PROGRAMMING\PROJECTS\PHYSICS- PROJECT1\W06D1_GRAPHPHYS\DEBUG\FILEDATALOADER.OBJ
D:\GAME DEVELOPMENT AND ADVANCED PROGRAMMING\PROJECTS\PHYSICS- PROJECT1\W06D1_GRAPHPHYS\DEBUG\GLOBAL.OBJ
D:\GAME DEVELOPMENT AND ADVANCED PROGRAMMING\PROJECTS\PHYSICS- PROJECT1\W06D1_GRAPHPHYS\DEBUG\GLUTCLOSE_CALLBACK.OBJ
D:\GAME DEVELOPMENT AND ADVANCED PROGRAMMING\PROJECTS\PHYSICS- PROJECT1\W06D1_GRAPHPHYS\DEBUG\GLUTDISPLAY_CALLBACK.OBJ
D:\GAME DEVELOPMENT AND ADVANCED PROGRAMMING\PROJECTS\PHYSICS- PROJECT1\W06D1_GRAPHPHYS\DEBUG\GLUTIDLE_CALLBACK.OBJ
D:\GAME DEVELOPMENT AND ADVANCED PROGRAMMING\PROJECTS\PHYSICS- PROJECT1\W06D1_GRAPHPHYS\DEBUG\GLUTKEYBOARDSPECIAL_CALLBACKS.OBJ
D:\GAME DEVELOPMENT AND ADVANCED PROGRAMMING\PROJECTS\PHYSICS- PROJECT1\W06D1_GRAPHPHYS\DEBUG\GLUTRESHAPE_CALLBACK.OBJ
D:\GAME DEVELOPMENT AND ADVANCED PROGRAMMING\PROJECTS\PHYSICS- PROJECT1\W06D1_GRAPHPHYS\DEBUG\PRINTTHEWHATSTHISPROGRAMABOUTBLURB.OBJ
