^D:\GDAP\EXAMS_EXTRA\GAMEJAM\GAMEJAM_V3.2\GAMEENGINEBASE\DEBUG\AUDIOMANAGER.OBJ|D:\GDAP\EXAMS_EXTRA\GAMEJAM\GAMEJAM_V3.2\GAMEENGINEBASE\DEBUG\BASEPHYCOMP.OBJ|D:\GDAP\EXAMS_EXTRA\GAMEJAM\GAMEJAM_V3.2\GAMEENGINEBASE\DEBUG\BOUNDINGBOX.OBJ|D:\GDAP\EXAMS_EXTRA\GAMEJAM\GAMEJAM_V3.2\GAMEENGINEBASE\DEBUG\CAMERA.OBJ|D:\GDAP\EXAMS_EXTRA\GAMEJAM\GAMEJAM_V3.2\GAMEENGINEBASE\DEBUG\CHRTIMER.OBJ|D:\GDAP\EXAMS_EXTRA\GAMEJAM\GAMEJAM_V3.2\GAMEENGINEBASE\DEBUG\COLLISIONTEST.OBJ|D:\GDAP\EXAMS_EXTRA\GAMEJAM\GAMEJAM_V3.2\GAMEENGINEBASE\DEBUG\DELEGATOR.OBJ|D:\GDAP\EXAMS_EXTRA\GAMEJAM\GAMEJAM_V3.2\GAMEENGINEBASE\DEBUG\FILEDATALOADER.OBJ|D:\GDAP\EXAMS_EXTRA\GAMEJAM\GAMEJAM_V3.2\GAMEENGINEBASE\DEBUG\GAMEMANAGER.OBJ|D:\GDAP\EXAMS_EXTRA\GAMEJAM\GAMEJAM_V3.2\GAMEENGINEBASE\DEBUG\GAMEOBJECT.OBJ|D:\GDAP\EXAMS_EXTRA\GAMEJAM\GAMEJAM_V3.2\GAMEENGINEBASE\DEBUG\GLFONT2.OBJ|D:\GDAP\EXAMS_EXTRA\GAMEJAM\GAMEJAM_V3.2\GAMEENGINEBASE\DEBUG\GLOBAL.OBJ|D:\GDAP\EXAMS_EXTRA\GAMEJAM\GAMEJAM_V3.2\GAMEENGINEBASE\DEBUG\HAVOKPHANTOMCOMP.OBJ|D:\GDAP\EXAMS_EXTRA\GAMEJAM\GAMEJAM_V3.2\GAMEENGINEBASE\DEBUG\HAVOKPHYCOMP.OBJ|D:\GDAP\EXAMS_EXTRA\GAMEJAM\GAMEJAM_V3.2\GAMEENGINEBASE\DEBUG\HAVOKRIGIDBODY.OBJ|D:\GDAP\EXAMS_EXTRA\GAMEJAM\GAMEJAM_V3.2\GAMEENGINEBASE\DEBUG\HAVOKVEHICLE.OBJ|D:\GDAP\EXAMS_EXTRA\GAMEJAM\GAMEJAM_V3.2\GAMEENGINEBASE\DEBUG\HUD.OBJ|D:\GDAP\EXAMS_EXTRA\GAMEJAM\GAMEJAM_V3.2\GAMEENGINEBASE\DEBUG\MAIN.OBJ|D:\GDAP\EXAMS_EXTRA\GAMEJAM\GAMEJAM_V3.2\GAMEENGINEBASE\DEBUG\MEDIATOR.OBJ|D:\GDAP\EXAMS_EXTRA\GAMEJAM\GAMEJAM_V3.2\GAMEENGINEBASE\DEBUG\MODELDATA.OBJ|D:\GDAP\EXAMS_EXTRA\GAMEJAM\GAMEJAM_V3.2\GAMEENGINEBASE\DEBUG\MOVEMENTMANAGER.OBJ|D:\GDAP\EXAMS_EXTRA\GAMEJAM\GAMEJAM_V3.2\GAMEENGINEBASE\DEBUG\OPENGL_CLOSEFUNC.OBJ|D:\GDAP\EXAMS_EXTRA\GAMEJAM\GAMEJAM_V3.2\GAMEENGINEBASE\DEBUG\OPENGL_DISPLAYFUNC.OBJ|D:\GDAP\EXAMS_EXTRA\GAMEJAM\GAMEJAM_V3.2\GAMEENGINEBASE\DEBUG\OPENGL_ERRORCNTRL.OBJ|D:\GDAP\EXAMS_EXTRA\GAMEJAM\GAMEJAM_V3.2\GAMEENGINEBASE\DEBUG\OPENGL_IDLEFUNC.OBJ|D:\GDAP\EXAMS_EXTRA\GAMEJAM\GAMEJAM_V3.2\GAMEENGINEBASE\DEBUG\OPENGL_INIT.OBJ|D:\GDAP\EXAMS_EXTRA\GAMEJAM\GAMEJAM_V3.2\GAMEENGINEBASE\DEBUG\OPENGL_KEYBOARDSPLFUNC.OBJ|D:\GDAP\EXAMS_EXTRA\GAMEJAM\GAMEJAM_V3.2\GAMEENGINEBASE\DEBUG\OPENGL_RESIZE.OBJ|D:\GDAP\EXAMS_EXTRA\GAMEJAM\GAMEJAM_V3.2\GAMEENGINEBASE\DEBUG\PARTICLEGEN.OBJ|D:\GDAP\EXAMS_EXTRA\GAMEJAM\GAMEJAM_V3.2\GAMEENGINEBASE\DEBUG\PHYSICS.OBJ|D:\GDAP\EXAMS_EXTRA\GAMEJAM\GAMEJAM_V3.2\GAMEENGINEBASE\DEBUG\SHADERCLASS.OBJ|D:\GDAP\EXAMS_EXTRA\GAMEJAM\GAMEJAM_V3.2\GAMEENGINEBASE\DEBUG\SHADERUNIFORMVARIABLES.OBJ|D:\GDAP\EXAMS_EXTRA\GAMEJAM\GAMEJAM_V3.2\GAMEENGINEBASE\DEBUG\SOFTBODYCOMP.OBJ|D:\GDAP\EXAMS_EXTRA\GAMEJAM\GAMEJAM_V3.2\GAMEENGINEBASE\DEBUG\SPHERE.OBJ|D:\GDAP\EXAMS_EXTRA\GAMEJAM\GAMEJAM_V3.2\GAMEENGINEBASE\DEBUG\SPRING.OBJ|D:\GDAP\EXAMS_EXTRA\GAMEJAM\GAMEJAM_V3.2\GAMEENGINEBASE\DEBUG\TEXTUREDATA.OBJ|D:\GDAP\EXAMS_EXTRA\GAMEJAM\GAMEJAM_V3.2\GAMEENGINEBASE\DEBUG\VECTOR3D.OBJ|D:\GDAP\EXAMS_EXTRA\GAMEJAM\GAMEJAM_V3.2\GAMEENGINEBASE\DEBUG\XMLPARSER.OBJ
D:\GDAP\EXAMS_EXTRA\GAMEJAM\GAMEJAM_V3.2\GAMEENGINEBASE\EXTERNALS\LIBRARIES\FMOD\FMODEX_VC.LIB
D:\GDAP\EXAMS_EXTRA\GAMEJAM\GAMEJAM_V3.2\GAMEENGINEBASE\EXTERNALS\GL-LIB\WIN32\GLEW32.LIB
D:\GDAP\EXAMS_EXTRA\GAMEJAM\GAMEJAM_V3.2\GAMEENGINEBASE\EXTERNALS\GL-LIB\WIN32\GLEW32S.LIB
D:\GDAP\EXAMS_EXTRA\GAMEJAM\GAMEJAM_V3.2\GAMEENGINEBASE\EXTERNALS\GL-LIB\WIN32\FREEGLUT.LIB
D:\GDAP\PHYSICS\SEMESTER 2\HAVOK_2013-1-0\HK2013_1_0_R1\LIB\WIN32_VS2012_WIN8\DEBUG_DLL\HKBASE.LIB
D:\GDAP\PHYSICS\SEMESTER 2\HAVOK_2013-1-0\HK2013_1_0_R1\LIB\WIN32_VS2012_WIN8\DEBUG_DLL\HKCOMPAT.LIB
D:\GDAP\PHYSICS\SEMESTER 2\HAVOK_2013-1-0\HK2013_1_0_R1\LIB\WIN32_VS2012_WIN8\DEBUG_DLL\HKGEOMETRYUTILITIES.LIB
D:\GDAP\PHYSICS\SEMESTER 2\HAVOK_2013-1-0\HK2013_1_0_R1\LIB\WIN32_VS2012_WIN8\DEBUG_DLL\HKINTERNAL.LIB
D:\GDAP\PHYSICS\SEMESTER 2\HAVOK_2013-1-0\HK2013_1_0_R1\LIB\WIN32_VS2012_WIN8\DEBUG_DLL\HKSCENEDATA.LIB
D:\GDAP\PHYSICS\SEMESTER 2\HAVOK_2013-1-0\HK2013_1_0_R1\LIB\WIN32_VS2012_WIN8\DEBUG_DLL\HKSERIALIZE.LIB
D:\GDAP\PHYSICS\SEMESTER 2\HAVOK_2013-1-0\HK2013_1_0_R1\LIB\WIN32_VS2012_WIN8\DEBUG_DLL\HKVISUALIZE.LIB
D:\GDAP\PHYSICS\SEMESTER 2\HAVOK_2013-1-0\HK2013_1_0_R1\LIB\WIN32_VS2012_WIN8\DEBUG_DLL\HKAINTERNAL.LIB
D:\GDAP\PHYSICS\SEMESTER 2\HAVOK_2013-1-0\HK2013_1_0_R1\LIB\WIN32_VS2012_WIN8\DEBUG_DLL\HKAANIMATION.LIB
D:\GDAP\PHYSICS\SEMESTER 2\HAVOK_2013-1-0\HK2013_1_0_R1\LIB\WIN32_VS2012_WIN8\DEBUG_DLL\HKAPHYSICS2012BRIDGE.LIB
D:\GDAP\PHYSICS\SEMESTER 2\HAVOK_2013-1-0\HK2013_1_0_R1\LIB\WIN32_VS2012_WIN8\DEBUG_DLL\HKPCONSTRAINT.LIB
D:\GDAP\PHYSICS\SEMESTER 2\HAVOK_2013-1-0\HK2013_1_0_R1\LIB\WIN32_VS2012_WIN8\DEBUG_DLL\HKPCONSTRAINTSOLVER.LIB
D:\GDAP\PHYSICS\SEMESTER 2\HAVOK_2013-1-0\HK2013_1_0_R1\LIB\WIN32_VS2012_WIN8\DEBUG_DLL\HKPCOLLIDE.LIB
D:\GDAP\PHYSICS\SEMESTER 2\HAVOK_2013-1-0\HK2013_1_0_R1\LIB\WIN32_VS2012_WIN8\DEBUG_DLL\HKPDYNAMICS.LIB
D:\GDAP\PHYSICS\SEMESTER 2\HAVOK_2013-1-0\HK2013_1_0_R1\LIB\WIN32_VS2012_WIN8\DEBUG_DLL\HKPINTERNAL.LIB
D:\GDAP\PHYSICS\SEMESTER 2\HAVOK_2013-1-0\HK2013_1_0_R1\LIB\WIN32_VS2012_WIN8\DEBUG_DLL\HKPUTILITIES.LIB
D:\GDAP\PHYSICS\SEMESTER 2\HAVOK_2013-1-0\HK2013_1_0_R1\LIB\WIN32_VS2012_WIN8\DEBUG_DLL\HKPVEHICLE.LIB
D:\GDAP\PHYSICS\SEMESTER 2\HAVOK_2013-1-0\HK2013_1_0_R1\LIB\WIN32_VS2012_WIN8\DEBUG_DLL\HKCDCOLLIDE.LIB
D:\GDAP\PHYSICS\SEMESTER 2\HAVOK_2013-1-0\HK2013_1_0_R1\LIB\WIN32_VS2012_WIN8\DEBUG_DLL\HKCDINTERNAL.LIB
C:\PROGRAM FILES (X86)\WINDOWS KITS\8.0\LIB\WIN8\UM\X86\KERNEL32.LIB
C:\PROGRAM FILES (X86)\WINDOWS KITS\8.0\LIB\WIN8\UM\X86\USER32.LIB
C:\PROGRAM FILES (X86)\WINDOWS KITS\8.0\LIB\WIN8\UM\X86\GDI32.LIB
C:\PROGRAM FILES (X86)\WINDOWS KITS\8.0\LIB\WIN8\UM\X86\WINSPOOL.LIB
C:\PROGRAM FILES (X86)\WINDOWS KITS\8.0\LIB\WIN8\UM\X86\COMDLG32.LIB
C:\PROGRAM FILES (X86)\WINDOWS KITS\8.0\LIB\WIN8\UM\X86\ADVAPI32.LIB
C:\PROGRAM FILES (X86)\WINDOWS KITS\8.0\LIB\WIN8\UM\X86\SHELL32.LIB
C:\PROGRAM FILES (X86)\WINDOWS KITS\8.0\LIB\WIN8\UM\X86\OLE32.LIB
C:\PROGRAM FILES (X86)\WINDOWS KITS\8.0\LIB\WIN8\UM\X86\OLEAUT32.LIB
C:\PROGRAM FILES (X86)\WINDOWS KITS\8.0\LIB\WIN8\UM\X86\UUID.LIB
C:\PROGRAM FILES (X86)\WINDOWS KITS\8.0\LIB\WIN8\UM\X86\ODBC32.LIB
C:\PROGRAM FILES (X86)\WINDOWS KITS\8.0\LIB\WIN8\UM\X86\ODBCCP32.LIB
D:\GDAP\EXAMS_EXTRA\GAMEJAM\GAMEJAM_V3.2\GAMEENGINEBASE\DEBUG\AUDIOMANAGER.OBJ
D:\GDAP\EXAMS_EXTRA\GAMEJAM\GAMEJAM_V3.2\GAMEENGINEBASE\DEBUG\BASEPHYCOMP.OBJ
D:\GDAP\EXAMS_EXTRA\GAMEJAM\GAMEJAM_V3.2\GAMEENGINEBASE\DEBUG\BOUNDINGBOX.OBJ
D:\GDAP\EXAMS_EXTRA\GAMEJAM\GAMEJAM_V3.2\GAMEENGINEBASE\DEBUG\CAMERA.OBJ
D:\GDAP\EXAMS_EXTRA\GAMEJAM\GAMEJAM_V3.2\GAMEENGINEBASE\DEBUG\CHRTIMER.OBJ
D:\GDAP\EXAMS_EXTRA\GAMEJAM\GAMEJAM_V3.2\GAMEENGINEBASE\DEBUG\COLLISIONTEST.OBJ
D:\GDAP\EXAMS_EXTRA\GAMEJAM\GAMEJAM_V3.2\GAMEENGINEBASE\DEBUG\DELEGATOR.OBJ
D:\GDAP\EXAMS_EXTRA\GAMEJAM\GAMEJAM_V3.2\GAMEENGINEBASE\DEBUG\FILEDATALOADER.OBJ
D:\GDAP\EXAMS_EXTRA\GAMEJAM\GAMEJAM_V3.2\GAMEENGINEBASE\DEBUG\GAMEMANAGER.OBJ
D:\GDAP\EXAMS_EXTRA\GAMEJAM\GAMEJAM_V3.2\GAMEENGINEBASE\DEBUG\GAMEOBJECT.OBJ
D:\GDAP\EXAMS_EXTRA\GAMEJAM\GAMEJAM_V3.2\GAMEENGINEBASE\DEBUG\GLFONT2.OBJ
D:\GDAP\EXAMS_EXTRA\GAMEJAM\GAMEJAM_V3.2\GAMEENGINEBASE\DEBUG\HAVOKPHANTOMCOMP.OBJ
D:\GDAP\EXAMS_EXTRA\GAMEJAM\GAMEJAM_V3.2\GAMEENGINEBASE\DEBUG\HAVOKPHYCOMP.OBJ
D:\GDAP\EXAMS_EXTRA\GAMEJAM\GAMEJAM_V3.2\GAMEENGINEBASE\DEBUG\HAVOKRIGIDBODY.OBJ
D:\GDAP\EXAMS_EXTRA\GAMEJAM\GAMEJAM_V3.2\GAMEENGINEBASE\DEBUG\HUD.OBJ
D:\GDAP\EXAMS_EXTRA\GAMEJAM\GAMEJAM_V3.2\GAMEENGINEBASE\DEBUG\MEDIATOR.OBJ
D:\GDAP\EXAMS_EXTRA\GAMEJAM\GAMEJAM_V3.2\GAMEENGINEBASE\DEBUG\GLOBAL.OBJ
D:\GDAP\EXAMS_EXTRA\GAMEJAM\GAMEJAM_V3.2\GAMEENGINEBASE\DEBUG\MAIN.OBJ
D:\GDAP\EXAMS_EXTRA\GAMEJAM\GAMEJAM_V3.2\GAMEENGINEBASE\DEBUG\MODELDATA.OBJ
D:\GDAP\EXAMS_EXTRA\GAMEJAM\GAMEJAM_V3.2\GAMEENGINEBASE\DEBUG\MOVEMENTMANAGER.OBJ
D:\GDAP\EXAMS_EXTRA\GAMEJAM\GAMEJAM_V3.2\GAMEENGINEBASE\DEBUG\OPENGL_CLOSEFUNC.OBJ
D:\GDAP\EXAMS_EXTRA\GAMEJAM\GAMEJAM_V3.2\GAMEENGINEBASE\DEBUG\OPENGL_DISPLAYFUNC.OBJ
D:\GDAP\EXAMS_EXTRA\GAMEJAM\GAMEJAM_V3.2\GAMEENGINEBASE\DEBUG\OPENGL_ERRORCNTRL.OBJ
D:\GDAP\EXAMS_EXTRA\GAMEJAM\GAMEJAM_V3.2\GAMEENGINEBASE\DEBUG\OPENGL_IDLEFUNC.OBJ
D:\GDAP\EXAMS_EXTRA\GAMEJAM\GAMEJAM_V3.2\GAMEENGINEBASE\DEBUG\OPENGL_INIT.OBJ
D:\GDAP\EXAMS_EXTRA\GAMEJAM\GAMEJAM_V3.2\GAMEENGINEBASE\DEBUG\OPENGL_KEYBOARDSPLFUNC.OBJ
D:\GDAP\EXAMS_EXTRA\GAMEJAM\GAMEJAM_V3.2\GAMEENGINEBASE\DEBUG\OPENGL_RESIZE.OBJ
D:\GDAP\EXAMS_EXTRA\GAMEJAM\GAMEJAM_V3.2\GAMEENGINEBASE\DEBUG\PARTICLEGEN.OBJ
D:\GDAP\EXAMS_EXTRA\GAMEJAM\GAMEJAM_V3.2\GAMEENGINEBASE\DEBUG\PHYSICS.OBJ
D:\GDAP\EXAMS_EXTRA\GAMEJAM\GAMEJAM_V3.2\GAMEENGINEBASE\DEBUG\SHADERCLASS.OBJ
D:\GDAP\EXAMS_EXTRA\GAMEJAM\GAMEJAM_V3.2\GAMEENGINEBASE\DEBUG\SHADERUNIFORMVARIABLES.OBJ
D:\GDAP\EXAMS_EXTRA\GAMEJAM\GAMEJAM_V3.2\GAMEENGINEBASE\DEBUG\SPHERE.OBJ
D:\GDAP\EXAMS_EXTRA\GAMEJAM\GAMEJAM_V3.2\GAMEENGINEBASE\DEBUG\SPRING.OBJ
D:\GDAP\EXAMS_EXTRA\GAMEJAM\GAMEJAM_V3.2\GAMEENGINEBASE\DEBUG\TEXTUREDATA.OBJ
D:\GDAP\EXAMS_EXTRA\GAMEJAM\GAMEJAM_V3.2\GAMEENGINEBASE\DEBUG\VECTOR3D.OBJ
D:\GDAP\EXAMS_EXTRA\GAMEJAM\GAMEJAM_V3.2\GAMEENGINEBASE\DEBUG\XMLPARSER.OBJ
D:\GDAP\EXAMS_EXTRA\GAMEJAM\GAMEJAM_V3.2\GAMEENGINEBASE\DEBUG\HAVOKVEHICLE.OBJ
D:\GDAP\EXAMS_EXTRA\GAMEJAM\GAMEJAM_V3.2\GAMEENGINEBASE\DEBUG\SOFTBODYCOMP.OBJ
C:\WINDOWS\SYSTEM32\TZRES.DLL
C:\WINDOWS\GLOBALIZATION\SORTING\SORTDEFAULT.NLS
C:\PROGRAM FILES (X86)\MICROSOFT VISUAL STUDIO 11.0\VC\LIB\MSVCPRTD.LIB
C:\PROGRAM FILES (X86)\MICROSOFT VISUAL STUDIO 11.0\VC\LIB\MSVCRTD.LIB
C:\PROGRAM FILES (X86)\MICROSOFT VISUAL STUDIO 11.0\VC\LIB\OLDNAMES.LIB
C:\PROGRAM FILES (X86)\WINDOWS KITS\8.0\LIB\WIN8\UM\X86\GLU32.LIB
C:\PROGRAM FILES (X86)\WINDOWS KITS\8.0\LIB\WIN8\UM\X86\OPENGL32.LIB
C:\PROGRAM FILES (X86)\WINDOWS KITS\8.0\LIB\WIN8\UM\X86\WINMM.LIB
C:\PROGRAM FILES (X86)\WINDOWS KITS\8.0\LIB\WIN8\UM\X86\WSOCK32.LIB
C:\PROGRAM FILES (X86)\WINDOWS KITS\8.0\BIN\X86\RC.EXE
C:\PROGRAM FILES (X86)\MICROSOFT VISUAL STUDIO 11.0\VC\BIN\CVTRES.EXE
C:\PROGRAM FILES (X86)\MICROSOFT VISUAL STUDIO 11.0\VC\BIN\1033\LINKUI.DLL
