^D:\GDAP\UNSORTED\DE TEST\DE TEST ADITYA MATTOO\DE TEST\DE TEST\ARMOR.CPP|D:\GDAP\UNSORTED\DE TEST\DE TEST ADITYA MATTOO\DE TEST\DE TEST\DIJKSTRA.CPP|D:\GDAP\UNSORTED\DE TEST\DE TEST ADITYA MATTOO\DE TEST\DE TEST\HEALTH.CPP|D:\GDAP\UNSORTED\DE TEST\DE TEST ADITYA MATTOO\DE TEST\DE TEST\MAIN.CPP|D:\GDAP\UNSORTED\DE TEST\DE TEST ADITYA MATTOO\DE TEST\DE TEST\MEDIATOR.CPP|D:\GDAP\UNSORTED\DE TEST\DE TEST ADITYA MATTOO\DE TEST\DE TEST\PATHNODE.CPP|D:\GDAP\UNSORTED\DE TEST\DE TEST ADITYA MATTOO\DE TEST\DE TEST\POWERUP.CPP|D:\GDAP\UNSORTED\DE TEST\DE TEST ADITYA MATTOO\DE TEST\DE TEST\WEAPON.CPP
D:\GDAP\UNSORTED\DE TEST\DE TEST ADITYA MATTOO\DE TEST\DE TEST\DEBUG\VC120.PDB
D:\GDAP\UNSORTED\DE TEST\DE TEST ADITYA MATTOO\DE TEST\DE TEST\DEBUG\VC120.IDB
D:\GDAP\UNSORTED\DE TEST\DE TEST ADITYA MATTOO\DE TEST\DE TEST\DEBUG\ARMOR.OBJ
D:\GDAP\UNSORTED\DE TEST\DE TEST ADITYA MATTOO\DE TEST\DE TEST\DEBUG\DIJKSTRA.OBJ
D:\GDAP\UNSORTED\DE TEST\DE TEST ADITYA MATTOO\DE TEST\DE TEST\DEBUG\HEALTH.OBJ
D:\GDAP\UNSORTED\DE TEST\DE TEST ADITYA MATTOO\DE TEST\DE TEST\DEBUG\MAIN.OBJ
D:\GDAP\UNSORTED\DE TEST\DE TEST ADITYA MATTOO\DE TEST\DE TEST\DEBUG\MEDIATOR.OBJ
D:\GDAP\UNSORTED\DE TEST\DE TEST ADITYA MATTOO\DE TEST\DE TEST\DEBUG\PATHNODE.OBJ
D:\GDAP\UNSORTED\DE TEST\DE TEST ADITYA MATTOO\DE TEST\DE TEST\DEBUG\POWERUP.OBJ
D:\GDAP\UNSORTED\DE TEST\DE TEST ADITYA MATTOO\DE TEST\DE TEST\DEBUG\WEAPON.OBJ
^D:\GDAP\UNSORTED\DE TEST\DE TEST ADITYA MATTOO\DE TEST\DE TEST\ARMOR.CPP
D:\GDAP\UNSORTED\DE TEST\DE TEST ADITYA MATTOO\DE TEST\DE TEST\DEBUG\VC120.PDB
^D:\GDAP\UNSORTED\DE TEST\DE TEST ADITYA MATTOO\DE TEST\DE TEST\DIJKSTRA.CPP
D:\GDAP\UNSORTED\DE TEST\DE TEST ADITYA MATTOO\DE TEST\DE TEST\DEBUG\VC120.PDB
^D:\GDAP\UNSORTED\DE TEST\DE TEST ADITYA MATTOO\DE TEST\DE TEST\HEALTH.CPP
D:\GDAP\UNSORTED\DE TEST\DE TEST ADITYA MATTOO\DE TEST\DE TEST\DEBUG\VC120.PDB
^D:\GDAP\UNSORTED\DE TEST\DE TEST ADITYA MATTOO\DE TEST\DE TEST\MAIN.CPP
D:\GDAP\UNSORTED\DE TEST\DE TEST ADITYA MATTOO\DE TEST\DE TEST\DEBUG\VC120.PDB
D:\GDAP\UNSORTED\DE TEST\DE TEST ADITYA MATTOO\DE TEST\DE TEST\DEBUG\VC120.IDB
D:\GDAP\UNSORTED\DE TEST\DE TEST ADITYA MATTOO\DE TEST\DE TEST\DEBUG\MAIN.OBJ
^D:\GDAP\UNSORTED\DE TEST\DE TEST ADITYA MATTOO\DE TEST\DE TEST\MEDIATOR.CPP
D:\GDAP\UNSORTED\DE TEST\DE TEST ADITYA MATTOO\DE TEST\DE TEST\DEBUG\VC120.PDB
^D:\GDAP\UNSORTED\DE TEST\DE TEST ADITYA MATTOO\DE TEST\DE TEST\PATHNODE.CPP
D:\GDAP\UNSORTED\DE TEST\DE TEST ADITYA MATTOO\DE TEST\DE TEST\DEBUG\VC120.PDB
^D:\GDAP\UNSORTED\DE TEST\DE TEST ADITYA MATTOO\DE TEST\DE TEST\POWERUP.CPP
D:\GDAP\UNSORTED\DE TEST\DE TEST ADITYA MATTOO\DE TEST\DE TEST\DEBUG\VC120.PDB
^D:\GDAP\UNSORTED\DE TEST\DE TEST ADITYA MATTOO\DE TEST\DE TEST\WEAPON.CPP
D:\GDAP\UNSORTED\DE TEST\DE TEST ADITYA MATTOO\DE TEST\DE TEST\DEBUG\VC120.PDB
^D:\GDAP\UNSORTED\DE TEST\DE TEST ADITYA MATTOO\DE TEST\DE TEST\DIJKSTRA.CPP|D:\GDAP\UNSORTED\DE TEST\DE TEST ADITYA MATTOO\DE TEST\DE TEST\MAIN.CPP|D:\GDAP\UNSORTED\DE TEST\DE TEST ADITYA MATTOO\DE TEST\DE TEST\MEDIATOR.CPP|D:\GDAP\UNSORTED\DE TEST\DE TEST ADITYA MATTOO\DE TEST\DE TEST\PATHNODE.CPP
D:\GDAP\UNSORTED\DE TEST\DE TEST ADITYA MATTOO\DE TEST\DE TEST\DEBUG\VC120.PDB
D:\GDAP\UNSORTED\DE TEST\DE TEST ADITYA MATTOO\DE TEST\DE TEST\DEBUG\VC120.IDB
D:\GDAP\UNSORTED\DE TEST\DE TEST ADITYA MATTOO\DE TEST\DE TEST\DEBUG\MEDIATOR.OBJ
