^D:\GDAP\UNSORTED\DE TEST\DE TEST ADITYA MATTOO\DE TEST\DE TEST\DEBUG\ARMOR.OBJ|D:\GDAP\UNSORTED\DE TEST\DE TEST ADITYA MATTOO\DE TEST\DE TEST\DEBUG\DIJKSTRA.OBJ|D:\GDAP\UNSORTED\DE TEST\DE TEST ADITYA MATTOO\DE TEST\DE TEST\DEBUG\HEALTH.OBJ|D:\GDAP\UNSORTED\DE TEST\DE TEST ADITYA MATTOO\DE TEST\DE TEST\DEBUG\MAIN.OBJ|D:\GDAP\UNSORTED\DE TEST\DE TEST ADITYA MATTOO\DE TEST\DE TEST\DEBUG\MEDIATOR.OBJ|D:\GDAP\UNSORTED\DE TEST\DE TEST ADITYA MATTOO\DE TEST\DE TEST\DEBUG\PATHNODE.OBJ|D:\GDAP\UNSORTED\DE TEST\DE TEST ADITYA MATTOO\DE TEST\DE TEST\DEBUG\POWERUP.OBJ|D:\GDAP\UNSORTED\DE TEST\DE TEST ADITYA MATTOO\DE TEST\DE TEST\DEBUG\WEAPON.OBJ
C:\PROGRAM FILES (X86)\WINDOWS KITS\8.1\LIB\WINV6.3\UM\X86\KERNEL32.LIB
C:\PROGRAM FILES (X86)\WINDOWS KITS\8.1\LIB\WINV6.3\UM\X86\USER32.LIB
C:\PROGRAM FILES (X86)\WINDOWS KITS\8.1\LIB\WINV6.3\UM\X86\GDI32.LIB
C:\PROGRAM FILES (X86)\WINDOWS KITS\8.1\LIB\WINV6.3\UM\X86\WINSPOOL.LIB
C:\PROGRAM FILES (X86)\WINDOWS KITS\8.1\LIB\WINV6.3\UM\X86\COMDLG32.LIB
C:\PROGRAM FILES (X86)\WINDOWS KITS\8.1\LIB\WINV6.3\UM\X86\ADVAPI32.LIB
C:\PROGRAM FILES (X86)\WINDOWS KITS\8.1\LIB\WINV6.3\UM\X86\SHELL32.LIB
C:\PROGRAM FILES (X86)\WINDOWS KITS\8.1\LIB\WINV6.3\UM\X86\OLE32.LIB
C:\PROGRAM FILES (X86)\WINDOWS KITS\8.1\LIB\WINV6.3\UM\X86\OLEAUT32.LIB
C:\PROGRAM FILES (X86)\WINDOWS KITS\8.1\LIB\WINV6.3\UM\X86\UUID.LIB
C:\PROGRAM FILES (X86)\WINDOWS KITS\8.1\LIB\WINV6.3\UM\X86\ODBC32.LIB
C:\PROGRAM FILES (X86)\WINDOWS KITS\8.1\LIB\WINV6.3\UM\X86\ODBCCP32.LIB
D:\GDAP\UNSORTED\DE TEST\DE TEST ADITYA MATTOO\DE TEST\DE TEST\DEBUG\ARMOR.OBJ
D:\GDAP\UNSORTED\DE TEST\DE TEST ADITYA MATTOO\DE TEST\DE TEST\DEBUG\DIJKSTRA.OBJ
D:\GDAP\UNSORTED\DE TEST\DE TEST ADITYA MATTOO\DE TEST\DE TEST\DEBUG\HEALTH.OBJ
D:\GDAP\UNSORTED\DE TEST\DE TEST ADITYA MATTOO\DE TEST\DE TEST\DEBUG\MAIN.OBJ
D:\GDAP\UNSORTED\DE TEST\DE TEST ADITYA MATTOO\DE TEST\DE TEST\DEBUG\MEDIATOR.OBJ
D:\GDAP\UNSORTED\DE TEST\DE TEST ADITYA MATTOO\DE TEST\DE TEST\DEBUG\PATHNODE.OBJ
D:\GDAP\UNSORTED\DE TEST\DE TEST ADITYA MATTOO\DE TEST\DE TEST\DEBUG\POWERUP.OBJ
D:\GDAP\UNSORTED\DE TEST\DE TEST ADITYA MATTOO\DE TEST\DE TEST\DEBUG\WEAPON.OBJ
C:\WINDOWS\SYSTEM32\TZRES.DLL
C:\WINDOWS\GLOBALIZATION\SORTING\SORTDEFAULT.NLS
C:\PROGRAM FILES (X86)\MICROSOFT VISUAL STUDIO 12.0\VC\LIB\MSVCRTD.LIB
C:\PROGRAM FILES (X86)\MICROSOFT VISUAL STUDIO 12.0\VC\LIB\OLDNAMES.LIB
C:\PROGRAM FILES (X86)\MICROSOFT VISUAL STUDIO 12.0\VC\LIB\MSVCPRTD.LIB
