^C:\USERS\ADITYA MATTOO\DESKTOP\GAMEJAM_V3.2\GAMEENGINEBASE\BASEPHYCOMP.CPP|C:\USERS\ADITYA MATTOO\DESKTOP\GAMEJAM_V3.2\GAMEENGINEBASE\BOUNDINGBOX.CPP|C:\USERS\ADITYA MATTOO\DESKTOP\GAMEJAM_V3.2\GAMEENGINEBASE\CAMERA.CPP|C:\USERS\ADITYA MATTOO\DESKTOP\GAMEJAM_V3.2\GAMEENGINEBASE\CHRTIMER.CPP|C:\USERS\ADITYA MATTOO\DESKTOP\GAMEJAM_V3.2\GAMEENGINEBASE\COLLISIONTEST.CPP|C:\USERS\ADITYA MATTOO\DESKTOP\GAMEJAM_V3.2\GAMEENGINEBASE\DELEGATOR.CPP|C:\USERS\ADITYA MATTOO\DESKTOP\GAMEJAM_V3.2\GAMEENGINEBASE\FILEDATALOADER.CPP|C:\USERS\ADITYA MATTOO\DESKTOP\GAMEJAM_V3.2\GAMEENGINEBASE\GAMEMANAGER.CPP|C:\USERS\ADITYA MATTOO\DESKTOP\GAMEJAM_V3.2\GAMEENGINEBASE\GAMEOBJECT.CPP|C:\USERS\ADITYA MATTOO\DESKTOP\GAMEJAM_V3.2\GAMEENGINEBASE\GLFONT2.CPP|C:\USERS\ADITYA MATTOO\DESKTOP\GAMEJAM_V3.2\GAMEENGINEBASE\GLOBAL.CPP|C:\USERS\ADITYA MATTOO\DESKTOP\GAMEJAM_V3.2\GAMEENGINEBASE\HAVOKPHANTOMCOMP.CPP|C:\USERS\ADITYA MATTOO\DESKTOP\GAMEJAM_V3.2\GAMEENGINEBASE\HAVOKPHYCOMP.CPP|C:\USERS\ADITYA MATTOO\DESKTOP\GAMEJAM_V3.2\GAMEENGINEBASE\HAVOKRIGIDBODY.CPP|C:\USERS\ADITYA MATTOO\DESKTOP\GAMEJAM_V3.2\GAMEENGINEBASE\HAVOKVEHICLE.CPP|C:\USERS\ADITYA MATTOO\DESKTOP\GAMEJAM_V3.2\GAMEENGINEBASE\HUD.CPP|C:\USERS\ADITYA MATTOO\DESKTOP\GAMEJAM_V3.2\GAMEENGINEBASE\MAIN.CPP|C:\USERS\ADITYA MATTOO\DESKTOP\GAMEJAM_V3.2\GAMEENGINEBASE\MEDIATOR.CPP|C:\USERS\ADITYA MATTOO\DESKTOP\GAMEJAM_V3.2\GAMEENGINEBASE\MODELDATA.CPP|C:\USERS\ADITYA MATTOO\DESKTOP\GAMEJAM_V3.2\GAMEENGINEBASE\MOVEMENTMANAGER.CPP|C:\USERS\ADITYA MATTOO\DESKTOP\GAMEJAM_V3.2\GAMEENGINEBASE\OPENGL_CLOSEFUNC.CPP|C:\USERS\ADITYA MATTOO\DESKTOP\GAMEJAM_V3.2\GAMEENGINEBASE\OPENGL_DISPLAYFUNC.CPP|C:\USERS\ADITYA MATTOO\DESKTOP\GAMEJAM_V3.2\GAMEENGINEBASE\OPENGL_ERRORCNTRL.CPP|C:\USERS\ADITYA MATTOO\DESKTOP\GAMEJAM_V3.2\GAMEENGINEBASE\OPENGL_IDLEFUNC.CPP|C:\USERS\ADITYA MATTOO\DESKTOP\GAMEJAM_V3.2\GAMEENGINEBASE\OPENGL_INIT.CPP|C:\USERS\ADITYA MATTOO\DESKTOP\GAMEJAM_V3.2\GAMEENGINEBASE\OPENGL_KEYBOARDSPLFUNC.CPP|C:\USERS\ADITYA MATTOO\DESKTOP\GAMEJAM_V3.2\GAMEENGINEBASE\OPENGL_RESIZE.CPP|C:\USERS\ADITYA MATTOO\DESKTOP\GAMEJAM_V3.2\GAMEENGINEBASE\PARTICLEGEN.CPP|C:\USERS\ADITYA MATTOO\DESKTOP\GAMEJAM_V3.2\GAMEENGINEBASE\PHYSICS.CPP|C:\USERS\ADITYA MATTOO\DESKTOP\GAMEJAM_V3.2\GAMEENGINEBASE\SHADERCLASS.CPP|C:\USERS\ADITYA MATTOO\DESKTOP\GAMEJAM_V3.2\GAMEENGINEBASE\SHADERUNIFORMVARIABLES.CPP|C:\USERS\ADITYA MATTOO\DESKTOP\GAMEJAM_V3.2\GAMEENGINEBASE\SOFTBODYCOMP.CPP|C:\USERS\ADITYA MATTOO\DESKTOP\GAMEJAM_V3.2\GAMEENGINEBASE\SPHERE.CPP|C:\USERS\ADITYA MATTOO\DESKTOP\GAMEJAM_V3.2\GAMEENGINEBASE\SPRING.CPP|C:\USERS\ADITYA MATTOO\DESKTOP\GAMEJAM_V3.2\GAMEENGINEBASE\TEXTUREDATA.CPP|C:\USERS\ADITYA MATTOO\DESKTOP\GAMEJAM_V3.2\GAMEENGINEBASE\VECTOR3D.CPP|C:\USERS\ADITYA MATTOO\DESKTOP\GAMEJAM_V3.2\GAMEENGINEBASE\XMLPARSER.CPP
C:\USERS\ADITYA MATTOO\DESKTOP\GAMEJAM_V3.2\GAMEENGINEBASE\RELEASE\MOVEMENTMANAGER.OBJ
C:\USERS\ADITYA MATTOO\DESKTOP\GAMEJAM_V3.2\GAMEENGINEBASE\RELEASE\GLFONT2.OBJ
C:\USERS\ADITYA MATTOO\DESKTOP\GAMEJAM_V3.2\GAMEENGINEBASE\RELEASE\GAMEMANAGER.OBJ
C:\USERS\ADITYA MATTOO\DESKTOP\GAMEJAM_V3.2\GAMEENGINEBASE\RELEASE\COLLISIONTEST.OBJ
C:\USERS\ADITYA MATTOO\DESKTOP\GAMEJAM_V3.2\GAMEENGINEBASE\RELEASE\CHRTIMER.OBJ
C:\USERS\ADITYA MATTOO\DESKTOP\GAMEJAM_V3.2\GAMEENGINEBASE\RELEASE\CAMERA.OBJ
C:\USERS\ADITYA MATTOO\DESKTOP\GAMEJAM_V3.2\GAMEENGINEBASE\RELEASE\BOUNDINGBOX.OBJ
C:\USERS\ADITYA MATTOO\DESKTOP\GAMEJAM_V3.2\GAMEENGINEBASE\RELEASE\BASEPHYCOMP.OBJ
C:\USERS\ADITYA MATTOO\DESKTOP\GAMEJAM_V3.2\GAMEENGINEBASE\RELEASE\XMLPARSER.OBJ
C:\USERS\ADITYA MATTOO\DESKTOP\GAMEJAM_V3.2\GAMEENGINEBASE\RELEASE\VECTOR3D.OBJ
C:\USERS\ADITYA MATTOO\DESKTOP\GAMEJAM_V3.2\GAMEENGINEBASE\RELEASE\TEXTUREDATA.OBJ
C:\USERS\ADITYA MATTOO\DESKTOP\GAMEJAM_V3.2\GAMEENGINEBASE\RELEASE\SPRING.OBJ
C:\USERS\ADITYA MATTOO\DESKTOP\GAMEJAM_V3.2\GAMEENGINEBASE\RELEASE\SOFTBODYCOMP.OBJ
C:\USERS\ADITYA MATTOO\DESKTOP\GAMEJAM_V3.2\GAMEENGINEBASE\RELEASE\PHYSICS.OBJ
C:\USERS\ADITYA MATTOO\DESKTOP\GAMEJAM_V3.2\GAMEENGINEBASE\RELEASE\PARTICLEGEN.OBJ
^C:\USERS\ADITYA MATTOO\DESKTOP\GAMEJAM_V3.2\GAMEENGINEBASE\AUDIOMANAGER.CPP|C:\USERS\ADITYA MATTOO\DESKTOP\GAMEJAM_V3.2\GAMEENGINEBASE\DELEGATOR.CPP|C:\USERS\ADITYA MATTOO\DESKTOP\GAMEJAM_V3.2\GAMEENGINEBASE\FILEDATALOADER.CPP|C:\USERS\ADITYA MATTOO\DESKTOP\GAMEJAM_V3.2\GAMEENGINEBASE\GAMEMANAGER.CPP|C:\USERS\ADITYA MATTOO\DESKTOP\GAMEJAM_V3.2\GAMEENGINEBASE\GAMEOBJECT.CPP|C:\USERS\ADITYA MATTOO\DESKTOP\GAMEJAM_V3.2\GAMEENGINEBASE\GLOBAL.CPP|C:\USERS\ADITYA MATTOO\DESKTOP\GAMEJAM_V3.2\GAMEENGINEBASE\HAVOKPHANTOMCOMP.CPP|C:\USERS\ADITYA MATTOO\DESKTOP\GAMEJAM_V3.2\GAMEENGINEBASE\HAVOKPHYCOMP.CPP|C:\USERS\ADITYA MATTOO\DESKTOP\GAMEJAM_V3.2\GAMEENGINEBASE\HAVOKRIGIDBODY.CPP|C:\USERS\ADITYA MATTOO\DESKTOP\GAMEJAM_V3.2\GAMEENGINEBASE\HAVOKVEHICLE.CPP|C:\USERS\ADITYA MATTOO\DESKTOP\GAMEJAM_V3.2\GAMEENGINEBASE\HUD.CPP|C:\USERS\ADITYA MATTOO\DESKTOP\GAMEJAM_V3.2\GAMEENGINEBASE\MAIN.CPP|C:\USERS\ADITYA MATTOO\DESKTOP\GAMEJAM_V3.2\GAMEENGINEBASE\MEDIATOR.CPP|C:\USERS\ADITYA MATTOO\DESKTOP\GAMEJAM_V3.2\GAMEENGINEBASE\MODELDATA.CPP|C:\USERS\ADITYA MATTOO\DESKTOP\GAMEJAM_V3.2\GAMEENGINEBASE\OPENGL_CLOSEFUNC.CPP|C:\USERS\ADITYA MATTOO\DESKTOP\GAMEJAM_V3.2\GAMEENGINEBASE\OPENGL_DISPLAYFUNC.CPP|C:\USERS\ADITYA MATTOO\DESKTOP\GAMEJAM_V3.2\GAMEENGINEBASE\OPENGL_ERRORCNTRL.CPP|C:\USERS\ADITYA MATTOO\DESKTOP\GAMEJAM_V3.2\GAMEENGINEBASE\OPENGL_IDLEFUNC.CPP|C:\USERS\ADITYA MATTOO\DESKTOP\GAMEJAM_V3.2\GAMEENGINEBASE\OPENGL_INIT.CPP|C:\USERS\ADITYA MATTOO\DESKTOP\GAMEJAM_V3.2\GAMEENGINEBASE\OPENGL_KEYBOARDSPLFUNC.CPP|C:\USERS\ADITYA MATTOO\DESKTOP\GAMEJAM_V3.2\GAMEENGINEBASE\OPENGL_RESIZE.CPP|C:\USERS\ADITYA MATTOO\DESKTOP\GAMEJAM_V3.2\GAMEENGINEBASE\SHADERCLASS.CPP|C:\USERS\ADITYA MATTOO\DESKTOP\GAMEJAM_V3.2\GAMEENGINEBASE\SHADERUNIFORMVARIABLES.CPP|C:\USERS\ADITYA MATTOO\DESKTOP\GAMEJAM_V3.2\GAMEENGINEBASE\SPHERE.CPP
C:\USERS\ADITYA MATTOO\DESKTOP\GAMEJAM_V3.2\GAMEENGINEBASE\RELEASE\GAMEMANAGER.OBJ
^C:\USERS\ADITYA MATTOO\DESKTOP\GAMEJAM_V3.2\GAMEENGINEBASE\AUDIOMANAGER.CPP|C:\USERS\ADITYA MATTOO\DESKTOP\GAMEJAM_V3.2\GAMEENGINEBASE\DELEGATOR.CPP|C:\USERS\ADITYA MATTOO\DESKTOP\GAMEJAM_V3.2\GAMEENGINEBASE\FILEDATALOADER.CPP|C:\USERS\ADITYA MATTOO\DESKTOP\GAMEJAM_V3.2\GAMEENGINEBASE\GAMEOBJECT.CPP|C:\USERS\ADITYA MATTOO\DESKTOP\GAMEJAM_V3.2\GAMEENGINEBASE\GLOBAL.CPP|C:\USERS\ADITYA MATTOO\DESKTOP\GAMEJAM_V3.2\GAMEENGINEBASE\HAVOKPHANTOMCOMP.CPP|C:\USERS\ADITYA MATTOO\DESKTOP\GAMEJAM_V3.2\GAMEENGINEBASE\HAVOKPHYCOMP.CPP|C:\USERS\ADITYA MATTOO\DESKTOP\GAMEJAM_V3.2\GAMEENGINEBASE\HAVOKRIGIDBODY.CPP|C:\USERS\ADITYA MATTOO\DESKTOP\GAMEJAM_V3.2\GAMEENGINEBASE\HAVOKVEHICLE.CPP|C:\USERS\ADITYA MATTOO\DESKTOP\GAMEJAM_V3.2\GAMEENGINEBASE\HUD.CPP|C:\USERS\ADITYA MATTOO\DESKTOP\GAMEJAM_V3.2\GAMEENGINEBASE\MAIN.CPP|C:\USERS\ADITYA MATTOO\DESKTOP\GAMEJAM_V3.2\GAMEENGINEBASE\MEDIATOR.CPP|C:\USERS\ADITYA MATTOO\DESKTOP\GAMEJAM_V3.2\GAMEENGINEBASE\MODELDATA.CPP|C:\USERS\ADITYA MATTOO\DESKTOP\GAMEJAM_V3.2\GAMEENGINEBASE\OPENGL_CLOSEFUNC.CPP|C:\USERS\ADITYA MATTOO\DESKTOP\GAMEJAM_V3.2\GAMEENGINEBASE\OPENGL_DISPLAYFUNC.CPP|C:\USERS\ADITYA MATTOO\DESKTOP\GAMEJAM_V3.2\GAMEENGINEBASE\OPENGL_ERRORCNTRL.CPP|C:\USERS\ADITYA MATTOO\DESKTOP\GAMEJAM_V3.2\GAMEENGINEBASE\OPENGL_IDLEFUNC.CPP|C:\USERS\ADITYA MATTOO\DESKTOP\GAMEJAM_V3.2\GAMEENGINEBASE\OPENGL_INIT.CPP|C:\USERS\ADITYA MATTOO\DESKTOP\GAMEJAM_V3.2\GAMEENGINEBASE\OPENGL_KEYBOARDSPLFUNC.CPP|C:\USERS\ADITYA MATTOO\DESKTOP\GAMEJAM_V3.2\GAMEENGINEBASE\OPENGL_RESIZE.CPP|C:\USERS\ADITYA MATTOO\DESKTOP\GAMEJAM_V3.2\GAMEENGINEBASE\SHADERCLASS.CPP|C:\USERS\ADITYA MATTOO\DESKTOP\GAMEJAM_V3.2\GAMEENGINEBASE\SHADERUNIFORMVARIABLES.CPP|C:\USERS\ADITYA MATTOO\DESKTOP\GAMEJAM_V3.2\GAMEENGINEBASE\SPHERE.CPP
C:\USERS\ADITYA MATTOO\DESKTOP\GAMEJAM_V3.2\GAMEENGINEBASE\RELEASE\OPENGL_RESIZE.OBJ
C:\USERS\ADITYA MATTOO\DESKTOP\GAMEJAM_V3.2\GAMEENGINEBASE\RELEASE\OPENGL_KEYBOARDSPLFUNC.OBJ
C:\USERS\ADITYA MATTOO\DESKTOP\GAMEJAM_V3.2\GAMEENGINEBASE\RELEASE\OPENGL_INIT.OBJ
C:\USERS\ADITYA MATTOO\DESKTOP\GAMEJAM_V3.2\GAMEENGINEBASE\RELEASE\OPENGL_IDLEFUNC.OBJ
C:\USERS\ADITYA MATTOO\DESKTOP\GAMEJAM_V3.2\GAMEENGINEBASE\RELEASE\OPENGL_ERRORCNTRL.OBJ
C:\USERS\ADITYA MATTOO\DESKTOP\GAMEJAM_V3.2\GAMEENGINEBASE\RELEASE\OPENGL_DISPLAYFUNC.OBJ
C:\USERS\ADITYA MATTOO\DESKTOP\GAMEJAM_V3.2\GAMEENGINEBASE\RELEASE\OPENGL_CLOSEFUNC.OBJ
C:\USERS\ADITYA MATTOO\DESKTOP\GAMEJAM_V3.2\GAMEENGINEBASE\RELEASE\MODELDATA.OBJ
C:\USERS\ADITYA MATTOO\DESKTOP\GAMEJAM_V3.2\GAMEENGINEBASE\RELEASE\MEDIATOR.OBJ
C:\USERS\ADITYA MATTOO\DESKTOP\GAMEJAM_V3.2\GAMEENGINEBASE\RELEASE\MAIN.OBJ
C:\USERS\ADITYA MATTOO\DESKTOP\GAMEJAM_V3.2\GAMEENGINEBASE\RELEASE\HUD.OBJ
C:\USERS\ADITYA MATTOO\DESKTOP\GAMEJAM_V3.2\GAMEENGINEBASE\RELEASE\HAVOKRIGIDBODY.OBJ
C:\USERS\ADITYA MATTOO\DESKTOP\GAMEJAM_V3.2\GAMEENGINEBASE\RELEASE\HAVOKPHYCOMP.OBJ
C:\USERS\ADITYA MATTOO\DESKTOP\GAMEJAM_V3.2\GAMEENGINEBASE\RELEASE\HAVOKPHANTOMCOMP.OBJ
C:\USERS\ADITYA MATTOO\DESKTOP\GAMEJAM_V3.2\GAMEENGINEBASE\RELEASE\GLOBAL.OBJ
C:\USERS\ADITYA MATTOO\DESKTOP\GAMEJAM_V3.2\GAMEENGINEBASE\RELEASE\GAMEOBJECT.OBJ
C:\USERS\ADITYA MATTOO\DESKTOP\GAMEJAM_V3.2\GAMEENGINEBASE\RELEASE\FILEDATALOADER.OBJ
C:\USERS\ADITYA MATTOO\DESKTOP\GAMEJAM_V3.2\GAMEENGINEBASE\RELEASE\DELEGATOR.OBJ
C:\USERS\ADITYA MATTOO\DESKTOP\GAMEJAM_V3.2\GAMEENGINEBASE\RELEASE\AUDIOMANAGER.OBJ
C:\USERS\ADITYA MATTOO\DESKTOP\GAMEJAM_V3.2\GAMEENGINEBASE\RELEASE\HAVOKVEHICLE.OBJ
C:\USERS\ADITYA MATTOO\DESKTOP\GAMEJAM_V3.2\GAMEENGINEBASE\RELEASE\SPHERE.OBJ
C:\USERS\ADITYA MATTOO\DESKTOP\GAMEJAM_V3.2\GAMEENGINEBASE\RELEASE\SHADERUNIFORMVARIABLES.OBJ
C:\USERS\ADITYA MATTOO\DESKTOP\GAMEJAM_V3.2\GAMEENGINEBASE\RELEASE\SHADERCLASS.OBJ
^C:\USERS\ADITYA MATTOO\DESKTOP\GAMEJAM_V3.2\GAMEENGINEBASE\AUDIOMANAGER.CPP|C:\USERS\ADITYA MATTOO\DESKTOP\GAMEJAM_V3.2\GAMEENGINEBASE\BASEPHYCOMP.CPP|C:\USERS\ADITYA MATTOO\DESKTOP\GAMEJAM_V3.2\GAMEENGINEBASE\BOUNDINGBOX.CPP|C:\USERS\ADITYA MATTOO\DESKTOP\GAMEJAM_V3.2\GAMEENGINEBASE\CAMERA.CPP|C:\USERS\ADITYA MATTOO\DESKTOP\GAMEJAM_V3.2\GAMEENGINEBASE\CHRTIMER.CPP|C:\USERS\ADITYA MATTOO\DESKTOP\GAMEJAM_V3.2\GAMEENGINEBASE\COLLISIONTEST.CPP|C:\USERS\ADITYA MATTOO\DESKTOP\GAMEJAM_V3.2\GAMEENGINEBASE\DELEGATOR.CPP|C:\USERS\ADITYA MATTOO\DESKTOP\GAMEJAM_V3.2\GAMEENGINEBASE\FILEDATALOADER.CPP|C:\USERS\ADITYA MATTOO\DESKTOP\GAMEJAM_V3.2\GAMEENGINEBASE\GAMEMANAGER.CPP|C:\USERS\ADITYA MATTOO\DESKTOP\GAMEJAM_V3.2\GAMEENGINEBASE\GAMEOBJECT.CPP|C:\USERS\ADITYA MATTOO\DESKTOP\GAMEJAM_V3.2\GAMEENGINEBASE\GLFONT2.CPP|C:\USERS\ADITYA MATTOO\DESKTOP\GAMEJAM_V3.2\GAMEENGINEBASE\GLOBAL.CPP|C:\USERS\ADITYA MATTOO\DESKTOP\GAMEJAM_V3.2\GAMEENGINEBASE\HAVOKPHANTOMCOMP.CPP|C:\USERS\ADITYA MATTOO\DESKTOP\GAMEJAM_V3.2\GAMEENGINEBASE\HAVOKPHYCOMP.CPP|C:\USERS\ADITYA MATTOO\DESKTOP\GAMEJAM_V3.2\GAMEENGINEBASE\HAVOKRIGIDBODY.CPP|C:\USERS\ADITYA MATTOO\DESKTOP\GAMEJAM_V3.2\GAMEENGINEBASE\HAVOKVEHICLE.CPP|C:\USERS\ADITYA MATTOO\DESKTOP\GAMEJAM_V3.2\GAMEENGINEBASE\HUD.CPP|C:\USERS\ADITYA MATTOO\DESKTOP\GAMEJAM_V3.2\GAMEENGINEBASE\MAIN.CPP|C:\USERS\ADITYA MATTOO\DESKTOP\GAMEJAM_V3.2\GAMEENGINEBASE\MEDIATOR.CPP|C:\USERS\ADITYA MATTOO\DESKTOP\GAMEJAM_V3.2\GAMEENGINEBASE\MODELDATA.CPP|C:\USERS\ADITYA MATTOO\DESKTOP\GAMEJAM_V3.2\GAMEENGINEBASE\MOVEMENTMANAGER.CPP|C:\USERS\ADITYA MATTOO\DESKTOP\GAMEJAM_V3.2\GAMEENGINEBASE\OPENGL_CLOSEFUNC.CPP|C:\USERS\ADITYA MATTOO\DESKTOP\GAMEJAM_V3.2\GAMEENGINEBASE\OPENGL_DISPLAYFUNC.CPP|C:\USERS\ADITYA MATTOO\DESKTOP\GAMEJAM_V3.2\GAMEENGINEBASE\OPENGL_ERRORCNTRL.CPP|C:\USERS\ADITYA MATTOO\DESKTOP\GAMEJAM_V3.2\GAMEENGINEBASE\OPENGL_IDLEFUNC.CPP|C:\USERS\ADITYA MATTOO\DESKTOP\GAMEJAM_V3.2\GAMEENGINEBASE\OPENGL_INIT.CPP|C:\USERS\ADITYA MATTOO\DESKTOP\GAMEJAM_V3.2\GAMEENGINEBASE\OPENGL_KEYBOARDSPLFUNC.CPP|C:\USERS\ADITYA MATTOO\DESKTOP\GAMEJAM_V3.2\GAMEENGINEBASE\OPENGL_RESIZE.CPP|C:\USERS\ADITYA MATTOO\DESKTOP\GAMEJAM_V3.2\GAMEENGINEBASE\PARTICLEGEN.CPP|C:\USERS\ADITYA MATTOO\DESKTOP\GAMEJAM_V3.2\GAMEENGINEBASE\PHYSICS.CPP|C:\USERS\ADITYA MATTOO\DESKTOP\GAMEJAM_V3.2\GAMEENGINEBASE\SHADERCLASS.CPP|C:\USERS\ADITYA MATTOO\DESKTOP\GAMEJAM_V3.2\GAMEENGINEBASE\SHADERUNIFORMVARIABLES.CPP|C:\USERS\ADITYA MATTOO\DESKTOP\GAMEJAM_V3.2\GAMEENGINEBASE\SOFTBODYCOMP.CPP|C:\USERS\ADITYA MATTOO\DESKTOP\GAMEJAM_V3.2\GAMEENGINEBASE\SPHERE.CPP|C:\USERS\ADITYA MATTOO\DESKTOP\GAMEJAM_V3.2\GAMEENGINEBASE\SPRING.CPP|C:\USERS\ADITYA MATTOO\DESKTOP\GAMEJAM_V3.2\GAMEENGINEBASE\TEXTUREDATA.CPP|C:\USERS\ADITYA MATTOO\DESKTOP\GAMEJAM_V3.2\GAMEENGINEBASE\VECTOR3D.CPP|C:\USERS\ADITYA MATTOO\DESKTOP\GAMEJAM_V3.2\GAMEENGINEBASE\XMLPARSER.CPP
C:\USERS\ADITYA MATTOO\DESKTOP\GAMEJAM_V3.2\GAMEENGINEBASE\RELEASE\MODELDATA.OBJ
C:\USERS\ADITYA MATTOO\DESKTOP\GAMEJAM_V3.2\GAMEENGINEBASE\RELEASE\MAIN.OBJ
C:\USERS\ADITYA MATTOO\DESKTOP\GAMEJAM_V3.2\GAMEENGINEBASE\RELEASE\GLOBAL.OBJ
C:\USERS\ADITYA MATTOO\DESKTOP\GAMEJAM_V3.2\GAMEENGINEBASE\RELEASE\MEDIATOR.OBJ
C:\USERS\ADITYA MATTOO\DESKTOP\GAMEJAM_V3.2\GAMEENGINEBASE\RELEASE\HUD.OBJ
C:\USERS\ADITYA MATTOO\DESKTOP\GAMEJAM_V3.2\GAMEENGINEBASE\RELEASE\HAVOKVEHICLE.OBJ
C:\USERS\ADITYA MATTOO\DESKTOP\GAMEJAM_V3.2\GAMEENGINEBASE\RELEASE\HAVOKRIGIDBODY.OBJ
C:\USERS\ADITYA MATTOO\DESKTOP\GAMEJAM_V3.2\GAMEENGINEBASE\RELEASE\HAVOKPHYCOMP.OBJ
C:\USERS\ADITYA MATTOO\DESKTOP\GAMEJAM_V3.2\GAMEENGINEBASE\RELEASE\HAVOKPHANTOMCOMP.OBJ
C:\USERS\ADITYA MATTOO\DESKTOP\GAMEJAM_V3.2\GAMEENGINEBASE\RELEASE\GLFONT2.OBJ
C:\USERS\ADITYA MATTOO\DESKTOP\GAMEJAM_V3.2\GAMEENGINEBASE\RELEASE\GAMEOBJECT.OBJ
C:\USERS\ADITYA MATTOO\DESKTOP\GAMEJAM_V3.2\GAMEENGINEBASE\RELEASE\GAMEMANAGER.OBJ
C:\USERS\ADITYA MATTOO\DESKTOP\GAMEJAM_V3.2\GAMEENGINEBASE\RELEASE\FILEDATALOADER.OBJ
C:\USERS\ADITYA MATTOO\DESKTOP\GAMEJAM_V3.2\GAMEENGINEBASE\RELEASE\DELEGATOR.OBJ
C:\USERS\ADITYA MATTOO\DESKTOP\GAMEJAM_V3.2\GAMEENGINEBASE\RELEASE\COLLISIONTEST.OBJ
C:\USERS\ADITYA MATTOO\DESKTOP\GAMEJAM_V3.2\GAMEENGINEBASE\RELEASE\CHRTIMER.OBJ
C:\USERS\ADITYA MATTOO\DESKTOP\GAMEJAM_V3.2\GAMEENGINEBASE\RELEASE\CAMERA.OBJ
C:\USERS\ADITYA MATTOO\DESKTOP\GAMEJAM_V3.2\GAMEENGINEBASE\RELEASE\BOUNDINGBOX.OBJ
C:\USERS\ADITYA MATTOO\DESKTOP\GAMEJAM_V3.2\GAMEENGINEBASE\RELEASE\BASEPHYCOMP.OBJ
C:\USERS\ADITYA MATTOO\DESKTOP\GAMEJAM_V3.2\GAMEENGINEBASE\RELEASE\AUDIOMANAGER.OBJ
C:\USERS\ADITYA MATTOO\DESKTOP\GAMEJAM_V3.2\GAMEENGINEBASE\RELEASE\XMLPARSER.OBJ
C:\USERS\ADITYA MATTOO\DESKTOP\GAMEJAM_V3.2\GAMEENGINEBASE\RELEASE\VECTOR3D.OBJ
C:\USERS\ADITYA MATTOO\DESKTOP\GAMEJAM_V3.2\GAMEENGINEBASE\RELEASE\TEXTUREDATA.OBJ
C:\USERS\ADITYA MATTOO\DESKTOP\GAMEJAM_V3.2\GAMEENGINEBASE\RELEASE\SPRING.OBJ
C:\USERS\ADITYA MATTOO\DESKTOP\GAMEJAM_V3.2\GAMEENGINEBASE\RELEASE\SPHERE.OBJ
C:\USERS\ADITYA MATTOO\DESKTOP\GAMEJAM_V3.2\GAMEENGINEBASE\RELEASE\SOFTBODYCOMP.OBJ
C:\USERS\ADITYA MATTOO\DESKTOP\GAMEJAM_V3.2\GAMEENGINEBASE\RELEASE\SHADERUNIFORMVARIABLES.OBJ
C:\USERS\ADITYA MATTOO\DESKTOP\GAMEJAM_V3.2\GAMEENGINEBASE\RELEASE\SHADERCLASS.OBJ
C:\USERS\ADITYA MATTOO\DESKTOP\GAMEJAM_V3.2\GAMEENGINEBASE\RELEASE\PHYSICS.OBJ
C:\USERS\ADITYA MATTOO\DESKTOP\GAMEJAM_V3.2\GAMEENGINEBASE\RELEASE\PARTICLEGEN.OBJ
C:\USERS\ADITYA MATTOO\DESKTOP\GAMEJAM_V3.2\GAMEENGINEBASE\RELEASE\OPENGL_RESIZE.OBJ
C:\USERS\ADITYA MATTOO\DESKTOP\GAMEJAM_V3.2\GAMEENGINEBASE\RELEASE\OPENGL_KEYBOARDSPLFUNC.OBJ
C:\USERS\ADITYA MATTOO\DESKTOP\GAMEJAM_V3.2\GAMEENGINEBASE\RELEASE\OPENGL_INIT.OBJ
C:\USERS\ADITYA MATTOO\DESKTOP\GAMEJAM_V3.2\GAMEENGINEBASE\RELEASE\OPENGL_IDLEFUNC.OBJ
C:\USERS\ADITYA MATTOO\DESKTOP\GAMEJAM_V3.2\GAMEENGINEBASE\RELEASE\OPENGL_ERRORCNTRL.OBJ
C:\USERS\ADITYA MATTOO\DESKTOP\GAMEJAM_V3.2\GAMEENGINEBASE\RELEASE\OPENGL_DISPLAYFUNC.OBJ
C:\USERS\ADITYA MATTOO\DESKTOP\GAMEJAM_V3.2\GAMEENGINEBASE\RELEASE\OPENGL_CLOSEFUNC.OBJ
C:\USERS\ADITYA MATTOO\DESKTOP\GAMEJAM_V3.2\GAMEENGINEBASE\RELEASE\MOVEMENTMANAGER.OBJ
^C:\USERS\ADITYA MATTOO\DESKTOP\GAMEJAM_V3.2\GAMEENGINEBASE\AUDIOMANAGER.CPP
C:\USERS\ADITYA MATTOO\DESKTOP\GAMEJAM_V3.2\GAMEENGINEBASE\RELEASE\VC110.PDB
^C:\USERS\ADITYA MATTOO\DESKTOP\GAMEJAM_V3.2\GAMEENGINEBASE\BASEPHYCOMP.CPP
C:\USERS\ADITYA MATTOO\DESKTOP\GAMEJAM_V3.2\GAMEENGINEBASE\RELEASE\VC110.PDB
^C:\USERS\ADITYA MATTOO\DESKTOP\GAMEJAM_V3.2\GAMEENGINEBASE\BOUNDINGBOX.CPP
C:\USERS\ADITYA MATTOO\DESKTOP\GAMEJAM_V3.2\GAMEENGINEBASE\RELEASE\VC110.PDB
^C:\USERS\ADITYA MATTOO\DESKTOP\GAMEJAM_V3.2\GAMEENGINEBASE\CAMERA.CPP
C:\USERS\ADITYA MATTOO\DESKTOP\GAMEJAM_V3.2\GAMEENGINEBASE\RELEASE\VC110.PDB
^C:\USERS\ADITYA MATTOO\DESKTOP\GAMEJAM_V3.2\GAMEENGINEBASE\CHRTIMER.CPP
C:\USERS\ADITYA MATTOO\DESKTOP\GAMEJAM_V3.2\GAMEENGINEBASE\RELEASE\VC110.PDB
^C:\USERS\ADITYA MATTOO\DESKTOP\GAMEJAM_V3.2\GAMEENGINEBASE\COLLISIONTEST.CPP
C:\USERS\ADITYA MATTOO\DESKTOP\GAMEJAM_V3.2\GAMEENGINEBASE\RELEASE\VC110.PDB
^C:\USERS\ADITYA MATTOO\DESKTOP\GAMEJAM_V3.2\GAMEENGINEBASE\DELEGATOR.CPP
C:\USERS\ADITYA MATTOO\DESKTOP\GAMEJAM_V3.2\GAMEENGINEBASE\RELEASE\VC110.PDB
^C:\USERS\ADITYA MATTOO\DESKTOP\GAMEJAM_V3.2\GAMEENGINEBASE\FILEDATALOADER.CPP
C:\USERS\ADITYA MATTOO\DESKTOP\GAMEJAM_V3.2\GAMEENGINEBASE\RELEASE\VC110.PDB
^C:\USERS\ADITYA MATTOO\DESKTOP\GAMEJAM_V3.2\GAMEENGINEBASE\GAMEMANAGER.CPP
C:\USERS\ADITYA MATTOO\DESKTOP\GAMEJAM_V3.2\GAMEENGINEBASE\RELEASE\VC110.PDB
^C:\USERS\ADITYA MATTOO\DESKTOP\GAMEJAM_V3.2\GAMEENGINEBASE\GAMEOBJECT.CPP
C:\USERS\ADITYA MATTOO\DESKTOP\GAMEJAM_V3.2\GAMEENGINEBASE\RELEASE\VC110.PDB
^C:\USERS\ADITYA MATTOO\DESKTOP\GAMEJAM_V3.2\GAMEENGINEBASE\GLFONT2.CPP
C:\USERS\ADITYA MATTOO\DESKTOP\GAMEJAM_V3.2\GAMEENGINEBASE\RELEASE\VC110.PDB
^C:\USERS\ADITYA MATTOO\DESKTOP\GAMEJAM_V3.2\GAMEENGINEBASE\HAVOKPHANTOMCOMP.CPP
C:\USERS\ADITYA MATTOO\DESKTOP\GAMEJAM_V3.2\GAMEENGINEBASE\RELEASE\VC110.PDB
^C:\USERS\ADITYA MATTOO\DESKTOP\GAMEJAM_V3.2\GAMEENGINEBASE\HAVOKPHYCOMP.CPP
C:\USERS\ADITYA MATTOO\DESKTOP\GAMEJAM_V3.2\GAMEENGINEBASE\RELEASE\VC110.PDB
^C:\USERS\ADITYA MATTOO\DESKTOP\GAMEJAM_V3.2\GAMEENGINEBASE\HAVOKRIGIDBODY.CPP
C:\USERS\ADITYA MATTOO\DESKTOP\GAMEJAM_V3.2\GAMEENGINEBASE\RELEASE\VC110.PDB
^C:\USERS\ADITYA MATTOO\DESKTOP\GAMEJAM_V3.2\GAMEENGINEBASE\HAVOKVEHICLE.CPP
C:\USERS\ADITYA MATTOO\DESKTOP\GAMEJAM_V3.2\GAMEENGINEBASE\RELEASE\VC110.PDB
^C:\USERS\ADITYA MATTOO\DESKTOP\GAMEJAM_V3.2\GAMEENGINEBASE\HUD.CPP
C:\USERS\ADITYA MATTOO\DESKTOP\GAMEJAM_V3.2\GAMEENGINEBASE\RELEASE\VC110.PDB
^C:\USERS\ADITYA MATTOO\DESKTOP\GAMEJAM_V3.2\GAMEENGINEBASE\MEDIATOR.CPP
C:\USERS\ADITYA MATTOO\DESKTOP\GAMEJAM_V3.2\GAMEENGINEBASE\RELEASE\VC110.PDB
^C:\USERS\ADITYA MATTOO\DESKTOP\GAMEJAM_V3.2\GAMEENGINEBASE\GLOBAL.CPP
C:\USERS\ADITYA MATTOO\DESKTOP\GAMEJAM_V3.2\GAMEENGINEBASE\RELEASE\VC110.PDB
^C:\USERS\ADITYA MATTOO\DESKTOP\GAMEJAM_V3.2\GAMEENGINEBASE\MODELDATA.CPP
C:\USERS\ADITYA MATTOO\DESKTOP\GAMEJAM_V3.2\GAMEENGINEBASE\RELEASE\VC110.PDB
^C:\USERS\ADITYA MATTOO\DESKTOP\GAMEJAM_V3.2\GAMEENGINEBASE\MOVEMENTMANAGER.CPP
C:\USERS\ADITYA MATTOO\DESKTOP\GAMEJAM_V3.2\GAMEENGINEBASE\RELEASE\VC110.PDB
^C:\USERS\ADITYA MATTOO\DESKTOP\GAMEJAM_V3.2\GAMEENGINEBASE\OPENGL_CLOSEFUNC.CPP
C:\USERS\ADITYA MATTOO\DESKTOP\GAMEJAM_V3.2\GAMEENGINEBASE\RELEASE\VC110.PDB
^C:\USERS\ADITYA MATTOO\DESKTOP\GAMEJAM_V3.2\GAMEENGINEBASE\OPENGL_ERRORCNTRL.CPP
C:\USERS\ADITYA MATTOO\DESKTOP\GAMEJAM_V3.2\GAMEENGINEBASE\RELEASE\VC110.PDB
^C:\USERS\ADITYA MATTOO\DESKTOP\GAMEJAM_V3.2\GAMEENGINEBASE\OPENGL_IDLEFUNC.CPP
C:\USERS\ADITYA MATTOO\DESKTOP\GAMEJAM_V3.2\GAMEENGINEBASE\RELEASE\VC110.PDB
^C:\USERS\ADITYA MATTOO\DESKTOP\GAMEJAM_V3.2\GAMEENGINEBASE\OPENGL_INIT.CPP
C:\USERS\ADITYA MATTOO\DESKTOP\GAMEJAM_V3.2\GAMEENGINEBASE\RELEASE\VC110.PDB
^C:\USERS\ADITYA MATTOO\DESKTOP\GAMEJAM_V3.2\GAMEENGINEBASE\OPENGL_KEYBOARDSPLFUNC.CPP
C:\USERS\ADITYA MATTOO\DESKTOP\GAMEJAM_V3.2\GAMEENGINEBASE\RELEASE\VC110.PDB
^C:\USERS\ADITYA MATTOO\DESKTOP\GAMEJAM_V3.2\GAMEENGINEBASE\OPENGL_RESIZE.CPP
C:\USERS\ADITYA MATTOO\DESKTOP\GAMEJAM_V3.2\GAMEENGINEBASE\RELEASE\VC110.PDB
^C:\USERS\ADITYA MATTOO\DESKTOP\GAMEJAM_V3.2\GAMEENGINEBASE\PARTICLEGEN.CPP
C:\USERS\ADITYA MATTOO\DESKTOP\GAMEJAM_V3.2\GAMEENGINEBASE\RELEASE\VC110.PDB
^C:\USERS\ADITYA MATTOO\DESKTOP\GAMEJAM_V3.2\GAMEENGINEBASE\PHYSICS.CPP
C:\USERS\ADITYA MATTOO\DESKTOP\GAMEJAM_V3.2\GAMEENGINEBASE\RELEASE\VC110.PDB
^C:\USERS\ADITYA MATTOO\DESKTOP\GAMEJAM_V3.2\GAMEENGINEBASE\SHADERCLASS.CPP
C:\USERS\ADITYA MATTOO\DESKTOP\GAMEJAM_V3.2\GAMEENGINEBASE\RELEASE\VC110.PDB
^C:\USERS\ADITYA MATTOO\DESKTOP\GAMEJAM_V3.2\GAMEENGINEBASE\SHADERUNIFORMVARIABLES.CPP
C:\USERS\ADITYA MATTOO\DESKTOP\GAMEJAM_V3.2\GAMEENGINEBASE\RELEASE\VC110.PDB
^C:\USERS\ADITYA MATTOO\DESKTOP\GAMEJAM_V3.2\GAMEENGINEBASE\SOFTBODYCOMP.CPP
C:\USERS\ADITYA MATTOO\DESKTOP\GAMEJAM_V3.2\GAMEENGINEBASE\RELEASE\VC110.PDB
^C:\USERS\ADITYA MATTOO\DESKTOP\GAMEJAM_V3.2\GAMEENGINEBASE\SPHERE.CPP
C:\USERS\ADITYA MATTOO\DESKTOP\GAMEJAM_V3.2\GAMEENGINEBASE\RELEASE\VC110.PDB
^C:\USERS\ADITYA MATTOO\DESKTOP\GAMEJAM_V3.2\GAMEENGINEBASE\SPRING.CPP
C:\USERS\ADITYA MATTOO\DESKTOP\GAMEJAM_V3.2\GAMEENGINEBASE\RELEASE\VC110.PDB
^C:\USERS\ADITYA MATTOO\DESKTOP\GAMEJAM_V3.2\GAMEENGINEBASE\TEXTUREDATA.CPP
C:\USERS\ADITYA MATTOO\DESKTOP\GAMEJAM_V3.2\GAMEENGINEBASE\RELEASE\VC110.PDB
^C:\USERS\ADITYA MATTOO\DESKTOP\GAMEJAM_V3.2\GAMEENGINEBASE\VECTOR3D.CPP
C:\USERS\ADITYA MATTOO\DESKTOP\GAMEJAM_V3.2\GAMEENGINEBASE\RELEASE\VC110.PDB
^C:\USERS\ADITYA MATTOO\DESKTOP\GAMEJAM_V3.2\GAMEENGINEBASE\XMLPARSER.CPP
C:\USERS\ADITYA MATTOO\DESKTOP\GAMEJAM_V3.2\GAMEENGINEBASE\RELEASE\VC110.PDB
^C:\USERS\ADITYA MATTOO\DESKTOP\GAMEJAM_V3.2\GAMEENGINEBASE\MAIN.CPP|C:\USERS\ADITYA MATTOO\DESKTOP\GAMEJAM_V3.2\GAMEENGINEBASE\OPENGL_DISPLAYFUNC.CPP
C:\USERS\ADITYA MATTOO\DESKTOP\GAMEJAM_V3.2\GAMEENGINEBASE\RELEASE\OPENGL_DISPLAYFUNC.OBJ
C:\USERS\ADITYA MATTOO\DESKTOP\GAMEJAM_V3.2\GAMEENGINEBASE\RELEASE\MAIN.OBJ
^C:\USERS\ADITYA MATTOO\DESKTOP\GAMEJAM_V3.2\GAMEENGINEBASE\MAIN.CPP
C:\USERS\ADITYA MATTOO\DESKTOP\GAMEJAM_V3.2\GAMEENGINEBASE\RELEASE\VC110.PDB
^C:\USERS\ADITYA MATTOO\DESKTOP\GAMEJAM_V3.2\GAMEENGINEBASE\OPENGL_DISPLAYFUNC.CPP
C:\USERS\ADITYA MATTOO\DESKTOP\GAMEJAM_V3.2\GAMEENGINEBASE\RELEASE\VC110.PDB
^D:\GDAP\EXAMS_EXTRA\GAMEJAM\GAMEJAM_V3.2\GAMEENGINEBASE\AUDIOMANAGER.CPP|D:\GDAP\EXAMS_EXTRA\GAMEJAM\GAMEJAM_V3.2\GAMEENGINEBASE\BASEPHYCOMP.CPP|D:\GDAP\EXAMS_EXTRA\GAMEJAM\GAMEJAM_V3.2\GAMEENGINEBASE\BOUNDINGBOX.CPP|D:\GDAP\EXAMS_EXTRA\GAMEJAM\GAMEJAM_V3.2\GAMEENGINEBASE\CAMERA.CPP|D:\GDAP\EXAMS_EXTRA\GAMEJAM\GAMEJAM_V3.2\GAMEENGINEBASE\CHRTIMER.CPP|D:\GDAP\EXAMS_EXTRA\GAMEJAM\GAMEJAM_V3.2\GAMEENGINEBASE\COLLISIONTEST.CPP|D:\GDAP\EXAMS_EXTRA\GAMEJAM\GAMEJAM_V3.2\GAMEENGINEBASE\DELEGATOR.CPP|D:\GDAP\EXAMS_EXTRA\GAMEJAM\GAMEJAM_V3.2\GAMEENGINEBASE\FILEDATALOADER.CPP|D:\GDAP\EXAMS_EXTRA\GAMEJAM\GAMEJAM_V3.2\GAMEENGINEBASE\GAMEMANAGER.CPP|D:\GDAP\EXAMS_EXTRA\GAMEJAM\GAMEJAM_V3.2\GAMEENGINEBASE\GAMEOBJECT.CPP|D:\GDAP\EXAMS_EXTRA\GAMEJAM\GAMEJAM_V3.2\GAMEENGINEBASE\GLFONT2.CPP|D:\GDAP\EXAMS_EXTRA\GAMEJAM\GAMEJAM_V3.2\GAMEENGINEBASE\GLOBAL.CPP|D:\GDAP\EXAMS_EXTRA\GAMEJAM\GAMEJAM_V3.2\GAMEENGINEBASE\HAVOKPHANTOMCOMP.CPP|D:\GDAP\EXAMS_EXTRA\GAMEJAM\GAMEJAM_V3.2\GAMEENGINEBASE\HAVOKPHYCOMP.CPP|D:\GDAP\EXAMS_EXTRA\GAMEJAM\GAMEJAM_V3.2\GAMEENGINEBASE\HAVOKRIGIDBODY.CPP|D:\GDAP\EXAMS_EXTRA\GAMEJAM\GAMEJAM_V3.2\GAMEENGINEBASE\HAVOKVEHICLE.CPP|D:\GDAP\EXAMS_EXTRA\GAMEJAM\GAMEJAM_V3.2\GAMEENGINEBASE\HUD.CPP|D:\GDAP\EXAMS_EXTRA\GAMEJAM\GAMEJAM_V3.2\GAMEENGINEBASE\MAIN.CPP|D:\GDAP\EXAMS_EXTRA\GAMEJAM\GAMEJAM_V3.2\GAMEENGINEBASE\MEDIATOR.CPP|D:\GDAP\EXAMS_EXTRA\GAMEJAM\GAMEJAM_V3.2\GAMEENGINEBASE\MODELDATA.CPP|D:\GDAP\EXAMS_EXTRA\GAMEJAM\GAMEJAM_V3.2\GAMEENGINEBASE\MOVEMENTMANAGER.CPP|D:\GDAP\EXAMS_EXTRA\GAMEJAM\GAMEJAM_V3.2\GAMEENGINEBASE\OPENGL_CLOSEFUNC.CPP|D:\GDAP\EXAMS_EXTRA\GAMEJAM\GAMEJAM_V3.2\GAMEENGINEBASE\OPENGL_DISPLAYFUNC.CPP|D:\GDAP\EXAMS_EXTRA\GAMEJAM\GAMEJAM_V3.2\GAMEENGINEBASE\OPENGL_ERRORCNTRL.CPP|D:\GDAP\EXAMS_EXTRA\GAMEJAM\GAMEJAM_V3.2\GAMEENGINEBASE\OPENGL_IDLEFUNC.CPP|D:\GDAP\EXAMS_EXTRA\GAMEJAM\GAMEJAM_V3.2\GAMEENGINEBASE\OPENGL_INIT.CPP|D:\GDAP\EXAMS_EXTRA\GAMEJAM\GAMEJAM_V3.2\GAMEENGINEBASE\OPENGL_KEYBOARDSPLFUNC.CPP|D:\GDAP\EXAMS_EXTRA\GAMEJAM\GAMEJAM_V3.2\GAMEENGINEBASE\OPENGL_RESIZE.CPP|D:\GDAP\EXAMS_EXTRA\GAMEJAM\GAMEJAM_V3.2\GAMEENGINEBASE\PARTICLEGEN.CPP|D:\GDAP\EXAMS_EXTRA\GAMEJAM\GAMEJAM_V3.2\GAMEENGINEBASE\PHYSICS.CPP|D:\GDAP\EXAMS_EXTRA\GAMEJAM\GAMEJAM_V3.2\GAMEENGINEBASE\SHADERCLASS.CPP|D:\GDAP\EXAMS_EXTRA\GAMEJAM\GAMEJAM_V3.2\GAMEENGINEBASE\SHADERUNIFORMVARIABLES.CPP|D:\GDAP\EXAMS_EXTRA\GAMEJAM\GAMEJAM_V3.2\GAMEENGINEBASE\SOFTBODYCOMP.CPP|D:\GDAP\EXAMS_EXTRA\GAMEJAM\GAMEJAM_V3.2\GAMEENGINEBASE\SPHERE.CPP|D:\GDAP\EXAMS_EXTRA\GAMEJAM\GAMEJAM_V3.2\GAMEENGINEBASE\SPRING.CPP|D:\GDAP\EXAMS_EXTRA\GAMEJAM\GAMEJAM_V3.2\GAMEENGINEBASE\TEXTUREDATA.CPP|D:\GDAP\EXAMS_EXTRA\GAMEJAM\GAMEJAM_V3.2\GAMEENGINEBASE\VECTOR3D.CPP|D:\GDAP\EXAMS_EXTRA\GAMEJAM\GAMEJAM_V3.2\GAMEENGINEBASE\XMLPARSER.CPP
D:\GDAP\EXAMS_EXTRA\GAMEJAM\GAMEJAM_V3.2\GAMEENGINEBASE\RELEASE\MODELDATA.OBJ
D:\GDAP\EXAMS_EXTRA\GAMEJAM\GAMEJAM_V3.2\GAMEENGINEBASE\RELEASE\MAIN.OBJ
D:\GDAP\EXAMS_EXTRA\GAMEJAM\GAMEJAM_V3.2\GAMEENGINEBASE\RELEASE\GLOBAL.OBJ
D:\GDAP\EXAMS_EXTRA\GAMEJAM\GAMEJAM_V3.2\GAMEENGINEBASE\RELEASE\MEDIATOR.OBJ
D:\GDAP\EXAMS_EXTRA\GAMEJAM\GAMEJAM_V3.2\GAMEENGINEBASE\RELEASE\HUD.OBJ
D:\GDAP\EXAMS_EXTRA\GAMEJAM\GAMEJAM_V3.2\GAMEENGINEBASE\RELEASE\HAVOKVEHICLE.OBJ
D:\GDAP\EXAMS_EXTRA\GAMEJAM\GAMEJAM_V3.2\GAMEENGINEBASE\RELEASE\HAVOKRIGIDBODY.OBJ
D:\GDAP\EXAMS_EXTRA\GAMEJAM\GAMEJAM_V3.2\GAMEENGINEBASE\RELEASE\HAVOKPHYCOMP.OBJ
D:\GDAP\EXAMS_EXTRA\GAMEJAM\GAMEJAM_V3.2\GAMEENGINEBASE\RELEASE\HAVOKPHANTOMCOMP.OBJ
D:\GDAP\EXAMS_EXTRA\GAMEJAM\GAMEJAM_V3.2\GAMEENGINEBASE\RELEASE\GLFONT2.OBJ
D:\GDAP\EXAMS_EXTRA\GAMEJAM\GAMEJAM_V3.2\GAMEENGINEBASE\RELEASE\GAMEOBJECT.OBJ
D:\GDAP\EXAMS_EXTRA\GAMEJAM\GAMEJAM_V3.2\GAMEENGINEBASE\RELEASE\GAMEMANAGER.OBJ
D:\GDAP\EXAMS_EXTRA\GAMEJAM\GAMEJAM_V3.2\GAMEENGINEBASE\RELEASE\FILEDATALOADER.OBJ
D:\GDAP\EXAMS_EXTRA\GAMEJAM\GAMEJAM_V3.2\GAMEENGINEBASE\RELEASE\DELEGATOR.OBJ
D:\GDAP\EXAMS_EXTRA\GAMEJAM\GAMEJAM_V3.2\GAMEENGINEBASE\RELEASE\COLLISIONTEST.OBJ
D:\GDAP\EXAMS_EXTRA\GAMEJAM\GAMEJAM_V3.2\GAMEENGINEBASE\RELEASE\CHRTIMER.OBJ
D:\GDAP\EXAMS_EXTRA\GAMEJAM\GAMEJAM_V3.2\GAMEENGINEBASE\RELEASE\CAMERA.OBJ
D:\GDAP\EXAMS_EXTRA\GAMEJAM\GAMEJAM_V3.2\GAMEENGINEBASE\RELEASE\BOUNDINGBOX.OBJ
D:\GDAP\EXAMS_EXTRA\GAMEJAM\GAMEJAM_V3.2\GAMEENGINEBASE\RELEASE\BASEPHYCOMP.OBJ
D:\GDAP\EXAMS_EXTRA\GAMEJAM\GAMEJAM_V3.2\GAMEENGINEBASE\RELEASE\AUDIOMANAGER.OBJ
D:\GDAP\EXAMS_EXTRA\GAMEJAM\GAMEJAM_V3.2\GAMEENGINEBASE\RELEASE\XMLPARSER.OBJ
D:\GDAP\EXAMS_EXTRA\GAMEJAM\GAMEJAM_V3.2\GAMEENGINEBASE\RELEASE\VECTOR3D.OBJ
D:\GDAP\EXAMS_EXTRA\GAMEJAM\GAMEJAM_V3.2\GAMEENGINEBASE\RELEASE\TEXTUREDATA.OBJ
D:\GDAP\EXAMS_EXTRA\GAMEJAM\GAMEJAM_V3.2\GAMEENGINEBASE\RELEASE\SPRING.OBJ
D:\GDAP\EXAMS_EXTRA\GAMEJAM\GAMEJAM_V3.2\GAMEENGINEBASE\RELEASE\SPHERE.OBJ
D:\GDAP\EXAMS_EXTRA\GAMEJAM\GAMEJAM_V3.2\GAMEENGINEBASE\RELEASE\SOFTBODYCOMP.OBJ
D:\GDAP\EXAMS_EXTRA\GAMEJAM\GAMEJAM_V3.2\GAMEENGINEBASE\RELEASE\SHADERUNIFORMVARIABLES.OBJ
D:\GDAP\EXAMS_EXTRA\GAMEJAM\GAMEJAM_V3.2\GAMEENGINEBASE\RELEASE\SHADERCLASS.OBJ
D:\GDAP\EXAMS_EXTRA\GAMEJAM\GAMEJAM_V3.2\GAMEENGINEBASE\RELEASE\PHYSICS.OBJ
D:\GDAP\EXAMS_EXTRA\GAMEJAM\GAMEJAM_V3.2\GAMEENGINEBASE\RELEASE\PARTICLEGEN.OBJ
D:\GDAP\EXAMS_EXTRA\GAMEJAM\GAMEJAM_V3.2\GAMEENGINEBASE\RELEASE\OPENGL_RESIZE.OBJ
D:\GDAP\EXAMS_EXTRA\GAMEJAM\GAMEJAM_V3.2\GAMEENGINEBASE\RELEASE\OPENGL_KEYBOARDSPLFUNC.OBJ
D:\GDAP\EXAMS_EXTRA\GAMEJAM\GAMEJAM_V3.2\GAMEENGINEBASE\RELEASE\OPENGL_INIT.OBJ
D:\GDAP\EXAMS_EXTRA\GAMEJAM\GAMEJAM_V3.2\GAMEENGINEBASE\RELEASE\OPENGL_IDLEFUNC.OBJ
D:\GDAP\EXAMS_EXTRA\GAMEJAM\GAMEJAM_V3.2\GAMEENGINEBASE\RELEASE\OPENGL_ERRORCNTRL.OBJ
D:\GDAP\EXAMS_EXTRA\GAMEJAM\GAMEJAM_V3.2\GAMEENGINEBASE\RELEASE\OPENGL_DISPLAYFUNC.OBJ
D:\GDAP\EXAMS_EXTRA\GAMEJAM\GAMEJAM_V3.2\GAMEENGINEBASE\RELEASE\OPENGL_CLOSEFUNC.OBJ
D:\GDAP\EXAMS_EXTRA\GAMEJAM\GAMEJAM_V3.2\GAMEENGINEBASE\RELEASE\MOVEMENTMANAGER.OBJ
^D:\GDAP\EXAMS_EXTRA\GAMEJAM\GAMEJAM_V3.2\GAMEENGINEBASE\AUDIOMANAGER.CPP
D:\GDAP\EXAMS_EXTRA\GAMEJAM\GAMEJAM_V3.2\GAMEENGINEBASE\RELEASE\VC110.PDB
^D:\GDAP\EXAMS_EXTRA\GAMEJAM\GAMEJAM_V3.2\GAMEENGINEBASE\BASEPHYCOMP.CPP
D:\GDAP\EXAMS_EXTRA\GAMEJAM\GAMEJAM_V3.2\GAMEENGINEBASE\RELEASE\VC110.PDB
^D:\GDAP\EXAMS_EXTRA\GAMEJAM\GAMEJAM_V3.2\GAMEENGINEBASE\BOUNDINGBOX.CPP
D:\GDAP\EXAMS_EXTRA\GAMEJAM\GAMEJAM_V3.2\GAMEENGINEBASE\RELEASE\VC110.PDB
^D:\GDAP\EXAMS_EXTRA\GAMEJAM\GAMEJAM_V3.2\GAMEENGINEBASE\CAMERA.CPP
D:\GDAP\EXAMS_EXTRA\GAMEJAM\GAMEJAM_V3.2\GAMEENGINEBASE\RELEASE\VC110.PDB
^D:\GDAP\EXAMS_EXTRA\GAMEJAM\GAMEJAM_V3.2\GAMEENGINEBASE\CHRTIMER.CPP
D:\GDAP\EXAMS_EXTRA\GAMEJAM\GAMEJAM_V3.2\GAMEENGINEBASE\RELEASE\VC110.PDB
^D:\GDAP\EXAMS_EXTRA\GAMEJAM\GAMEJAM_V3.2\GAMEENGINEBASE\COLLISIONTEST.CPP
D:\GDAP\EXAMS_EXTRA\GAMEJAM\GAMEJAM_V3.2\GAMEENGINEBASE\RELEASE\VC110.PDB
^D:\GDAP\EXAMS_EXTRA\GAMEJAM\GAMEJAM_V3.2\GAMEENGINEBASE\DELEGATOR.CPP
D:\GDAP\EXAMS_EXTRA\GAMEJAM\GAMEJAM_V3.2\GAMEENGINEBASE\RELEASE\VC110.PDB
^D:\GDAP\EXAMS_EXTRA\GAMEJAM\GAMEJAM_V3.2\GAMEENGINEBASE\FILEDATALOADER.CPP
D:\GDAP\EXAMS_EXTRA\GAMEJAM\GAMEJAM_V3.2\GAMEENGINEBASE\RELEASE\VC110.PDB
^D:\GDAP\EXAMS_EXTRA\GAMEJAM\GAMEJAM_V3.2\GAMEENGINEBASE\GAMEMANAGER.CPP
D:\GDAP\EXAMS_EXTRA\GAMEJAM\GAMEJAM_V3.2\GAMEENGINEBASE\RELEASE\VC110.PDB
^D:\GDAP\EXAMS_EXTRA\GAMEJAM\GAMEJAM_V3.2\GAMEENGINEBASE\GAMEOBJECT.CPP
D:\GDAP\EXAMS_EXTRA\GAMEJAM\GAMEJAM_V3.2\GAMEENGINEBASE\RELEASE\VC110.PDB
^D:\GDAP\EXAMS_EXTRA\GAMEJAM\GAMEJAM_V3.2\GAMEENGINEBASE\GLFONT2.CPP
D:\GDAP\EXAMS_EXTRA\GAMEJAM\GAMEJAM_V3.2\GAMEENGINEBASE\RELEASE\VC110.PDB
^D:\GDAP\EXAMS_EXTRA\GAMEJAM\GAMEJAM_V3.2\GAMEENGINEBASE\HAVOKPHANTOMCOMP.CPP
D:\GDAP\EXAMS_EXTRA\GAMEJAM\GAMEJAM_V3.2\GAMEENGINEBASE\RELEASE\VC110.PDB
^D:\GDAP\EXAMS_EXTRA\GAMEJAM\GAMEJAM_V3.2\GAMEENGINEBASE\HAVOKPHYCOMP.CPP
D:\GDAP\EXAMS_EXTRA\GAMEJAM\GAMEJAM_V3.2\GAMEENGINEBASE\RELEASE\VC110.PDB
^D:\GDAP\EXAMS_EXTRA\GAMEJAM\GAMEJAM_V3.2\GAMEENGINEBASE\HAVOKRIGIDBODY.CPP
D:\GDAP\EXAMS_EXTRA\GAMEJAM\GAMEJAM_V3.2\GAMEENGINEBASE\RELEASE\VC110.PDB
^D:\GDAP\EXAMS_EXTRA\GAMEJAM\GAMEJAM_V3.2\GAMEENGINEBASE\HAVOKVEHICLE.CPP
D:\GDAP\EXAMS_EXTRA\GAMEJAM\GAMEJAM_V3.2\GAMEENGINEBASE\RELEASE\VC110.PDB
^D:\GDAP\EXAMS_EXTRA\GAMEJAM\GAMEJAM_V3.2\GAMEENGINEBASE\HUD.CPP
D:\GDAP\EXAMS_EXTRA\GAMEJAM\GAMEJAM_V3.2\GAMEENGINEBASE\RELEASE\VC110.PDB
^D:\GDAP\EXAMS_EXTRA\GAMEJAM\GAMEJAM_V3.2\GAMEENGINEBASE\MEDIATOR.CPP
D:\GDAP\EXAMS_EXTRA\GAMEJAM\GAMEJAM_V3.2\GAMEENGINEBASE\RELEASE\VC110.PDB
^D:\GDAP\EXAMS_EXTRA\GAMEJAM\GAMEJAM_V3.2\GAMEENGINEBASE\GLOBAL.CPP
D:\GDAP\EXAMS_EXTRA\GAMEJAM\GAMEJAM_V3.2\GAMEENGINEBASE\RELEASE\VC110.PDB
^D:\GDAP\EXAMS_EXTRA\GAMEJAM\GAMEJAM_V3.2\GAMEENGINEBASE\MAIN.CPP
D:\GDAP\EXAMS_EXTRA\GAMEJAM\GAMEJAM_V3.2\GAMEENGINEBASE\RELEASE\VC110.PDB
^D:\GDAP\EXAMS_EXTRA\GAMEJAM\GAMEJAM_V3.2\GAMEENGINEBASE\MODELDATA.CPP
D:\GDAP\EXAMS_EXTRA\GAMEJAM\GAMEJAM_V3.2\GAMEENGINEBASE\RELEASE\VC110.PDB
^D:\GDAP\EXAMS_EXTRA\GAMEJAM\GAMEJAM_V3.2\GAMEENGINEBASE\MOVEMENTMANAGER.CPP
D:\GDAP\EXAMS_EXTRA\GAMEJAM\GAMEJAM_V3.2\GAMEENGINEBASE\RELEASE\VC110.PDB
^D:\GDAP\EXAMS_EXTRA\GAMEJAM\GAMEJAM_V3.2\GAMEENGINEBASE\OPENGL_CLOSEFUNC.CPP
D:\GDAP\EXAMS_EXTRA\GAMEJAM\GAMEJAM_V3.2\GAMEENGINEBASE\RELEASE\VC110.PDB
^D:\GDAP\EXAMS_EXTRA\GAMEJAM\GAMEJAM_V3.2\GAMEENGINEBASE\OPENGL_DISPLAYFUNC.CPP
D:\GDAP\EXAMS_EXTRA\GAMEJAM\GAMEJAM_V3.2\GAMEENGINEBASE\RELEASE\VC110.PDB
^D:\GDAP\EXAMS_EXTRA\GAMEJAM\GAMEJAM_V3.2\GAMEENGINEBASE\OPENGL_ERRORCNTRL.CPP
D:\GDAP\EXAMS_EXTRA\GAMEJAM\GAMEJAM_V3.2\GAMEENGINEBASE\RELEASE\VC110.PDB
^D:\GDAP\EXAMS_EXTRA\GAMEJAM\GAMEJAM_V3.2\GAMEENGINEBASE\OPENGL_IDLEFUNC.CPP
D:\GDAP\EXAMS_EXTRA\GAMEJAM\GAMEJAM_V3.2\GAMEENGINEBASE\RELEASE\VC110.PDB
^D:\GDAP\EXAMS_EXTRA\GAMEJAM\GAMEJAM_V3.2\GAMEENGINEBASE\OPENGL_INIT.CPP
D:\GDAP\EXAMS_EXTRA\GAMEJAM\GAMEJAM_V3.2\GAMEENGINEBASE\RELEASE\VC110.PDB
^D:\GDAP\EXAMS_EXTRA\GAMEJAM\GAMEJAM_V3.2\GAMEENGINEBASE\OPENGL_KEYBOARDSPLFUNC.CPP
D:\GDAP\EXAMS_EXTRA\GAMEJAM\GAMEJAM_V3.2\GAMEENGINEBASE\RELEASE\VC110.PDB
^D:\GDAP\EXAMS_EXTRA\GAMEJAM\GAMEJAM_V3.2\GAMEENGINEBASE\OPENGL_RESIZE.CPP
D:\GDAP\EXAMS_EXTRA\GAMEJAM\GAMEJAM_V3.2\GAMEENGINEBASE\RELEASE\VC110.PDB
^D:\GDAP\EXAMS_EXTRA\GAMEJAM\GAMEJAM_V3.2\GAMEENGINEBASE\PARTICLEGEN.CPP
D:\GDAP\EXAMS_EXTRA\GAMEJAM\GAMEJAM_V3.2\GAMEENGINEBASE\RELEASE\VC110.PDB
^D:\GDAP\EXAMS_EXTRA\GAMEJAM\GAMEJAM_V3.2\GAMEENGINEBASE\PHYSICS.CPP
D:\GDAP\EXAMS_EXTRA\GAMEJAM\GAMEJAM_V3.2\GAMEENGINEBASE\RELEASE\VC110.PDB
^D:\GDAP\EXAMS_EXTRA\GAMEJAM\GAMEJAM_V3.2\GAMEENGINEBASE\SHADERCLASS.CPP
D:\GDAP\EXAMS_EXTRA\GAMEJAM\GAMEJAM_V3.2\GAMEENGINEBASE\RELEASE\VC110.PDB
^D:\GDAP\EXAMS_EXTRA\GAMEJAM\GAMEJAM_V3.2\GAMEENGINEBASE\SHADERUNIFORMVARIABLES.CPP
D:\GDAP\EXAMS_EXTRA\GAMEJAM\GAMEJAM_V3.2\GAMEENGINEBASE\RELEASE\VC110.PDB
^D:\GDAP\EXAMS_EXTRA\GAMEJAM\GAMEJAM_V3.2\GAMEENGINEBASE\SOFTBODYCOMP.CPP
D:\GDAP\EXAMS_EXTRA\GAMEJAM\GAMEJAM_V3.2\GAMEENGINEBASE\RELEASE\VC110.PDB
^D:\GDAP\EXAMS_EXTRA\GAMEJAM\GAMEJAM_V3.2\GAMEENGINEBASE\SPHERE.CPP
D:\GDAP\EXAMS_EXTRA\GAMEJAM\GAMEJAM_V3.2\GAMEENGINEBASE\RELEASE\VC110.PDB
^D:\GDAP\EXAMS_EXTRA\GAMEJAM\GAMEJAM_V3.2\GAMEENGINEBASE\SPRING.CPP
D:\GDAP\EXAMS_EXTRA\GAMEJAM\GAMEJAM_V3.2\GAMEENGINEBASE\RELEASE\VC110.PDB
^D:\GDAP\EXAMS_EXTRA\GAMEJAM\GAMEJAM_V3.2\GAMEENGINEBASE\TEXTUREDATA.CPP
D:\GDAP\EXAMS_EXTRA\GAMEJAM\GAMEJAM_V3.2\GAMEENGINEBASE\RELEASE\VC110.PDB
^D:\GDAP\EXAMS_EXTRA\GAMEJAM\GAMEJAM_V3.2\GAMEENGINEBASE\VECTOR3D.CPP
D:\GDAP\EXAMS_EXTRA\GAMEJAM\GAMEJAM_V3.2\GAMEENGINEBASE\RELEASE\VC110.PDB
^D:\GDAP\EXAMS_EXTRA\GAMEJAM\GAMEJAM_V3.2\GAMEENGINEBASE\XMLPARSER.CPP
D:\GDAP\EXAMS_EXTRA\GAMEJAM\GAMEJAM_V3.2\GAMEENGINEBASE\RELEASE\VC110.PDB
^D:\GDAP\COLLEDGE\ADITYA OPENGL TEMPLATE\GIT\GAMEJAM_V3.2\GAMEENGINEBASE\AUDIOMANAGER.CPP|D:\GDAP\COLLEDGE\ADITYA OPENGL TEMPLATE\GIT\GAMEJAM_V3.2\GAMEENGINEBASE\BASEPHYCOMP.CPP|D:\GDAP\COLLEDGE\ADITYA OPENGL TEMPLATE\GIT\GAMEJAM_V3.2\GAMEENGINEBASE\BOUNDINGBOX.CPP|D:\GDAP\COLLEDGE\ADITYA OPENGL TEMPLATE\GIT\GAMEJAM_V3.2\GAMEENGINEBASE\CAMERA.CPP|D:\GDAP\COLLEDGE\ADITYA OPENGL TEMPLATE\GIT\GAMEJAM_V3.2\GAMEENGINEBASE\CHRTIMER.CPP|D:\GDAP\COLLEDGE\ADITYA OPENGL TEMPLATE\GIT\GAMEJAM_V3.2\GAMEENGINEBASE\COLLISIONTEST.CPP|D:\GDAP\COLLEDGE\ADITYA OPENGL TEMPLATE\GIT\GAMEJAM_V3.2\GAMEENGINEBASE\DELEGATOR.CPP|D:\GDAP\COLLEDGE\ADITYA OPENGL TEMPLATE\GIT\GAMEJAM_V3.2\GAMEENGINEBASE\FILEDATALOADER.CPP|D:\GDAP\COLLEDGE\ADITYA OPENGL TEMPLATE\GIT\GAMEJAM_V3.2\GAMEENGINEBASE\GAMEMANAGER.CPP|D:\GDAP\COLLEDGE\ADITYA OPENGL TEMPLATE\GIT\GAMEJAM_V3.2\GAMEENGINEBASE\GAMEOBJECT.CPP|D:\GDAP\COLLEDGE\ADITYA OPENGL TEMPLATE\GIT\GAMEJAM_V3.2\GAMEENGINEBASE\GLFONT2.CPP|D:\GDAP\COLLEDGE\ADITYA OPENGL TEMPLATE\GIT\GAMEJAM_V3.2\GAMEENGINEBASE\GLOBAL.CPP|D:\GDAP\COLLEDGE\ADITYA OPENGL TEMPLATE\GIT\GAMEJAM_V3.2\GAMEENGINEBASE\HAVOKPHANTOMCOMP.CPP|D:\GDAP\COLLEDGE\ADITYA OPENGL TEMPLATE\GIT\GAMEJAM_V3.2\GAMEENGINEBASE\HAVOKPHYCOMP.CPP|D:\GDAP\COLLEDGE\ADITYA OPENGL TEMPLATE\GIT\GAMEJAM_V3.2\GAMEENGINEBASE\HAVOKRIGIDBODY.CPP|D:\GDAP\COLLEDGE\ADITYA OPENGL TEMPLATE\GIT\GAMEJAM_V3.2\GAMEENGINEBASE\HAVOKVEHICLE.CPP|D:\GDAP\COLLEDGE\ADITYA OPENGL TEMPLATE\GIT\GAMEJAM_V3.2\GAMEENGINEBASE\HUD.CPP|D:\GDAP\COLLEDGE\ADITYA OPENGL TEMPLATE\GIT\GAMEJAM_V3.2\GAMEENGINEBASE\MAIN.CPP|D:\GDAP\COLLEDGE\ADITYA OPENGL TEMPLATE\GIT\GAMEJAM_V3.2\GAMEENGINEBASE\MEDIATOR.CPP|D:\GDAP\COLLEDGE\ADITYA OPENGL TEMPLATE\GIT\GAMEJAM_V3.2\GAMEENGINEBASE\MODELDATA.CPP|D:\GDAP\COLLEDGE\ADITYA OPENGL TEMPLATE\GIT\GAMEJAM_V3.2\GAMEENGINEBASE\MOVEMENTMANAGER.CPP|D:\GDAP\COLLEDGE\ADITYA OPENGL TEMPLATE\GIT\GAMEJAM_V3.2\GAMEENGINEBASE\OPENGL_CLOSEFUNC.CPP|D:\GDAP\COLLEDGE\ADITYA OPENGL TEMPLATE\GIT\GAMEJAM_V3.2\GAMEENGINEBASE\OPENGL_DISPLAYFUNC.CPP|D:\GDAP\COLLEDGE\ADITYA OPENGL TEMPLATE\GIT\GAMEJAM_V3.2\GAMEENGINEBASE\OPENGL_ERRORCNTRL.CPP|D:\GDAP\COLLEDGE\ADITYA OPENGL TEMPLATE\GIT\GAMEJAM_V3.2\GAMEENGINEBASE\OPENGL_IDLEFUNC.CPP|D:\GDAP\COLLEDGE\ADITYA OPENGL TEMPLATE\GIT\GAMEJAM_V3.2\GAMEENGINEBASE\OPENGL_INIT.CPP|D:\GDAP\COLLEDGE\ADITYA OPENGL TEMPLATE\GIT\GAMEJAM_V3.2\GAMEENGINEBASE\OPENGL_KEYBOARDSPLFUNC.CPP|D:\GDAP\COLLEDGE\ADITYA OPENGL TEMPLATE\GIT\GAMEJAM_V3.2\GAMEENGINEBASE\OPENGL_RESIZE.CPP|D:\GDAP\COLLEDGE\ADITYA OPENGL TEMPLATE\GIT\GAMEJAM_V3.2\GAMEENGINEBASE\PARTICLEGEN.CPP|D:\GDAP\COLLEDGE\ADITYA OPENGL TEMPLATE\GIT\GAMEJAM_V3.2\GAMEENGINEBASE\PHYSICS.CPP|D:\GDAP\COLLEDGE\ADITYA OPENGL TEMPLATE\GIT\GAMEJAM_V3.2\GAMEENGINEBASE\SHADERCLASS.CPP|D:\GDAP\COLLEDGE\ADITYA OPENGL TEMPLATE\GIT\GAMEJAM_V3.2\GAMEENGINEBASE\SHADERUNIFORMVARIABLES.CPP|D:\GDAP\COLLEDGE\ADITYA OPENGL TEMPLATE\GIT\GAMEJAM_V3.2\GAMEENGINEBASE\SOFTBODYCOMP.CPP|D:\GDAP\COLLEDGE\ADITYA OPENGL TEMPLATE\GIT\GAMEJAM_V3.2\GAMEENGINEBASE\SPHERE.CPP|D:\GDAP\COLLEDGE\ADITYA OPENGL TEMPLATE\GIT\GAMEJAM_V3.2\GAMEENGINEBASE\SPRING.CPP|D:\GDAP\COLLEDGE\ADITYA OPENGL TEMPLATE\GIT\GAMEJAM_V3.2\GAMEENGINEBASE\TEXTUREDATA.CPP|D:\GDAP\COLLEDGE\ADITYA OPENGL TEMPLATE\GIT\GAMEJAM_V3.2\GAMEENGINEBASE\VECTOR3D.CPP|D:\GDAP\COLLEDGE\ADITYA OPENGL TEMPLATE\GIT\GAMEJAM_V3.2\GAMEENGINEBASE\XMLPARSER.CPP
D:\GDAP\COLLEDGE\ADITYA OPENGL TEMPLATE\GIT\GAMEJAM_V3.2\GAMEENGINEBASE\RELEASE\GLFONT2.OBJ
D:\GDAP\COLLEDGE\ADITYA OPENGL TEMPLATE\GIT\GAMEJAM_V3.2\GAMEENGINEBASE\RELEASE\GAMEMANAGER.OBJ
D:\GDAP\COLLEDGE\ADITYA OPENGL TEMPLATE\GIT\GAMEJAM_V3.2\GAMEENGINEBASE\RELEASE\CHRTIMER.OBJ
D:\GDAP\COLLEDGE\ADITYA OPENGL TEMPLATE\GIT\GAMEJAM_V3.2\GAMEENGINEBASE\RELEASE\CAMERA.OBJ
D:\GDAP\COLLEDGE\ADITYA OPENGL TEMPLATE\GIT\GAMEJAM_V3.2\GAMEENGINEBASE\RELEASE\BOUNDINGBOX.OBJ
D:\GDAP\COLLEDGE\ADITYA OPENGL TEMPLATE\GIT\GAMEJAM_V3.2\GAMEENGINEBASE\RELEASE\AUDIOMANAGER.OBJ
D:\GDAP\COLLEDGE\ADITYA OPENGL TEMPLATE\GIT\GAMEJAM_V3.2\GAMEENGINEBASE\RELEASE\XMLPARSER.OBJ
D:\GDAP\COLLEDGE\ADITYA OPENGL TEMPLATE\GIT\GAMEJAM_V3.2\GAMEENGINEBASE\RELEASE\VECTOR3D.OBJ
D:\GDAP\COLLEDGE\ADITYA OPENGL TEMPLATE\GIT\GAMEJAM_V3.2\GAMEENGINEBASE\RELEASE\TEXTUREDATA.OBJ
D:\GDAP\COLLEDGE\ADITYA OPENGL TEMPLATE\GIT\GAMEJAM_V3.2\GAMEENGINEBASE\RELEASE\SPRING.OBJ
D:\GDAP\COLLEDGE\ADITYA OPENGL TEMPLATE\GIT\GAMEJAM_V3.2\GAMEENGINEBASE\RELEASE\PHYSICS.OBJ
D:\GDAP\COLLEDGE\ADITYA OPENGL TEMPLATE\GIT\GAMEJAM_V3.2\GAMEENGINEBASE\RELEASE\PARTICLEGEN.OBJ
^D:\GDAP\COLLEDGE\ADITYA OPENGL TEMPLATE\GIT\GAMEJAM_V3.2\GAMEENGINEBASE\AUDIOMANAGER.CPP
D:\GDAP\COLLEDGE\ADITYA OPENGL TEMPLATE\GIT\GAMEJAM_V3.2\GAMEENGINEBASE\RELEASE\AUDIOMANAGER.OBJ
^D:\GDAP\COLLEDGE\ADITYA OPENGL TEMPLATE\GIT\GAMEJAM_V3.2\GAMEENGINEBASE\BASEPHYCOMP.CPP
D:\GDAP\COLLEDGE\ADITYA OPENGL TEMPLATE\GIT\GAMEJAM_V3.2\GAMEENGINEBASE\RELEASE\BASEPHYCOMP.OBJ
^D:\GDAP\COLLEDGE\ADITYA OPENGL TEMPLATE\GIT\GAMEJAM_V3.2\GAMEENGINEBASE\BOUNDINGBOX.CPP
D:\GDAP\COLLEDGE\ADITYA OPENGL TEMPLATE\GIT\GAMEJAM_V3.2\GAMEENGINEBASE\RELEASE\BOUNDINGBOX.OBJ
^D:\GDAP\COLLEDGE\ADITYA OPENGL TEMPLATE\GIT\GAMEJAM_V3.2\GAMEENGINEBASE\CAMERA.CPP
D:\GDAP\COLLEDGE\ADITYA OPENGL TEMPLATE\GIT\GAMEJAM_V3.2\GAMEENGINEBASE\RELEASE\CAMERA.OBJ
^D:\GDAP\COLLEDGE\ADITYA OPENGL TEMPLATE\GIT\GAMEJAM_V3.2\GAMEENGINEBASE\CHRTIMER.CPP
D:\GDAP\COLLEDGE\ADITYA OPENGL TEMPLATE\GIT\GAMEJAM_V3.2\GAMEENGINEBASE\RELEASE\CHRTIMER.OBJ
^D:\GDAP\COLLEDGE\ADITYA OPENGL TEMPLATE\GIT\GAMEJAM_V3.2\GAMEENGINEBASE\COLLISIONTEST.CPP
D:\GDAP\COLLEDGE\ADITYA OPENGL TEMPLATE\GIT\GAMEJAM_V3.2\GAMEENGINEBASE\RELEASE\COLLISIONTEST.OBJ
^D:\GDAP\COLLEDGE\ADITYA OPENGL TEMPLATE\GIT\GAMEJAM_V3.2\GAMEENGINEBASE\DELEGATOR.CPP
D:\GDAP\COLLEDGE\ADITYA OPENGL TEMPLATE\GIT\GAMEJAM_V3.2\GAMEENGINEBASE\RELEASE\DELEGATOR.OBJ
^D:\GDAP\COLLEDGE\ADITYA OPENGL TEMPLATE\GIT\GAMEJAM_V3.2\GAMEENGINEBASE\FILEDATALOADER.CPP
D:\GDAP\COLLEDGE\ADITYA OPENGL TEMPLATE\GIT\GAMEJAM_V3.2\GAMEENGINEBASE\RELEASE\FILEDATALOADER.OBJ
^D:\GDAP\COLLEDGE\ADITYA OPENGL TEMPLATE\GIT\GAMEJAM_V3.2\GAMEENGINEBASE\GAMEMANAGER.CPP
D:\GDAP\COLLEDGE\ADITYA OPENGL TEMPLATE\GIT\GAMEJAM_V3.2\GAMEENGINEBASE\RELEASE\GAMEMANAGER.OBJ
^D:\GDAP\COLLEDGE\ADITYA OPENGL TEMPLATE\GIT\GAMEJAM_V3.2\GAMEENGINEBASE\GAMEOBJECT.CPP
D:\GDAP\COLLEDGE\ADITYA OPENGL TEMPLATE\GIT\GAMEJAM_V3.2\GAMEENGINEBASE\RELEASE\GAMEOBJECT.OBJ
^D:\GDAP\COLLEDGE\ADITYA OPENGL TEMPLATE\GIT\GAMEJAM_V3.2\GAMEENGINEBASE\GLFONT2.CPP
D:\GDAP\COLLEDGE\ADITYA OPENGL TEMPLATE\GIT\GAMEJAM_V3.2\GAMEENGINEBASE\RELEASE\GLFONT2.OBJ
^D:\GDAP\COLLEDGE\ADITYA OPENGL TEMPLATE\GIT\GAMEJAM_V3.2\GAMEENGINEBASE\HAVOKPHANTOMCOMP.CPP
D:\GDAP\COLLEDGE\ADITYA OPENGL TEMPLATE\GIT\GAMEJAM_V3.2\GAMEENGINEBASE\RELEASE\HAVOKPHANTOMCOMP.OBJ
^D:\GDAP\COLLEDGE\ADITYA OPENGL TEMPLATE\GIT\GAMEJAM_V3.2\GAMEENGINEBASE\HAVOKPHYCOMP.CPP
D:\GDAP\COLLEDGE\ADITYA OPENGL TEMPLATE\GIT\GAMEJAM_V3.2\GAMEENGINEBASE\RELEASE\HAVOKPHYCOMP.OBJ
^D:\GDAP\COLLEDGE\ADITYA OPENGL TEMPLATE\GIT\GAMEJAM_V3.2\GAMEENGINEBASE\HAVOKRIGIDBODY.CPP
D:\GDAP\COLLEDGE\ADITYA OPENGL TEMPLATE\GIT\GAMEJAM_V3.2\GAMEENGINEBASE\RELEASE\HAVOKRIGIDBODY.OBJ
^D:\GDAP\COLLEDGE\ADITYA OPENGL TEMPLATE\GIT\GAMEJAM_V3.2\GAMEENGINEBASE\HAVOKVEHICLE.CPP
D:\GDAP\COLLEDGE\ADITYA OPENGL TEMPLATE\GIT\GAMEJAM_V3.2\GAMEENGINEBASE\RELEASE\HAVOKVEHICLE.OBJ
^D:\GDAP\COLLEDGE\ADITYA OPENGL TEMPLATE\GIT\GAMEJAM_V3.2\GAMEENGINEBASE\HUD.CPP
D:\GDAP\COLLEDGE\ADITYA OPENGL TEMPLATE\GIT\GAMEJAM_V3.2\GAMEENGINEBASE\RELEASE\HUD.OBJ
^D:\GDAP\COLLEDGE\ADITYA OPENGL TEMPLATE\GIT\GAMEJAM_V3.2\GAMEENGINEBASE\MEDIATOR.CPP
D:\GDAP\COLLEDGE\ADITYA OPENGL TEMPLATE\GIT\GAMEJAM_V3.2\GAMEENGINEBASE\RELEASE\MEDIATOR.OBJ
^D:\GDAP\COLLEDGE\ADITYA OPENGL TEMPLATE\GIT\GAMEJAM_V3.2\GAMEENGINEBASE\GLOBAL.CPP
D:\GDAP\COLLEDGE\ADITYA OPENGL TEMPLATE\GIT\GAMEJAM_V3.2\GAMEENGINEBASE\RELEASE\GLOBAL.OBJ
^D:\GDAP\COLLEDGE\ADITYA OPENGL TEMPLATE\GIT\GAMEJAM_V3.2\GAMEENGINEBASE\MAIN.CPP
D:\GDAP\COLLEDGE\ADITYA OPENGL TEMPLATE\GIT\GAMEJAM_V3.2\GAMEENGINEBASE\RELEASE\MAIN.OBJ
^D:\GDAP\COLLEDGE\ADITYA OPENGL TEMPLATE\GIT\GAMEJAM_V3.2\GAMEENGINEBASE\MODELDATA.CPP
D:\GDAP\COLLEDGE\ADITYA OPENGL TEMPLATE\GIT\GAMEJAM_V3.2\GAMEENGINEBASE\RELEASE\MODELDATA.OBJ
^D:\GDAP\COLLEDGE\ADITYA OPENGL TEMPLATE\GIT\GAMEJAM_V3.2\GAMEENGINEBASE\MOVEMENTMANAGER.CPP
D:\GDAP\COLLEDGE\ADITYA OPENGL TEMPLATE\GIT\GAMEJAM_V3.2\GAMEENGINEBASE\RELEASE\MOVEMENTMANAGER.OBJ
^D:\GDAP\COLLEDGE\ADITYA OPENGL TEMPLATE\GIT\GAMEJAM_V3.2\GAMEENGINEBASE\OPENGL_CLOSEFUNC.CPP
D:\GDAP\COLLEDGE\ADITYA OPENGL TEMPLATE\GIT\GAMEJAM_V3.2\GAMEENGINEBASE\RELEASE\OPENGL_CLOSEFUNC.OBJ
^D:\GDAP\COLLEDGE\ADITYA OPENGL TEMPLATE\GIT\GAMEJAM_V3.2\GAMEENGINEBASE\OPENGL_DISPLAYFUNC.CPP
D:\GDAP\COLLEDGE\ADITYA OPENGL TEMPLATE\GIT\GAMEJAM_V3.2\GAMEENGINEBASE\RELEASE\OPENGL_DISPLAYFUNC.OBJ
^D:\GDAP\COLLEDGE\ADITYA OPENGL TEMPLATE\GIT\GAMEJAM_V3.2\GAMEENGINEBASE\OPENGL_ERRORCNTRL.CPP
D:\GDAP\COLLEDGE\ADITYA OPENGL TEMPLATE\GIT\GAMEJAM_V3.2\GAMEENGINEBASE\RELEASE\OPENGL_ERRORCNTRL.OBJ
^D:\GDAP\COLLEDGE\ADITYA OPENGL TEMPLATE\GIT\GAMEJAM_V3.2\GAMEENGINEBASE\OPENGL_IDLEFUNC.CPP
D:\GDAP\COLLEDGE\ADITYA OPENGL TEMPLATE\GIT\GAMEJAM_V3.2\GAMEENGINEBASE\RELEASE\OPENGL_IDLEFUNC.OBJ
^D:\GDAP\COLLEDGE\ADITYA OPENGL TEMPLATE\GIT\GAMEJAM_V3.2\GAMEENGINEBASE\OPENGL_INIT.CPP
D:\GDAP\COLLEDGE\ADITYA OPENGL TEMPLATE\GIT\GAMEJAM_V3.2\GAMEENGINEBASE\RELEASE\OPENGL_INIT.OBJ
^D:\GDAP\COLLEDGE\ADITYA OPENGL TEMPLATE\GIT\GAMEJAM_V3.2\GAMEENGINEBASE\OPENGL_KEYBOARDSPLFUNC.CPP
D:\GDAP\COLLEDGE\ADITYA OPENGL TEMPLATE\GIT\GAMEJAM_V3.2\GAMEENGINEBASE\RELEASE\OPENGL_KEYBOARDSPLFUNC.OBJ
^D:\GDAP\COLLEDGE\ADITYA OPENGL TEMPLATE\GIT\GAMEJAM_V3.2\GAMEENGINEBASE\OPENGL_RESIZE.CPP
D:\GDAP\COLLEDGE\ADITYA OPENGL TEMPLATE\GIT\GAMEJAM_V3.2\GAMEENGINEBASE\RELEASE\OPENGL_RESIZE.OBJ
^D:\GDAP\COLLEDGE\ADITYA OPENGL TEMPLATE\GIT\GAMEJAM_V3.2\GAMEENGINEBASE\PARTICLEGEN.CPP
D:\GDAP\COLLEDGE\ADITYA OPENGL TEMPLATE\GIT\GAMEJAM_V3.2\GAMEENGINEBASE\RELEASE\PARTICLEGEN.OBJ
^D:\GDAP\COLLEDGE\ADITYA OPENGL TEMPLATE\GIT\GAMEJAM_V3.2\GAMEENGINEBASE\PHYSICS.CPP
D:\GDAP\COLLEDGE\ADITYA OPENGL TEMPLATE\GIT\GAMEJAM_V3.2\GAMEENGINEBASE\RELEASE\PHYSICS.OBJ
^D:\GDAP\COLLEDGE\ADITYA OPENGL TEMPLATE\GIT\GAMEJAM_V3.2\GAMEENGINEBASE\SHADERCLASS.CPP
D:\GDAP\COLLEDGE\ADITYA OPENGL TEMPLATE\GIT\GAMEJAM_V3.2\GAMEENGINEBASE\RELEASE\SHADERCLASS.OBJ
^D:\GDAP\COLLEDGE\ADITYA OPENGL TEMPLATE\GIT\GAMEJAM_V3.2\GAMEENGINEBASE\SHADERUNIFORMVARIABLES.CPP
D:\GDAP\COLLEDGE\ADITYA OPENGL TEMPLATE\GIT\GAMEJAM_V3.2\GAMEENGINEBASE\RELEASE\SHADERUNIFORMVARIABLES.OBJ
^D:\GDAP\COLLEDGE\ADITYA OPENGL TEMPLATE\GIT\GAMEJAM_V3.2\GAMEENGINEBASE\SOFTBODYCOMP.CPP
D:\GDAP\COLLEDGE\ADITYA OPENGL TEMPLATE\GIT\GAMEJAM_V3.2\GAMEENGINEBASE\RELEASE\SOFTBODYCOMP.OBJ
^D:\GDAP\COLLEDGE\ADITYA OPENGL TEMPLATE\GIT\GAMEJAM_V3.2\GAMEENGINEBASE\SPHERE.CPP
D:\GDAP\COLLEDGE\ADITYA OPENGL TEMPLATE\GIT\GAMEJAM_V3.2\GAMEENGINEBASE\RELEASE\SPHERE.OBJ
^D:\GDAP\COLLEDGE\ADITYA OPENGL TEMPLATE\GIT\GAMEJAM_V3.2\GAMEENGINEBASE\SPRING.CPP
D:\GDAP\COLLEDGE\ADITYA OPENGL TEMPLATE\GIT\GAMEJAM_V3.2\GAMEENGINEBASE\RELEASE\SPRING.OBJ
^D:\GDAP\COLLEDGE\ADITYA OPENGL TEMPLATE\GIT\GAMEJAM_V3.2\GAMEENGINEBASE\TEXTUREDATA.CPP
D:\GDAP\COLLEDGE\ADITYA OPENGL TEMPLATE\GIT\GAMEJAM_V3.2\GAMEENGINEBASE\RELEASE\TEXTUREDATA.OBJ
^D:\GDAP\COLLEDGE\ADITYA OPENGL TEMPLATE\GIT\GAMEJAM_V3.2\GAMEENGINEBASE\VECTOR3D.CPP
D:\GDAP\COLLEDGE\ADITYA OPENGL TEMPLATE\GIT\GAMEJAM_V3.2\GAMEENGINEBASE\RELEASE\VECTOR3D.OBJ
^D:\GDAP\COLLEDGE\ADITYA OPENGL TEMPLATE\GIT\GAMEJAM_V3.2\GAMEENGINEBASE\XMLPARSER.CPP
D:\GDAP\COLLEDGE\ADITYA OPENGL TEMPLATE\GIT\GAMEJAM_V3.2\GAMEENGINEBASE\RELEASE\XMLPARSER.OBJ
