^C:\USERS\ADITYA MATTOO\DESKTOP\GAMEJAM_V3.2\GAMEENGINEBASE\RELEASE\AUDIOMANAGER.OBJ|C:\USERS\ADITYA MATTOO\DESKTOP\GAMEJAM_V3.2\GAMEENGINEBASE\RELEASE\BASEPHYCOMP.OBJ|C:\USERS\ADITYA MATTOO\DESKTOP\GAMEJAM_V3.2\GAMEENGINEBASE\RELEASE\BOUNDINGBOX.OBJ|C:\USERS\ADITYA MATTOO\DESKTOP\GAMEJAM_V3.2\GAMEENGINEBASE\RELEASE\CAMERA.OBJ|C:\USERS\ADITYA MATTOO\DESKTOP\GAMEJAM_V3.2\GAMEENGINEBASE\RELEASE\CHRTIMER.OBJ|C:\USERS\ADITYA MATTOO\DESKTOP\GAMEJAM_V3.2\GAMEENGINEBASE\RELEASE\COLLISIONTEST.OBJ|C:\USERS\ADITYA MATTOO\DESKTOP\GAMEJAM_V3.2\GAMEENGINEBASE\RELEASE\DELEGATOR.OBJ|C:\USERS\ADITYA MATTOO\DESKTOP\GAMEJAM_V3.2\GAMEENGINEBASE\RELEASE\FILEDATALOADER.OBJ|C:\USERS\ADITYA MATTOO\DESKTOP\GAMEJAM_V3.2\GAMEENGINEBASE\RELEASE\GAMEMANAGER.OBJ|C:\USERS\ADITYA MATTOO\DESKTOP\GAMEJAM_V3.2\GAMEENGINEBASE\RELEASE\GAMEOBJECT.OBJ|C:\USERS\ADITYA MATTOO\DESKTOP\GAMEJAM_V3.2\GAMEENGINEBASE\RELEASE\GLFONT2.OBJ|C:\USERS\ADITYA MATTOO\DESKTOP\GAMEJAM_V3.2\GAMEENGINEBASE\RELEASE\GLOBAL.OBJ|C:\USERS\ADITYA MATTOO\DESKTOP\GAMEJAM_V3.2\GAMEENGINEBASE\RELEASE\HAVOKPHANTOMCOMP.OBJ|C:\USERS\ADITYA MATTOO\DESKTOP\GAMEJAM_V3.2\GAMEENGINEBASE\RELEASE\HAVOKPHYCOMP.OBJ|C:\USERS\ADITYA MATTOO\DESKTOP\GAMEJAM_V3.2\GAMEENGINEBASE\RELEASE\HAVOKRIGIDBODY.OBJ|C:\USERS\ADITYA MATTOO\DESKTOP\GAMEJAM_V3.2\GAMEENGINEBASE\RELEASE\HAVOKVEHICLE.OBJ|C:\USERS\ADITYA MATTOO\DESKTOP\GAMEJAM_V3.2\GAMEENGINEBASE\RELEASE\HUD.OBJ|C:\USERS\ADITYA MATTOO\DESKTOP\GAMEJAM_V3.2\GAMEENGINEBASE\RELEASE\MAIN.OBJ|C:\USERS\ADITYA MATTOO\DESKTOP\GAMEJAM_V3.2\GAMEENGINEBASE\RELEASE\MEDIATOR.OBJ|C:\USERS\ADITYA MATTOO\DESKTOP\GAMEJAM_V3.2\GAMEENGINEBASE\RELEASE\MODELDATA.OBJ|C:\USERS\ADITYA MATTOO\DESKTOP\GAMEJAM_V3.2\GAMEENGINEBASE\RELEASE\MOVEMENTMANAGER.OBJ|C:\USERS\ADITYA MATTOO\DESKTOP\GAMEJAM_V3.2\GAMEENGINEBASE\RELEASE\OPENGL_CLOSEFUNC.OBJ|C:\USERS\ADITYA MATTOO\DESKTOP\GAMEJAM_V3.2\GAMEENGINEBASE\RELEASE\OPENGL_DISPLAYFUNC.OBJ|C:\USERS\ADITYA MATTOO\DESKTOP\GAMEJAM_V3.2\GAMEENGINEBASE\RELEASE\OPENGL_ERRORCNTRL.OBJ|C:\USERS\ADITYA MATTOO\DESKTOP\GAMEJAM_V3.2\GAMEENGINEBASE\RELEASE\OPENGL_IDLEFUNC.OBJ|C:\USERS\ADITYA MATTOO\DESKTOP\GAMEJAM_V3.2\GAMEENGINEBASE\RELEASE\OPENGL_INIT.OBJ|C:\USERS\ADITYA MATTOO\DESKTOP\GAMEJAM_V3.2\GAMEENGINEBASE\RELEASE\OPENGL_KEYBOARDSPLFUNC.OBJ|C:\USERS\ADITYA MATTOO\DESKTOP\GAMEJAM_V3.2\GAMEENGINEBASE\RELEASE\OPENGL_RESIZE.OBJ|C:\USERS\ADITYA MATTOO\DESKTOP\GAMEJAM_V3.2\GAMEENGINEBASE\RELEASE\PARTICLEGEN.OBJ|C:\USERS\ADITYA MATTOO\DESKTOP\GAMEJAM_V3.2\GAMEENGINEBASE\RELEASE\PHYSICS.OBJ|C:\USERS\ADITYA MATTOO\DESKTOP\GAMEJAM_V3.2\GAMEENGINEBASE\RELEASE\SHADERCLASS.OBJ|C:\USERS\ADITYA MATTOO\DESKTOP\GAMEJAM_V3.2\GAMEENGINEBASE\RELEASE\SHADERUNIFORMVARIABLES.OBJ|C:\USERS\ADITYA MATTOO\DESKTOP\GAMEJAM_V3.2\GAMEENGINEBASE\RELEASE\SOFTBODYCOMP.OBJ|C:\USERS\ADITYA MATTOO\DESKTOP\GAMEJAM_V3.2\GAMEENGINEBASE\RELEASE\SPHERE.OBJ|C:\USERS\ADITYA MATTOO\DESKTOP\GAMEJAM_V3.2\GAMEENGINEBASE\RELEASE\SPRING.OBJ|C:\USERS\ADITYA MATTOO\DESKTOP\GAMEJAM_V3.2\GAMEENGINEBASE\RELEASE\TEXTUREDATA.OBJ|C:\USERS\ADITYA MATTOO\DESKTOP\GAMEJAM_V3.2\GAMEENGINEBASE\RELEASE\VECTOR3D.OBJ|C:\USERS\ADITYA MATTOO\DESKTOP\GAMEJAM_V3.2\GAMEENGINEBASE\RELEASE\XMLPARSER.OBJ
C:\USERS\ADITYA MATTOO\DESKTOP\GAMEJAM_V3.2\RELEASE\GAMEENGINEBASE.EXE
C:\USERS\ADITYA MATTOO\DESKTOP\GAMEJAM_V3.2\RELEASE\GAMEENGINEBASE.PDB
^D:\GDAP\EXAMS_EXTRA\GAMEJAM\GAMEJAM_V3.2\GAMEENGINEBASE\RELEASE\AUDIOMANAGER.OBJ|D:\GDAP\EXAMS_EXTRA\GAMEJAM\GAMEJAM_V3.2\GAMEENGINEBASE\RELEASE\BASEPHYCOMP.OBJ|D:\GDAP\EXAMS_EXTRA\GAMEJAM\GAMEJAM_V3.2\GAMEENGINEBASE\RELEASE\BOUNDINGBOX.OBJ|D:\GDAP\EXAMS_EXTRA\GAMEJAM\GAMEJAM_V3.2\GAMEENGINEBASE\RELEASE\CAMERA.OBJ|D:\GDAP\EXAMS_EXTRA\GAMEJAM\GAMEJAM_V3.2\GAMEENGINEBASE\RELEASE\CHRTIMER.OBJ|D:\GDAP\EXAMS_EXTRA\GAMEJAM\GAMEJAM_V3.2\GAMEENGINEBASE\RELEASE\COLLISIONTEST.OBJ|D:\GDAP\EXAMS_EXTRA\GAMEJAM\GAMEJAM_V3.2\GAMEENGINEBASE\RELEASE\DELEGATOR.OBJ|D:\GDAP\EXAMS_EXTRA\GAMEJAM\GAMEJAM_V3.2\GAMEENGINEBASE\RELEASE\FILEDATALOADER.OBJ|D:\GDAP\EXAMS_EXTRA\GAMEJAM\GAMEJAM_V3.2\GAMEENGINEBASE\RELEASE\GAMEMANAGER.OBJ|D:\GDAP\EXAMS_EXTRA\GAMEJAM\GAMEJAM_V3.2\GAMEENGINEBASE\RELEASE\GAMEOBJECT.OBJ|D:\GDAP\EXAMS_EXTRA\GAMEJAM\GAMEJAM_V3.2\GAMEENGINEBASE\RELEASE\GLFONT2.OBJ|D:\GDAP\EXAMS_EXTRA\GAMEJAM\GAMEJAM_V3.2\GAMEENGINEBASE\RELEASE\GLOBAL.OBJ|D:\GDAP\EXAMS_EXTRA\GAMEJAM\GAMEJAM_V3.2\GAMEENGINEBASE\RELEASE\HAVOKPHANTOMCOMP.OBJ|D:\GDAP\EXAMS_EXTRA\GAMEJAM\GAMEJAM_V3.2\GAMEENGINEBASE\RELEASE\HAVOKPHYCOMP.OBJ|D:\GDAP\EXAMS_EXTRA\GAMEJAM\GAMEJAM_V3.2\GAMEENGINEBASE\RELEASE\HAVOKRIGIDBODY.OBJ|D:\GDAP\EXAMS_EXTRA\GAMEJAM\GAMEJAM_V3.2\GAMEENGINEBASE\RELEASE\HAVOKVEHICLE.OBJ|D:\GDAP\EXAMS_EXTRA\GAMEJAM\GAMEJAM_V3.2\GAMEENGINEBASE\RELEASE\HUD.OBJ|D:\GDAP\EXAMS_EXTRA\GAMEJAM\GAMEJAM_V3.2\GAMEENGINEBASE\RELEASE\MAIN.OBJ|D:\GDAP\EXAMS_EXTRA\GAMEJAM\GAMEJAM_V3.2\GAMEENGINEBASE\RELEASE\MEDIATOR.OBJ|D:\GDAP\EXAMS_EXTRA\GAMEJAM\GAMEJAM_V3.2\GAMEENGINEBASE\RELEASE\MODELDATA.OBJ|D:\GDAP\EXAMS_EXTRA\GAMEJAM\GAMEJAM_V3.2\GAMEENGINEBASE\RELEASE\MOVEMENTMANAGER.OBJ|D:\GDAP\EXAMS_EXTRA\GAMEJAM\GAMEJAM_V3.2\GAMEENGINEBASE\RELEASE\OPENGL_CLOSEFUNC.OBJ|D:\GDAP\EXAMS_EXTRA\GAMEJAM\GAMEJAM_V3.2\GAMEENGINEBASE\RELEASE\OPENGL_DISPLAYFUNC.OBJ|D:\GDAP\EXAMS_EXTRA\GAMEJAM\GAMEJAM_V3.2\GAMEENGINEBASE\RELEASE\OPENGL_ERRORCNTRL.OBJ|D:\GDAP\EXAMS_EXTRA\GAMEJAM\GAMEJAM_V3.2\GAMEENGINEBASE\RELEASE\OPENGL_IDLEFUNC.OBJ|D:\GDAP\EXAMS_EXTRA\GAMEJAM\GAMEJAM_V3.2\GAMEENGINEBASE\RELEASE\OPENGL_INIT.OBJ|D:\GDAP\EXAMS_EXTRA\GAMEJAM\GAMEJAM_V3.2\GAMEENGINEBASE\RELEASE\OPENGL_KEYBOARDSPLFUNC.OBJ|D:\GDAP\EXAMS_EXTRA\GAMEJAM\GAMEJAM_V3.2\GAMEENGINEBASE\RELEASE\OPENGL_RESIZE.OBJ|D:\GDAP\EXAMS_EXTRA\GAMEJAM\GAMEJAM_V3.2\GAMEENGINEBASE\RELEASE\PARTICLEGEN.OBJ|D:\GDAP\EXAMS_EXTRA\GAMEJAM\GAMEJAM_V3.2\GAMEENGINEBASE\RELEASE\PHYSICS.OBJ|D:\GDAP\EXAMS_EXTRA\GAMEJAM\GAMEJAM_V3.2\GAMEENGINEBASE\RELEASE\SHADERCLASS.OBJ|D:\GDAP\EXAMS_EXTRA\GAMEJAM\GAMEJAM_V3.2\GAMEENGINEBASE\RELEASE\SHADERUNIFORMVARIABLES.OBJ|D:\GDAP\EXAMS_EXTRA\GAMEJAM\GAMEJAM_V3.2\GAMEENGINEBASE\RELEASE\SOFTBODYCOMP.OBJ|D:\GDAP\EXAMS_EXTRA\GAMEJAM\GAMEJAM_V3.2\GAMEENGINEBASE\RELEASE\SPHERE.OBJ|D:\GDAP\EXAMS_EXTRA\GAMEJAM\GAMEJAM_V3.2\GAMEENGINEBASE\RELEASE\SPRING.OBJ|D:\GDAP\EXAMS_EXTRA\GAMEJAM\GAMEJAM_V3.2\GAMEENGINEBASE\RELEASE\TEXTUREDATA.OBJ|D:\GDAP\EXAMS_EXTRA\GAMEJAM\GAMEJAM_V3.2\GAMEENGINEBASE\RELEASE\VECTOR3D.OBJ|D:\GDAP\EXAMS_EXTRA\GAMEJAM\GAMEJAM_V3.2\GAMEENGINEBASE\RELEASE\XMLPARSER.OBJ
D:\GDAP\EXAMS_EXTRA\GAMEJAM\GAMEJAM_V3.2\RELEASE\GAMEENGINEBASE.EXE
D:\GDAP\EXAMS_EXTRA\GAMEJAM\GAMEJAM_V3.2\RELEASE\GAMEENGINEBASE.PDB
